{
    "_id": "Uhhhh06jUhNkRHKS",
    "data": {
        "attributes": {
            "ac": {
                "value": 10
            },
            "hardness": 0,
            "hasHealth": true,
            "hp": {
                "details": "",
                "max": 10,
                "temp": 0,
                "value": 10
            },
            "stealth": {
                "details": "<p>(trained)</p>",
                "value": 12
            }
        },
        "creatureType": "",
        "details": {
            "description": "<p>An invisible magic field around the strongbox releases a spray of acid when disturbed.</p>",
            "disable": "<p>@Check[type:thievery|dc:22|name:Bleed Away the Magical Field|traits:acid,evocation,magical,trap,hazard] (expert) to harmlessly bleed away the magical field or <em>@Compendium[pf2e.spells-srd.Dispel Magic]{Dispel Magic}</em> (2nd level; counteract DC 20) to dispel it.</p>",
            "isComplex": false,
            "level": {
                "value": 4
            },
            "reset": "",
            "routine": ""
        },
        "saves": {
            "fortitude": {
                "saveDetail": "",
                "value": 0
            },
            "reflex": {
                "saveDetail": "",
                "value": 0
            },
            "will": {
                "saveDetail": "",
                "value": 0
            }
        },
        "source": {
            "value": "Pathfinder #175: Broken Tusk Moon"
        },
        "statusEffects": [],
        "traits": {
            "ci": [],
            "di": {
                "custom": "",
                "selected": {},
                "value": []
            },
            "dr": [],
            "dv": [],
            "rarity": "common",
            "size": {
                "value": "med"
            },
            "traits": {
                "custom": "",
                "value": [
                    "acid",
                    "evocation",
                    "magical",
                    "trap"
                ]
            }
        }
    },
    "flags": {},
    "img": "systems/pf2e/icons/default-icons/hazard.svg",
    "items": [
        {
            "_id": "lJHpE7lDy3oQrp0E",
            "data": {
                "actionCategory": {
                    "value": "offensive"
                },
                "actionType": {
                    "value": "reaction"
                },
                "actions": {
                    "value": null
                },
                "description": {
                    "value": "<p><strong>Trigger</strong> A creature touches the strongbox directly or with a held tool</p>\n<p><strong>Effect</strong> The trap deals [[/r {4d8+10}[acid]]]{4d8+10 acid damage} in a @Template[type:cone|distance:15] in the direction of the triggering creature (@Check[type:reflex|dc:21|basic:true]).</p>"
                },
                "requirements": {
                    "value": ""
                },
                "rules": [],
                "slug": null,
                "source": {
                    "value": ""
                },
                "traits": {
                    "custom": "",
                    "rarity": "common",
                    "value": [
                        "acid",
                        "arcane",
                        "evocation"
                    ]
                },
                "trigger": {
                    "value": ""
                }
            },
            "flags": {},
            "img": "systems/pf2e/icons/actions/Reaction.webp",
            "name": "Acidic Spray",
            "sort": 0,
            "type": "action"
        }
    ],
    "name": "Acid Strongbox Trap",
    "token": {
        "disposition": 0,
        "height": 1,
        "img": "systems/pf2e/icons/default-icons/hazard.svg",
        "name": "Acid Strongbox Trap",
        "width": 1
    },
    "type": "hazard"
}
