{
    "_id": "lXpZF3gFjkXz6Eua",
    "data": {
        "attributes": {
            "ac": {
                "value": 10
            },
            "hardness": 0,
            "hasHealth": false,
            "hp": {
                "details": "",
                "max": 0,
                "temp": 0,
                "value": 0
            },
            "stealth": {
                "details": "(master)",
                "value": 32
            }
        },
        "creatureType": "",
        "customModifiers": {},
        "details": {
            "description": "While the roof is on fire and collapsing timbers crush those within the hall, demons fly down from the sky to pluck victims from the flames.",
            "disable": "<p>Two @Check[type:athletics|dc:32] or @Check[type:diplomacy|dc:32] checks to douse the flames; Athletics to do the work yourself or Diplomacy to muster the ghostly soldiers. This reduces the hazard's actions by 1 and prevents it from using Burning Timbers. Banish the demons with up to two @Check[type:arcana|dc:35], @Check[type:occultism|dc:35], or @Check[type:religion|dc:35]checks; each success reduces the hazard's actions by 1, and two successes prevent it from using Demonic Abduction. When the hazard loses all 3 actions, Burning Timbers, and Demonic Abduction, it's disabled.</p>",
            "isComplex": true,
            "level": {
                "value": 10
            },
            "reset": "The hall falls quiet for 24 hours, after which it can trigger again.",
            "routine": "<p>(3 actions) The haunt spends 1 action to fill the hall with burning timbers falling from above, and 2 actions to pluck up random victims and drop them to their deaths.</p>"
        },
        "flavourText": "",
        "nethysUrl": "",
        "recallKnowledgeText": "",
        "saves": {
            "fortitude": {
                "saveDetail": "",
                "value": 0
            },
            "reflex": {
                "saveDetail": "",
                "value": 0
            },
            "will": {
                "saveDetail": "",
                "value": 0
            }
        },
        "sidebarText": "",
        "source": {
            "value": ""
        },
        "statusEffects": [],
        "traits": {
            "ci": [],
            "di": {
                "custom": "",
                "selected": {},
                "value": []
            },
            "dr": [],
            "dv": [],
            "rarity": "common",
            "size": {
                "value": "med"
            },
            "traits": {
                "custom": "",
                "value": [
                    "haunt"
                ]
            }
        }
    },
    "flags": {},
    "img": "systems/pf2e/icons/default-icons/hazard.svg",
    "items": [
        {
            "_id": "ozgq1pzerrro14x6",
            "data": {
                "actionCategory": {
                    "value": "offensive"
                },
                "actionType": {
                    "value": "reaction"
                },
                "actions": {
                    "value": null
                },
                "description": {
                    "value": "<strong>Trigger</strong> A creature enters the hall or ends its turn in the hall <hr /><p><strong>Effect</strong> The hall bursts into flame, dealing [[/r {4d6}[fire]]]{4d6 fire damage} to each creature in the hall. The haunt then rolls initiative.</p>"
                },
                "requirements": {
                    "value": ""
                },
                "rules": [],
                "slug": null,
                "source": {
                    "value": "Pathfinder #177: Burning Tundra"
                },
                "traits": {
                    "custom": "",
                    "rarity": "common",
                    "value": []
                },
                "trigger": {
                    "value": ""
                }
            },
            "flags": {},
            "img": "systems/pf2e/icons/actions/Reaction.webp",
            "name": "Burst of Fire",
            "sort": 0,
            "type": "action"
        },
        {
            "_id": "rrcv4kfcb6jhr9dq",
            "data": {
                "actionCategory": {
                    "value": "offensive"
                },
                "actionType": {
                    "value": "action"
                },
                "actions": {
                    "value": 1
                },
                "description": {
                    "value": "<p>Creatures within the 30-foot by 90-foot area of the hall take [[/r {4d6+12}[fire]]]{4d6+12 fire damage} (@Check[type:reflex|dc:29|basic:true]).</p>"
                },
                "requirements": {
                    "value": ""
                },
                "rules": [],
                "slug": null,
                "source": {
                    "value": "Pathfinder #177: Burning Tundra"
                },
                "traits": {
                    "custom": "",
                    "rarity": "common",
                    "value": []
                },
                "trigger": {
                    "value": ""
                }
            },
            "flags": {},
            "img": "systems/pf2e/icons/actions/OneAction.webp",
            "name": "Burning Timbers",
            "sort": 0,
            "type": "action"
        },
        {
            "_id": "Wu7QjEcaoWRUL8xO",
            "data": {
                "attack": {
                    "value": ""
                },
                "attackEffects": {
                    "value": []
                },
                "bonus": {
                    "value": 23
                },
                "damageRolls": {
                    "0d0ak1iz6fhae10nuape": {
                        "damage": "25",
                        "damageType": "bludgeoning"
                    }
                },
                "description": {
                    "value": "<p>Spectral demons lift a single creature 50 feet into the air and drop it. The haunt makes a Strike against the creature with a +23 attack bonus. On a success, the creature is lifted into the air and dropped, taking [[/r {25}[bludgeoning] damage]]{25 bludgeoning}, though it might negate some or all this damage using a spell, such as <em>@Compendium[pf2e.spells-srd.Feather Fall]{Feather Fall}</em>. On a critical hit, the creature also takes [[/r {2d12+13}[slashing]]]{2d12+13 slashing damage} as the demons' claws tear through its flesh.</p>"
                },
                "rules": [],
                "slug": null,
                "source": {
                    "value": ""
                },
                "traits": {
                    "custom": "",
                    "rarity": "common",
                    "value": []
                },
                "weaponType": {
                    "value": "melee"
                }
            },
            "flags": {},
            "img": "systems/pf2e/icons/default-icons/melee.svg",
            "name": "Demonic Abduction",
            "sort": 0,
            "type": "melee"
        }
    ],
    "name": "Hall Of Fiery Doom",
    "token": {
        "disposition": 0,
        "height": 1,
        "img": "systems/pf2e/icons/default-icons/npc.svg",
        "name": "Hall Of Fiery Doom",
        "width": 1
    },
    "type": "hazard"
}
