{
    "_id": "7yanFrY21w21ZNFP",
    "data": {
        "abilities": {
            "cha": {
                "mod": 4
            },
            "con": {
                "mod": 4
            },
            "dex": {
                "mod": 8
            },
            "int": {
                "mod": 5
            },
            "str": {
                "mod": 6
            },
            "wis": {
                "mod": 6
            }
        },
        "attributes": {
            "ac": {
                "details": "",
                "value": 34
            },
            "allSaves": {
                "value": ""
            },
            "hp": {
                "details": "",
                "max": 225,
                "temp": 0,
                "value": 225
            },
            "initiative": {
                "ability": "perception"
            },
            "perception": {
                "value": 27
            },
            "shield": {
                "ac": 2,
                "brokenThreshold": 0,
                "hardness": 0,
                "max": 0,
                "value": 0
            },
            "speed": {
                "otherSpeeds": [
                    {
                        "type": "climb",
                        "value": "15"
                    }
                ],
                "special": "",
                "value": "30"
            }
        },
        "details": {
            "alignment": {
                "value": "CE"
            },
            "blurb": "",
            "creatureType": "",
            "level": {
                "value": 13
            },
            "privateNotes": "",
            "publicNotes": "",
            "source": {
                "value": "Pathfinder #177: Burning Tundra"
            }
        },
        "resources": {},
        "saves": {
            "fortitude": {
                "saveDetail": "",
                "value": 23
            },
            "reflex": {
                "saveDetail": "",
                "value": 27
            },
            "will": {
                "saveDetail": "",
                "value": 21
            }
        },
        "traits": {
            "ci": [],
            "di": {
                "custom": "",
                "value": [
                    "cold"
                ]
            },
            "dr": [],
            "dv": [
                {
                    "type": "fire",
                    "value": 10
                }
            ],
            "languages": {
                "custom": "",
                "selected": [],
                "value": [
                    "common",
                    "hallit",
                    "jotun"
                ]
            },
            "rarity": "unique",
            "senses": {
                "value": "low-light vision"
            },
            "size": {
                "value": "lg"
            },
            "traits": {
                "custom": "",
                "value": [
                    "cold",
                    "giant",
                    "humanoid"
                ]
            }
        }
    },
    "flags": {},
    "img": "systems/pf2e/icons/default-icons/npc.svg",
    "items": [
        {
            "_id": "EUZl566GnS5jmEtE",
            "data": {
                "MAP": {
                    "value": ""
                },
                "baseItem": "composite-longbow",
                "bonus": {
                    "value": 0
                },
                "bonusDamage": {
                    "value": 0
                },
                "category": "advanced",
                "containerId": null,
                "damage": {
                    "damageType": "slashing",
                    "dice": 1,
                    "die": "d8",
                    "value": ""
                },
                "description": {
                    "value": "<p>This heavy, 12-foot-tall +2 striking @Compendium[pf2e.equipment-srd.Composite Longbow]{Composite Longbow} is fashioned from mammoth tusks lashed together. Due to its great size, you can attack with the Mammoth Bow only if you're Large or larger. The Mammoth Bow deals 2d6 additional piercing damage because of its incredible, magically enhanced draw power. Additionally, the Mammoth Bow has a 180-foot range increment instead of a 100-foot range increment, but its volley range increases from 30 feet to 50 feet.</p>"
                },
                "equipped": {
                    "carryType": "worn",
                    "handsHeld": 0,
                    "invested": null
                },
                "equippedBulk": {
                    "value": ""
                },
                "group": "bow",
                "hardness": 0,
                "hp": {
                    "brokenThreshold": 0,
                    "max": 0,
                    "value": 0
                },
                "level": {
                    "value": 12
                },
                "negateBulk": {
                    "value": "0"
                },
                "potencyRune": {
                    "value": 2
                },
                "preciousMaterial": {
                    "value": null
                },
                "preciousMaterialGrade": {
                    "value": null
                },
                "price": {
                    "value": {
                        "gp": 2000
                    }
                },
                "property1": {
                    "critDamage": "",
                    "critDamageType": "",
                    "critDice": 0,
                    "critDie": "",
                    "criticalConditionType": "",
                    "criticalConditionValue": null,
                    "damageType": "piercing",
                    "dice": 2,
                    "die": "d6",
                    "strikeConditionType": "",
                    "strikeConditionValue": null,
                    "value": ""
                },
                "propertyRune1": {
                    "value": null
                },
                "propertyRune2": {
                    "value": null
                },
                "propertyRune3": {
                    "value": null
                },
                "propertyRune4": {
                    "value": null
                },
                "quantity": 1,
                "range": 180,
                "reload": {
                    "value": "0"
                },
                "rules": [],
                "size": "lg",
                "slug": null,
                "source": {
                    "value": "Pathfinder #177: Burning Tundra"
                },
                "specific": {
                    "value": false
                },
                "splashDamage": {
                    "value": 0
                },
                "stackGroup": null,
                "strikingRune": {
                    "value": "striking"
                },
                "traits": {
                    "custom": "",
                    "rarity": "unique",
                    "value": [
                        "deadly-d10",
                        "evocation",
                        "magical",
                        "propulsive",
                        "volley-50"
                    ]
                },
                "usage": {
                    "value": "held-in-one-hand"
                },
                "weight": {
                    "value": "4"
                }
            },
            "flags": {
                "core": {
                    "sourceId": "Compendium.pf2e.equipment-srd.tYnFIqjvxT9bWaoR"
                }
            },
            "img": "systems/pf2e/icons/equipment/weapons/composite-longbow.webp",
            "name": "Mammoth Bow",
            "sort": 100000,
            "type": "weapon"
        },
        {
            "_id": "1mkQgZuaXySesiDG",
            "data": {
                "MAP": {
                    "value": ""
                },
                "baseItem": "shortsword",
                "bonus": {
                    "value": 0
                },
                "bonusDamage": {
                    "value": 0
                },
                "category": "martial",
                "containerId": null,
                "damage": {
                    "damageType": "piercing",
                    "dice": 1,
                    "die": "d6",
                    "value": ""
                },
                "description": {
                    "value": "<p>These blades come in a variety of shapes and styles, but they are typically 2 feet long.</p>"
                },
                "equipped": {
                    "carryType": "worn",
                    "handsHeld": 0,
                    "invested": null
                },
                "equippedBulk": {
                    "value": ""
                },
                "group": "sword",
                "hardness": 0,
                "hp": {
                    "brokenThreshold": 0,
                    "max": 0,
                    "value": 0
                },
                "level": {
                    "value": 0
                },
                "negateBulk": {
                    "value": "0"
                },
                "potencyRune": {
                    "value": 1
                },
                "preciousMaterial": {
                    "value": null
                },
                "preciousMaterialGrade": {
                    "value": null
                },
                "price": {
                    "value": {
                        "sp": 9
                    }
                },
                "property1": {
                    "critDamage": "",
                    "critDamageType": "",
                    "critDice": null,
                    "critDie": "",
                    "criticalConditionType": "",
                    "criticalConditionValue": null,
                    "damageType": "",
                    "dice": null,
                    "die": "",
                    "strikeConditionType": "",
                    "strikeConditionValue": null,
                    "value": ""
                },
                "propertyRune1": {
                    "value": null
                },
                "propertyRune2": {
                    "value": null
                },
                "propertyRune3": {
                    "value": null
                },
                "propertyRune4": {
                    "value": null
                },
                "quantity": 2,
                "range": null,
                "reload": {
                    "value": ""
                },
                "rules": [],
                "size": "lg",
                "slug": "shortsword",
                "source": {
                    "value": "Pathfinder Core Rulebook"
                },
                "specific": {
                    "value": false
                },
                "splashDamage": {
                    "value": 0
                },
                "stackGroup": null,
                "strikingRune": {
                    "value": "striking"
                },
                "traits": {
                    "custom": "",
                    "rarity": "common",
                    "value": [
                        "agile",
                        "finesse",
                        "versatile-s"
                    ]
                },
                "usage": {
                    "value": "held-in-one-hand"
                },
                "weight": {
                    "value": "L"
                }
            },
            "flags": {
                "core": {
                    "sourceId": "Compendium.pf2e.equipment-srd.7tKkkF8eZ4iCLJtp"
                }
            },
            "img": "systems/pf2e/icons/equipment/weapons/shortsword.webp",
            "name": "Shortsword",
            "sort": 200000,
            "type": "weapon"
        },
        {
            "_id": "0sve3eZSPEJSD1FM",
            "data": {
                "armor": {
                    "value": 2
                },
                "baseItem": "chain-shirt",
                "category": "light",
                "check": {
                    "value": -1
                },
                "containerId": null,
                "description": {
                    "value": "<p>Sometimes called a hauberk, this is a long shirt constructed of the same metal rings as chainmail. However, it is much lighter than chainmail and protects only the torso, upper arms, and upper legs of its wearer.</p>"
                },
                "dex": {
                    "value": 3
                },
                "equipped": {
                    "carryType": "worn",
                    "inSlot": false,
                    "invested": null
                },
                "equippedBulk": {
                    "value": "1"
                },
                "group": "chain",
                "hardness": 0,
                "hp": {
                    "brokenThreshold": 0,
                    "max": 0,
                    "value": 0
                },
                "level": {
                    "value": 0
                },
                "negateBulk": {
                    "value": "0"
                },
                "potency": {},
                "potencyRune": {
                    "value": 0
                },
                "preciousMaterial": {
                    "value": null
                },
                "preciousMaterialGrade": {
                    "value": null
                },
                "price": {
                    "value": {
                        "gp": 5
                    }
                },
                "propertyRune1": {
                    "value": ""
                },
                "propertyRune2": {
                    "value": ""
                },
                "propertyRune3": {
                    "value": ""
                },
                "propertyRune4": {
                    "value": ""
                },
                "quantity": 1,
                "resiliencyRune": {
                    "value": ""
                },
                "rules": [],
                "size": "lg",
                "slug": "chain-shirt",
                "source": {
                    "value": "Pathfinder Core Rulebook"
                },
                "speed": {
                    "value": 0
                },
                "stackGroup": null,
                "strength": {
                    "value": 12
                },
                "traits": {
                    "custom": "",
                    "rarity": "common",
                    "value": [
                        "flexible",
                        "noisy"
                    ]
                },
                "usage": {
                    "value": "wornarmor"
                },
                "weight": {
                    "value": "2"
                }
            },
            "flags": {
                "core": {
                    "sourceId": "Compendium.pf2e.equipment-srd.MPcM4Wt6KmWE2kGL"
                }
            },
            "img": "systems/pf2e/icons/equipment/armor/chainshirt.webp",
            "name": "Chain Shirt",
            "sort": 300000,
            "type": "armor"
        },
        {
            "_id": "ao9F9f9chYtSJmll",
            "data": {
                "activation": {
                    "condition": "",
                    "cost": 0,
                    "type": ""
                },
                "autoDestroy": {
                    "_deprecated": true,
                    "value": true
                },
                "autoUse": {
                    "_deprecated": true,
                    "value": true
                },
                "baseItem": null,
                "charges": {
                    "_deprecated": true,
                    "max": 0,
                    "value": 0
                },
                "consumableType": {
                    "value": "ammo"
                },
                "consume": {
                    "_deprecated": true,
                    "value": ""
                },
                "containerId": null,
                "description": {
                    "value": "<p>These projectiles are the ammunition for bows. The shaft of an arrow is made of wood. It is stabilized in flight by fletching at one end and bears a metal head on the other.</p>"
                },
                "duration": {
                    "units": "",
                    "value": null
                },
                "equipped": {
                    "carryType": "worn",
                    "handsHeld": 0
                },
                "equippedBulk": {
                    "value": ""
                },
                "hardness": 0,
                "hp": {
                    "brokenThreshold": 0,
                    "max": 0,
                    "value": 0
                },
                "level": {
                    "value": 0
                },
                "negateBulk": {
                    "value": "0"
                },
                "preciousMaterial": {
                    "value": ""
                },
                "preciousMaterialGrade": {
                    "value": ""
                },
                "price": {
                    "value": {
                        "sp": 1
                    }
                },
                "quantity": 30,
                "range": {
                    "long": null,
                    "units": "",
                    "value": null
                },
                "rules": [],
                "size": "lg",
                "slug": "arrows",
                "source": {
                    "value": "Pathfinder Core Rulebook"
                },
                "spell": {
                    "data": null,
                    "heightenedLevel": null
                },
                "stackGroup": "arrows",
                "target": {
                    "type": "",
                    "units": "",
                    "value": null
                },
                "traits": {
                    "custom": "",
                    "rarity": "common",
                    "value": []
                },
                "usage": {
                    "value": "held-in-one-hand"
                },
                "uses": {
                    "autoDestroy": true,
                    "autoUse": true,
                    "max": 0,
                    "per": null,
                    "value": 0
                },
                "weight": {
                    "value": "L"
                }
            },
            "flags": {
                "core": {
                    "sourceId": "Compendium.pf2e.equipment-srd.w2ENw2VMPcsbif8g"
                }
            },
            "img": "systems/pf2e/icons/equipment/weapons/arrows.webp",
            "name": "Arrows",
            "sort": 400000,
            "type": "consumable"
        },
        {
            "_id": "AiEApyPGuRn9V2S7",
            "data": {
                "activation": {
                    "condition": "",
                    "cost": 0,
                    "type": ""
                },
                "autoDestroy": {
                    "_deprecated": true,
                    "value": true
                },
                "autoUse": {
                    "_deprecated": true,
                    "value": true
                },
                "baseItem": null,
                "charges": {
                    "_deprecated": true,
                    "max": 1,
                    "value": 1
                },
                "consumableType": {
                    "value": "potion"
                },
                "consume": {
                    "_deprecated": true,
                    "value": ""
                },
                "containerId": null,
                "description": {
                    "value": "<p>Drinking this thick, fortifying potion grants resistance 10 against fire damage for 1 hour.</p>\n<p><strong>Activate</strong> <span class=\"pf2-icon\">A</span> Interact</p>"
                },
                "duration": {
                    "units": "",
                    "value": null
                },
                "equipped": {
                    "carryType": "worn"
                },
                "equippedBulk": {
                    "value": ""
                },
                "hardness": 0,
                "hp": {
                    "brokenThreshold": 0,
                    "max": 0,
                    "value": 0
                },
                "level": {
                    "value": 10
                },
                "negateBulk": {
                    "value": "0"
                },
                "preciousMaterial": {
                    "value": ""
                },
                "preciousMaterialGrade": {
                    "value": ""
                },
                "price": {
                    "value": {
                        "gp": 180
                    }
                },
                "quantity": 1,
                "range": {
                    "long": null,
                    "units": "",
                    "value": null
                },
                "rules": [],
                "size": "lg",
                "slug": "potion-of-fire-resistance-moderate",
                "source": {
                    "value": "Pathfinder Core Rulebook"
                },
                "spell": {
                    "data": null,
                    "heightenedLevel": null
                },
                "stackGroup": null,
                "target": {
                    "type": "",
                    "units": "",
                    "value": null
                },
                "traits": {
                    "custom": "",
                    "rarity": "common",
                    "value": [
                        "abjuration",
                        "consumable",
                        "magical",
                        "potion"
                    ]
                },
                "usage": {
                    "value": "held-in-one-hand"
                },
                "uses": {
                    "autoDestroy": true,
                    "autoUse": true,
                    "max": 0,
                    "per": null,
                    "value": 0
                },
                "weight": {
                    "value": "L"
                }
            },
            "flags": {
                "core": {
                    "sourceId": "Compendium.pf2e.equipment-srd.m99u0zXVbyPdK8Mf"
                }
            },
            "img": "systems/pf2e/icons/equipment/consumables/potions/potion-of-fire-resistance.webp",
            "name": "Potion of Fire Resistance (Moderate)",
            "sort": 500000,
            "type": "consumable"
        },
        {
            "_id": "susn3naoeh7sckhg",
            "data": {
                "attack": {
                    "value": ""
                },
                "attackEffects": {
                    "custom": "",
                    "value": []
                },
                "bonus": {
                    "value": 26
                },
                "damageRolls": {
                    "gb7bbNhNLUFPYUrg": {
                        "damage": "2d6+12",
                        "damageType": "slashing"
                    }
                },
                "description": {
                    "value": ""
                },
                "rules": [],
                "slug": null,
                "source": {
                    "value": ""
                },
                "traits": {
                    "custom": "",
                    "rarity": "common",
                    "value": [
                        "agile",
                        "finesse",
                        "magical",
                        "reach-10",
                        "versatile-p"
                    ]
                },
                "weaponType": {
                    "value": "melee"
                }
            },
            "flags": {},
            "img": "systems/pf2e/icons/default-icons/melee.svg",
            "name": "Shortsword",
            "sort": 600000,
            "type": "melee"
        },
        {
            "_id": "uc1c3idsnrm1d85j",
            "data": {
                "attack": {
                    "value": ""
                },
                "attackEffects": {
                    "custom": "",
                    "value": []
                },
                "bonus": {
                    "value": 25
                },
                "damageRolls": {
                    "8IrP6WQZsXy5XLFo": {
                        "damage": "3d6+12",
                        "damageType": "bludgeoning"
                    }
                },
                "description": {
                    "value": ""
                },
                "rules": [],
                "slug": null,
                "source": {
                    "value": ""
                },
                "traits": {
                    "custom": "",
                    "rarity": "common",
                    "value": [
                        "agile",
                        "finesse",
                        "reach-10"
                    ]
                },
                "weaponType": {
                    "value": "melee"
                }
            },
            "flags": {},
            "img": "systems/pf2e/icons/default-icons/melee.svg",
            "name": "Foot",
            "sort": 700000,
            "type": "melee"
        },
        {
            "_id": "hsuj9rucxxf432xe",
            "data": {
                "attack": {
                    "value": ""
                },
                "attackEffects": {
                    "custom": "",
                    "value": [
                        "2d6 additional piercing"
                    ]
                },
                "bonus": {
                    "value": 27
                },
                "damageRolls": {
                    "TQAxdWFbJat9mJ06": {
                        "damage": "3d8+9",
                        "damageType": "piercing"
                    }
                },
                "description": {
                    "value": ""
                },
                "rules": [],
                "slug": null,
                "source": {
                    "value": ""
                },
                "traits": {
                    "custom": "",
                    "rarity": "common",
                    "value": [
                        "deadly-d10",
                        "magical",
                        "propulsive",
                        "range increment 180 feet",
                        "reload-0",
                        "volley 50 feet"
                    ]
                },
                "weaponType": {
                    "value": "ranged"
                }
            },
            "flags": {},
            "img": "systems/pf2e/icons/default-icons/melee.svg",
            "name": "Mammoth Bow",
            "sort": 800000,
            "type": "melee"
        },
        {
            "_id": "386z4ssm07gjc79w",
            "data": {
                "actionCategory": {
                    "value": "defensive"
                },
                "actionType": {
                    "value": "passive"
                },
                "actions": {
                    "value": ""
                },
                "description": {
                    "value": "<p>When Hegremon rolls a success on a Reflex save, he gets a critical success instead.</p>"
                },
                "requirements": {
                    "value": ""
                },
                "rules": [],
                "slug": null,
                "source": {
                    "value": ""
                },
                "traits": {
                    "custom": "",
                    "rarity": "common",
                    "value": []
                },
                "trigger": {
                    "value": ""
                }
            },
            "flags": {},
            "img": "systems/pf2e/icons/actions/Passive.webp",
            "name": "Evasion",
            "sort": 900000,
            "type": "action"
        },
        {
            "_id": "g1rumnhbn2a57z2m",
            "data": {
                "actionCategory": {
                    "value": "offensive"
                },
                "actionType": {
                    "value": "action"
                },
                "actions": {
                    "value": "2"
                },
                "description": {
                    "value": "<p>Hegremon makes a single <i>mammoth bow</i> Strike against his prey; he gains a +2 circumstance bonus to the attack roll and ignores his prey's @Compendium[pf2e.conditionitems.Concealed]{Concealed} condition.</p>"
                },
                "requirements": {
                    "value": ""
                },
                "rules": [],
                "slug": null,
                "source": {
                    "value": ""
                },
                "traits": {
                    "custom": "",
                    "rarity": "common",
                    "value": [
                        "concentrate"
                    ]
                },
                "trigger": {
                    "value": ""
                }
            },
            "flags": {},
            "img": "systems/pf2e/icons/actions/TwoActions.webp",
            "name": "Aimed Shot",
            "sort": 1000000,
            "type": "action"
        },
        {
            "_id": "r1djqa32mu226hey",
            "data": {
                "actionCategory": {
                    "value": "offensive"
                },
                "actionType": {
                    "value": "action"
                },
                "actions": {
                    "value": 1
                },
                "description": {
                    "value": "<p>(cold, evocation, primal) Hegremon breathes out a @Template[type:cone|distance:15] of freezing moisture that quickly condenses into ice, dealing [[/r {6d6}[cold]]]{6d6 cold damage}. Each creature in the cone must attempt a @Check[type:reflex|dc:28|basic:true]. A creature that fails its save is also @Compendium[pf2e.conditionitems.Immobilized]{Immobilized} and takes 2d6 cold damage at the end of each of its turns until it breaks free (Escape DC 28). Hegremon can't use Chill Breath again for [[/r 1d4 #rounds]]{1d4 rounds}.</p>"
                },
                "requirements": {
                    "value": ""
                },
                "rules": [],
                "slug": null,
                "source": {
                    "value": ""
                },
                "traits": {
                    "custom": "",
                    "rarity": "common",
                    "value": []
                },
                "trigger": {
                    "value": ""
                }
            },
            "flags": {},
            "img": "systems/pf2e/icons/actions/OneAction.webp",
            "name": "Chill Breath",
            "sort": 1100000,
            "type": "action"
        },
        {
            "_id": "efvt9dagg4g6f0r5",
            "data": {
                "actionCategory": {
                    "value": "offensive"
                },
                "actionType": {
                    "value": "action"
                },
                "actions": {
                    "value": "1"
                },
                "description": {
                    "value": "<p>Hegremon designates a single creature he can see and hear, or one he's Tracking, as his prey. Hegremon has a +2 circumstance bonus to Perception checks to Seek his prey and a +2 circumstance bonus to Survival checks to Track his prey. He ignores the penalty to ranged attacks within his second range increment against his prey. The first time Hegremon hits his prey in a round, he inflicts an additional [[/r {2d8}[precision]]]{2d8 precision damage}. These effects last until Hegremon uses Hunt Prey again.</p>"
                },
                "requirements": {
                    "value": ""
                },
                "rules": [],
                "slug": null,
                "source": {
                    "value": ""
                },
                "traits": {
                    "custom": "",
                    "rarity": "common",
                    "value": [
                        "concentrate"
                    ]
                },
                "trigger": {
                    "value": ""
                }
            },
            "flags": {},
            "img": "systems/pf2e/icons/actions/OneAction.webp",
            "name": "Hunt Prey",
            "sort": 1200000,
            "type": "action"
        },
        {
            "_id": "t1a884j38q9nl53v",
            "data": {
                "actionCategory": {
                    "value": "offensive"
                },
                "actionType": {
                    "value": "action"
                },
                "actions": {
                    "value": "1"
                },
                "description": {
                    "value": "<strong>Frequency</strong> once per round <hr /><p><strong>Effect</strong> Hegremon makes two <i>mammoth bow</i> Strikes against his prey. If both hit, combine their damage for the purposes of resistances and weaknesses. His multiple attack penalty applies to each Strike normally.</p>"
                },
                "requirements": {
                    "value": ""
                },
                "rules": [],
                "slug": null,
                "source": {
                    "value": ""
                },
                "traits": {
                    "custom": "",
                    "rarity": "common",
                    "value": []
                },
                "trigger": {
                    "value": ""
                }
            },
            "flags": {},
            "img": "systems/pf2e/icons/actions/OneAction.webp",
            "name": "Hunting Shot",
            "sort": 1300000,
            "type": "action"
        },
        {
            "_id": "g3ie3xhweys48r78",
            "data": {
                "actionCategory": {
                    "value": "offensive"
                },
                "actionType": {
                    "value": "passive"
                },
                "actions": {
                    "value": ""
                },
                "description": {
                    "value": "<p>Hegremon isn't impeded by difficult terrain caused by snow or ice, nor does he need to attempt Acrobatics checks to keep from falling on slippery ice.</p>"
                },
                "requirements": {
                    "value": ""
                },
                "rules": [],
                "slug": null,
                "source": {
                    "value": ""
                },
                "traits": {
                    "custom": "",
                    "rarity": "common",
                    "value": []
                },
                "trigger": {
                    "value": ""
                }
            },
            "flags": {},
            "img": "systems/pf2e/icons/actions/Passive.webp",
            "name": "Ice Stride",
            "sort": 1400000,
            "type": "action"
        },
        {
            "_id": "4v38lfrtzhtdntsr",
            "data": {
                "actionCategory": {
                    "value": "offensive"
                },
                "actionType": {
                    "value": "passive"
                },
                "actions": {
                    "value": ""
                },
                "description": {
                    "value": "<p>Creatures in natural difficult terrain or on natural uneven ground are @Compendium[pf2e.conditionitems.Flat-Footed]{Flat-Footed} to Hegremon.</p>"
                },
                "requirements": {
                    "value": ""
                },
                "rules": [],
                "slug": null,
                "source": {
                    "value": ""
                },
                "traits": {
                    "custom": "",
                    "rarity": "common",
                    "value": []
                },
                "trigger": {
                    "value": ""
                }
            },
            "flags": {},
            "img": "systems/pf2e/icons/actions/Passive.webp",
            "name": "Nature’s Edge",
            "sort": 1500000,
            "type": "action"
        },
        {
            "_id": "0elx54bwwenkpc24",
            "data": {
                "actionCategory": {
                    "value": "offensive"
                },
                "actionType": {
                    "value": "action"
                },
                "actions": {
                    "value": "2"
                },
                "description": {
                    "value": "<p>Hegremon chooses a target that's giving lesser cover to his prey and makes a <i>mammoth bow</i> Strike against the chosen target and his prey. This attack ignores lesser cover the chosen target provides his prey. Hegremon rolls damage twice and applies it to each creature he hits. A Penetrating Shot counts as two attacks for his multiple attack penalty.</p>"
                },
                "requirements": {
                    "value": ""
                },
                "rules": [],
                "slug": null,
                "source": {
                    "value": ""
                },
                "traits": {
                    "custom": "",
                    "rarity": "common",
                    "value": []
                },
                "trigger": {
                    "value": ""
                }
            },
            "flags": {},
            "img": "systems/pf2e/icons/actions/TwoActions.webp",
            "name": "Penetrating Shot",
            "sort": 1600000,
            "type": "action"
        },
        {
            "_id": "8zx20mb35baxchph",
            "data": {
                "description": {
                    "value": ""
                },
                "mod": {
                    "value": 27
                },
                "proficient": {
                    "value": 0
                },
                "rules": [],
                "slug": null,
                "source": {
                    "value": ""
                },
                "traits": {
                    "custom": "",
                    "rarity": "common",
                    "value": []
                }
            },
            "flags": {},
            "img": "systems/pf2e/icons/default-icons/lore.svg",
            "name": "Acrobatics",
            "sort": 1700000,
            "type": "lore"
        },
        {
            "_id": "p3zwh1xltu8f3url",
            "data": {
                "description": {
                    "value": ""
                },
                "mod": {
                    "value": 25
                },
                "proficient": {
                    "value": 0
                },
                "rules": [],
                "slug": null,
                "source": {
                    "value": ""
                },
                "traits": {
                    "custom": "",
                    "rarity": "common",
                    "value": []
                }
            },
            "flags": {},
            "img": "systems/pf2e/icons/default-icons/lore.svg",
            "name": "Athletics",
            "sort": 1800000,
            "type": "lore"
        },
        {
            "_id": "vpvzkp8oyrhs38tu",
            "data": {
                "description": {
                    "value": ""
                },
                "mod": {
                    "value": 24
                },
                "proficient": {
                    "value": 0
                },
                "rules": [],
                "slug": null,
                "source": {
                    "value": ""
                },
                "traits": {
                    "custom": "",
                    "rarity": "common",
                    "value": []
                }
            },
            "flags": {},
            "img": "systems/pf2e/icons/default-icons/lore.svg",
            "name": "Crafting",
            "sort": 1900000,
            "type": "lore"
        },
        {
            "_id": "zq70qslkw9c5k7yo",
            "data": {
                "description": {
                    "value": ""
                },
                "mod": {
                    "value": 23
                },
                "proficient": {
                    "value": 0
                },
                "rules": [],
                "slug": null,
                "source": {
                    "value": ""
                },
                "traits": {
                    "custom": "",
                    "rarity": "common",
                    "value": []
                }
            },
            "flags": {},
            "img": "systems/pf2e/icons/default-icons/lore.svg",
            "name": "Intimidation",
            "sort": 2000000,
            "type": "lore"
        },
        {
            "_id": "jp7tb79muwxie298",
            "data": {
                "description": {
                    "value": ""
                },
                "mod": {
                    "value": 23
                },
                "proficient": {
                    "value": 0
                },
                "rules": [],
                "slug": null,
                "source": {
                    "value": ""
                },
                "traits": {
                    "custom": "",
                    "rarity": "common",
                    "value": []
                }
            },
            "flags": {},
            "img": "systems/pf2e/icons/default-icons/lore.svg",
            "name": "Medicine",
            "sort": 2100000,
            "type": "lore"
        },
        {
            "_id": "n7g5crn3gv85iw3l",
            "data": {
                "description": {
                    "value": ""
                },
                "mod": {
                    "value": 27
                },
                "proficient": {
                    "value": 0
                },
                "rules": [],
                "slug": null,
                "source": {
                    "value": ""
                },
                "traits": {
                    "custom": "",
                    "rarity": "common",
                    "value": []
                }
            },
            "flags": {},
            "img": "systems/pf2e/icons/default-icons/lore.svg",
            "name": "Nature",
            "sort": 2200000,
            "type": "lore"
        },
        {
            "_id": "5uq65r9jxjbrhfin",
            "data": {
                "description": {
                    "value": ""
                },
                "mod": {
                    "value": 27
                },
                "proficient": {
                    "value": 0
                },
                "rules": [],
                "slug": null,
                "source": {
                    "value": "Pathfinder #177: Burning Tundra"
                },
                "traits": {
                    "custom": "",
                    "rarity": "common",
                    "value": []
                },
                "variants": {
                    "0": {
                        "label": "+29 in snow",
                        "options": "trait:environment:snow"
                    }
                }
            },
            "flags": {},
            "img": "systems/pf2e/icons/default-icons/lore.svg",
            "name": "Stealth",
            "sort": 2300000,
            "type": "lore"
        },
        {
            "_id": "ofuqk9hxh9sov3hr",
            "data": {
                "description": {
                    "value": ""
                },
                "mod": {
                    "value": 27
                },
                "proficient": {
                    "value": 0
                },
                "rules": [],
                "slug": null,
                "source": {
                    "value": ""
                },
                "traits": {
                    "custom": "",
                    "rarity": "common",
                    "value": []
                }
            },
            "flags": {},
            "img": "systems/pf2e/icons/default-icons/lore.svg",
            "name": "Survival",
            "sort": 2400000,
            "type": "lore"
        }
    ],
    "name": "Hegremon",
    "token": {
        "disposition": -1,
        "height": 1,
        "img": "systems/pf2e/icons/default-icons/npc.svg",
        "name": "Hegremon",
        "width": 1
    },
    "type": "npc"
}
