{
    "_id": "anIBNgbHN3jG4iph",
    "data": {
        "attributes": {
            "ac": {
                "value": 10
            },
            "hardness": 0,
            "hasHealth": false,
            "hp": {
                "details": "",
                "max": 0,
                "temp": 0,
                "value": 0
            },
            "stealth": {
                "details": "(expert) to hear hissing gas",
                "value": 18
            }
        },
        "creatureType": "",
        "details": {
            "description": "<p>Invisible but highly flammable natural gas has built up beneath the ground, where geological pressure can ignite it.</p>",
            "disable": "<p>@Check[type:survival|dc:28|name:Diffuse the Flames|traits:environmental,hazard] to dig around the vent in a way that diffuses the fumes</p>",
            "isComplex": false,
            "level": {
                "value": 8
            },
            "reset": "",
            "routine": ""
        },
        "flavourText": "",
        "nethysUrl": "",
        "recallKnowledgeText": "",
        "saves": {
            "fortitude": {
                "saveDetail": "",
                "value": 0
            },
            "reflex": {
                "saveDetail": "",
                "value": 0
            },
            "will": {
                "saveDetail": "",
                "value": 0
            }
        },
        "sidebarText": "",
        "source": {
            "value": ""
        },
        "statusEffects": [],
        "traits": {
            "ci": [],
            "di": {
                "custom": "",
                "selected": {},
                "value": []
            },
            "dr": [],
            "dv": [],
            "rarity": "common",
            "size": {
                "value": "med"
            },
            "traits": {
                "custom": "",
                "value": [
                    "environmental"
                ]
            }
        }
    },
    "flags": {},
    "img": "systems/pf2e/icons/default-icons/hazard.svg",
    "items": [
        {
            "_id": "46cuvsthr1fd21l2",
            "data": {
                "actionCategory": {
                    "value": "offensive"
                },
                "actionType": {
                    "value": "reaction"
                },
                "actions": {
                    "value": null
                },
                "description": {
                    "value": "<strong>Trigger</strong> A creature moves within 5 feet of the flue\n<hr />\n<p><strong>Effect</strong> A fiery geyser of flaming gas explodes from the ground. Creatures within 5 feet of the flue take [[/r {4d10}[fire]]]{4d10 fire damage} (@Check[type:reflex|dc:30|basic:true]); creatures that fail the save also take [[/r {4d10}[persistent,fire]]]{4d10} @Compendium[pf2e.conditionitems.Persistent Damage]{Persistent fire Damage}.</p>"
                },
                "requirements": {
                    "value": ""
                },
                "rules": [],
                "slug": null,
                "source": {
                    "value": ""
                },
                "traits": {
                    "custom": "",
                    "rarity": "common",
                    "value": []
                },
                "trigger": {
                    "value": ""
                }
            },
            "flags": {},
            "img": "systems/pf2e/icons/actions/Reaction.webp",
            "name": "Flame Spurt",
            "sort": 0,
            "type": "action"
        }
    ],
    "name": "Methane Flue",
    "token": {
        "disposition": 0,
        "height": 1,
        "img": "systems/pf2e/icons/default-icons/npc.svg",
        "name": "Methane Flue",
        "width": 1
    },
    "type": "hazard"
}
