{
    "_id": "g9HovYB4pfHgIML9",
    "data": {
        "attributes": {
            "ac": {
                "value": 33
            },
            "hardness": 0,
            "hasHealth": true,
            "hp": {
                "details": "",
                "max": 100,
                "temp": 0,
                "tempmax": 0,
                "value": 100
            },
            "stealth": {
                "details": "<p>(expert)</p>",
                "value": 25
            }
        },
        "creatureType": "",
        "details": {
            "description": "<p>A whirling tornado of spectrally propelled glass and steel slices whatever it touches to ribbons.</p>",
            "disable": "<p>DC 35 Thievery (master) to precisely adjust the blades so that they destroy each other, or DC 38 Religion (expert) to weaken the haunt; four successes are required to disable it</p>",
            "isComplex": true,
            "level": {
                "value": 12
            },
            "reset": "<p>The haunt draws jagged shards back into its area over the course of an hour, after which it can trigger again.</p>",
            "routine": "<p>(3 actions) The tornado of blades uses 3 actions to move, traveling up to 30 feet with each action and dealing 2d10+10 slashing damage. Each creature in its path must attempt a DC 33 Reflex save.</p>\n<p><strong>Critical Success</strong> The creature is unaffected.</p>\n<p><strong>Success</strong> The creature takes half damage.</p>\n<p><strong>Failure</strong> The creature takes full damage plus [[/r {1d10}[persistent,bleed]]] @Compendium[pf2e.conditionitems.Persistent Damage]{Persistent Bleed Damage}.</p>\n<p><strong>Critical Failure</strong> The creature takes double damage and [[/r {1d10}[persistent,bleed]]] @Compendium[pf2e.conditionitems.Persistent Damage]{Persistent Bleed Damage}. It also becomes wounded 1 (or increases its wounded value by 1, if it is already wounded).</p>\n<p>Each successful check to disable this hazard reduces the haunt's movement by 30 feet, and the fourth success disables it completely.</p>"
        },
        "saves": {
            "fortitude": {
                "saveDetail": "",
                "value": 27
            },
            "reflex": {
                "saveDetail": "",
                "value": 25
            },
            "will": {
                "saveDetail": "",
                "value": 22
            }
        },
        "source": {
            "value": "Pathfinder Gamemastery Guide"
        },
        "statusEffects": [],
        "traits": {
            "ci": [],
            "di": {
                "custom": "",
                "selected": {},
                "value": [
                    "critical-hits",
                    "object-immunities",
                    "precision"
                ]
            },
            "dr": [],
            "dv": [
                {
                    "type": "positive",
                    "value": 15
                }
            ],
            "rarity": "common",
            "size": {
                "value": "med"
            },
            "traits": {
                "custom": "",
                "value": [
                    "haunt"
                ]
            }
        }
    },
    "flags": {},
    "img": "systems/pf2e/icons/default-icons/hazard.svg",
    "items": [
        {
            "_id": "jSBfyDGUXAPbIJTT",
            "data": {
                "actionCategory": {
                    "value": ""
                },
                "actionType": {
                    "value": "reaction"
                },
                "actions": {
                    "value": null
                },
                "description": {
                    "value": "<p><strong>Trigger</strong> Three or more creatures enter the area of the haunt.</p>\n<p><strong>Effect</strong> Sharp fragments lift up from the ground and begin to spin in rapid circles taking up one 5-foot square. The haunt rolls initiative.</p>"
                },
                "requirements": {
                    "value": ""
                },
                "rules": [],
                "slug": null,
                "source": {
                    "value": ""
                },
                "traits": {
                    "custom": "",
                    "rarity": "common",
                    "value": []
                },
                "trigger": {
                    "value": ""
                },
                "weapon": {
                    "value": ""
                }
            },
            "flags": {},
            "img": "systems/pf2e/icons/actions/Reaction.webp",
            "name": "Whirling Blades",
            "sort": 100000,
            "type": "action"
        }
    ],
    "name": "Flensing Blades",
    "token": {
        "disposition": 0,
        "height": 1,
        "img": "systems/pf2e/icons/default-icons/hazard.svg",
        "name": "Flensing Blades",
        "width": 1
    },
    "type": "hazard"
}
