{
    "_id": "vTdWEBzJzltMM6r4",
    "data": {
        "attributes": {
            "ac": {
                "value": 12
            },
            "hardness": 0,
            "hasHealth": true,
            "hp": {
                "details": "",
                "max": 9,
                "temp": 0,
                "tempmax": 0,
                "value": 9
            },
            "stealth": {
                "details": "",
                "value": 2
            }
        },
        "creatureType": "",
        "details": {
            "description": "<p>This human-sized purple mushroom emits a piercing shriek when disturbed.</p>",
            "disable": "<p>@Check[type:survival|dc:18|name:Disable Air Sac|traits:environmental,fungus] to carefully approach and cut the mushroom's air sac without triggering the shrieker</p>",
            "isComplex": false,
            "level": {
                "value": -1
            },
            "reset": "<p>1 minute</p>",
            "routine": ""
        },
        "saves": {
            "fortitude": {
                "saveDetail": "",
                "value": 8
            },
            "reflex": {
                "saveDetail": "",
                "value": 2
            },
            "will": {
                "saveDetail": "",
                "value": 0
            }
        },
        "source": {
            "value": "Pathfinder Gamemastery Guide"
        },
        "statusEffects": [],
        "traits": {
            "ci": [],
            "di": {
                "custom": "",
                "selected": {},
                "value": [
                    "critical-hits",
                    "object-immunities",
                    "precision"
                ]
            },
            "dr": [],
            "dv": [],
            "rarity": "common",
            "size": {
                "value": "med"
            },
            "traits": {
                "custom": "",
                "value": [
                    "environmental",
                    "fungus"
                ]
            }
        }
    },
    "flags": {},
    "img": "systems/pf2e/icons/default-icons/hazard.svg",
    "items": [
        {
            "_id": "sBSa8YzXeDYM0ODl",
            "data": {
                "actionCategory": {
                    "value": "offensive"
                },
                "actionType": {
                    "value": "reaction"
                },
                "actions": {
                    "value": null
                },
                "description": {
                    "value": "<p><strong>Trigger</strong> A creature or light source approaches within 10 feet of the shrieker or the shrieker takes damage.</p>\n<p><strong>Effect</strong> The shrieker emits a deafening screech that deals [[/r {1d6}[sonic]]]{1d6 sonic damage} to creatures within 30 feet (@Check[type:fortitude|dc:16|basic:true|traits:auditory] save; creatures that critically fail this saving throw are @Compendium[pf2e.conditionitems.Deafened]{Deafened} for 1 minute).</p>"
                },
                "requirements": {
                    "value": ""
                },
                "rules": [],
                "slug": null,
                "source": {
                    "value": ""
                },
                "traits": {
                    "custom": "",
                    "rarity": "common",
                    "value": []
                },
                "trigger": {
                    "value": ""
                },
                "weapon": {
                    "value": ""
                }
            },
            "flags": {},
            "img": "systems/pf2e/icons/actions/Reaction.webp",
            "name": "Shriek",
            "sort": 100000,
            "type": "action"
        }
    ],
    "name": "Shrieker",
    "token": {
        "disposition": 0,
        "height": 1,
        "img": "systems/pf2e/icons/default-icons/hazard.svg",
        "name": "Shrieker",
        "width": 1
    },
    "type": "hazard"
}
