{
    "_id": "BoQoRKcqWXy0goJ3",
    "content": "<h1>Geomancer</h1>\n<hr />\n<p>You know how to draw power from the land around you, no matter the terrain, by attuning your magic to match its mystical properties.</p>\n<p>You might be a druid with an elemental focus (such as the flame, stone, or wave orders) or a naturalist with a touch of magic at your disposal. You could concentrate on a single type of terrain to wring every last drop of power from it or choose to wander the land to experience every type of terrain possible.</p>\n<h2>@Compendium[pf2e.feats-srd.Geomancer Dedication]{Geomancer Dedication} Feat 2</h2>\n<p><strong>Prerequisites</strong> trained in Nature; ability to cast spells from spell slots; at least one spell with the air, cold, earth, fire, plant, or water trait</p>\n<hr />\n<p>You feel a deep connection to the world no matter where you are, a phenomenon known as \"terrain attunement.\" When you expend a spell slot to cast a spell with a trait that corresponds to the type of terrain you are currently in (as listed below), you gain the terrain attunement effect for that type of terrain. The GM might determine an attunement applies as long as it's prevalent enough around you. For instance, you might be in aquatic terrain on a riverbank or on a boat. Similarly, one place might count as multiple types of terrain, such as a mountain in the far north being both arctic and mountain. In this case, you choose only one terrain attunement effect, even if the spell has traits that would apply to each terrain type.</p>\n<p>Certain terrain attunements affect your enemies instead of you. If they do, when you cast the spell you apply the listed effect to all enemies who are either adjacent to you, in the area of the spell, or targeted by the spell. These enemies receive the listed saving throw against your spell DC to attempt to avoid the effect.</p>\n<ul>\n<li><strong>Aquatic</strong> (water) You ride the currents of water. If you're in the water, you gain a swim Speed equal to your land Speed. If you're on a surface, temporary waves of water follow your movements, allowing you to use your swim Speed-if you have one-as your land Speed.</li>\n<li><strong>Arctic</strong> (cold) Arctic rime covers your foes' bodies. Enemies must attempt a Fortitude save. They take a -5-foot status penalty to their Speeds for 2 rounds (-10-foot on a critical failure).</li>\n<li><strong>Desert</strong> (fire) The scorching heat of the desert dehydrates your foes. Enemies must attempt a Fortitude save. On a failure, they're @Compendium[pf2e.conditionitems.Fatigued]{Fatigued} until they drink water or another potable liquid.</li>\n<li><strong>Forest</strong> (plant) Branches and vines reach out to get in your foes' way. Enemies must attempt a Reflex save. On a failure, they become @Compendium[pf2e.conditionitems.Clumsy]{Clumsy 1} for 1 round (@Compendium[pf2e.conditionitems.Clumsy]{Clumsy 2} on a critical failure).</li>\n<li><strong>Mountain</strong> (earth) The rugged endurance of the mountain protects you from harm. You gain resistance to physical damage (except adamantine) equal to the spell level for 1 round.</li>\n<li><strong>Plains</strong> (plant) The growing fields and pulsing vitality of the plains provide you vigor. You gain temporary Hit Points equal to the spell level for 1 round.</li>\n<li><strong>Sky</strong> (air) A gust of wind carries you aloft. You can Fly up to 10 feet. If you're in the air at the end of the turn and don't have a fly Speed, you fall.</li>\n<li><strong>Swamp</strong> (plant) Your magic draws in noxious swamp gas to fumigate your foes. Affected foes take @Compendium[pf2e.conditionitems.Persistent Damage]{Persistent Poison Damage} equal to half the spell's level (minimum 1 damage) with a basic Fortitude save.</li>\n<li><strong>Underground</strong> (earth) The endless darkness of the cavern depths opens up its secrets to your senses. For 1 round, you gain darkvision as well as imprecise tremorsense out to 15 feet.</li>\n</ul>\n<p><strong>Special</strong> You can't select another dedication feat until you've gained two other feats from the geomancer archetype.</p>\n<h2>@Compendium[pf2e.feats-srd.Attunement Shift]{Attunement Shift} Feat 4</h2>\n<p><strong>Prerequisites</strong> @Compendium[pf2e.feats-srd.Geomancer Dedication]{Geomancer Dedication}</p>\n<hr />\n<p><strong>Frequency</strong> once per 10 minutes</p>\n<p><strong>Requirements</strong> Your previous action was to cast a spell with the air, cold, earth, fire, plant, or water trait.</p>\n<hr />\n<p>The magic of your spell floods into you, overriding your connection to the land around you. You alter your terrain attunement to a terrain that matches a trait of the spell you just cast. You thereby gain your terrain attunement benefit when you cast further spells with the same descriptor, instead of using the terrain you're actually in. For instance, if you cast <em>@Compendium[pf2e.spells-srd.Tanglefoot]{Tanglefoot}</em>, your terrain attunement switches to your choice of forest or swamp, and your terrain attunement applies when you cast another plant spell.</p>\n<p>Your terrain attunement reverts to that of the terrain you're in 1 minute after you use Attunement Shift.</p>\n<h2>@Compendium[pf2e.feats-srd.Shared Attunement]{Shared Attunement} Feat 4</h2>\n<p><strong>Prerequisites</strong> @Compendium[pf2e.feats-srd.Geomancer Dedication]{Geomancer Dedication}</p>\n<hr />\n<p>When you would gain a benefit from your terrain attunement, you can grant it to one ally within 30 feet instead of yourself. This has no effect if the terrain attunement affects your foes instead of granting you a benefit.</p>\n<h2>@Compendium[pf2e.feats-srd.Rough Terrain Stance]{Rough Terrain Stance} Feat 6</h2>\n<p><strong>Prerequisites</strong> @Compendium[pf2e.feats-srd.Geomancer Dedication]{Geomancer Dedication}, expert in Nature</p>\n<hr />\n<p><strong>Requirements</strong> You gained a terrain attunement benefit this turn.</p>\n<hr />\n<p>You enter a stance that makes it difficult to move around you. Each square adjacent to you becomes difficult terrain that matches the terrain attunement you gained (rime forms in an arctic terrain, momentary undergrowth shoots up in a forest terrain, and so on). You ignore this difficult terrain.</p>\n<p>This stance ends if you move into a different type of terrain.</p>\n<h2>@Compendium[pf2e.feats-srd.Attuned Stride]{Attuned Stride} Feat 8</h2>\n<p><strong>Prerequisites</strong> @Compendium[pf2e.feats-srd.Geomancer Dedication]{Geomancer Dedication}, expert in Nature</p>\n<hr />\n<p>You can move freely through terrain you're attuned to. When you gain a terrain attunement benefit, you ignore difficult terrain in the corresponding type of terrain until the end of your next turn.</p>\n<h2>@Compendium[pf2e.feats-srd.Draw From the Land]{Draw From the Land} Feat 10</h2>\n<p><strong>Prerequisites</strong> @Compendium[pf2e.feats-srd.Geomancer Dedication]{Geomancer Dedication}, expert in Nature</p>\n<hr />\n<p><strong>Requirements</strong> You gained a terrain attunement benefit this turn, and it matched the terrain you're in.</p>\n<hr />\n<p>You pull strength from the surrounding terrain. You gain temporary Hit Points equal to your level. They last for 1 round. If you previously gained the plains terrain attunement effect this turn, combine the temporary Hit Points together.</p>\n<h2>@Compendium[pf2e.feats-srd.Read the Land]{Read the Land} Feat 12</h2>\n<p><strong>Prerequisites</strong> @Compendium[pf2e.feats-srd.Geomancer Dedication]{Geomancer Dedication}, master in Nature</p>\n<hr />\n<p>You've learned how to commune with the land to learn information. You learn the <em>@Compendium[pf2e.spells-srd.Commune with Nature]{Commune with Nature}</em> ritual if you didn't know it already. You can perform this ritual with a casting time of 1 hour instead of 1 day and without a secondary caster.</p>\n<h2>@Compendium[pf2e.feats-srd.Terrain Shield]{Terrain Shield} Feat 14</h2>\n<p><strong>Prerequisites</strong> @Compendium[pf2e.feats-srd.Geomancer Dedication]{Geomancer Dedication}, master in Nature</p>\n<hr />\n<p><strong>Frequency</strong> once per 10 minutes</p>\n<p><strong>Trigger</strong> A Strike would damage you.</p>\n<p><strong>Requirements</strong> You gained a terrain attunement benefit since the start of your most recent turn and that attunement matches the terrain you're in.</p>\n<hr />\n<p>You're so attuned to the land that it rises up to protect you from a potentially fatal blow in a seeming coincidence. For instance, a branch suddenly falls from a nearby tree to take the brunt of a sword swing or a surprising change of current disrupts an enemy's attack. You gain resistance to physical damage equal to double your level against the triggering Strike.</p>\n<h2>@Compendium[pf2e.feats-srd.Shifting Terrain]{Shifting Terrain} Feat 14</h2>\n<p><strong>Prerequisites</strong> @Compendium[pf2e.feats-srd.Rough Terrain Stance]{Rough Terrain Stance}, master in Nature</p>\n<hr />\n<p><strong>Requirements</strong> Your terrain attunement matches the terrain you're in and you're in Rough Terrain Stance.</p>\n<hr />\n<p>You slam your fist into the ground or twirl your arms about to cause the terrain around you to shift and ripple, potentially throwing others off balance. Each creature within your area of difficult terrain from Rough Terrain Stance must attempt a Reflex saving throw against your spell DC with the following effects.</p>\n<p>After you use this action, you can't use it again for [[/r 1d4 #rounds]]{1d4 rounds}.</p>\n<hr />\n<p><strong>Critical Success</strong> The creature is unaffected.</p>\n<p><strong>Success</strong> The creature is @Compendium[pf2e.conditionitems.Clumsy]{Clumsy 1} for 1 round.</p>\n<p><strong>Failure</strong> The creature is @Compendium[pf2e.conditionitems.Clumsy]{Clumsy 2} for 1 round.</p>\n<p><strong>Critical Failure</strong> The creature is clumsy 2 for 1 round and falls @Compendium[pf2e.conditionitems.Prone]{Prone}.</p>\n<h2>@Compendium[pf2e.feats-srd.Quickened Attunement]{Quickened Attunement} Feat 16</h2>\n<p><strong>Prerequisites</strong> @Compendium[pf2e.feats-srd.Geomancer Dedication]{Geomancer Dedication}, legendary in Nature</p>\n<hr />\n<p><strong>Frequency</strong> once per day</p>\n<p><strong>Requirements</strong> Your previous action was Attunement Shift.</p>\n<hr />\n<p>If your next action is to cast a spell that would grant your terrain attunement bonus, reduce the number of actions to cast it by 1 (to a minimum of 1 action).</p>\n<hr />\n<p><strong>Special</strong> You can't use Quickened Attunement and @Compendium[pf2e.feats-srd.Quickened Casting]{Quickened Casting} in the same round.</p>",
    "flags": {},
    "name": "Geomancer",
    "permission": {
        "default": 0
    }
}
