{
    "_id": "fjyB6HdS95xHEQn0",
    "content": "<h1>Poisoner</h1>\n<p>People are so delightfully fragile when exposed to the glories of nature. The bite of a certain serpent makes the blood congeal to jelly. A particular stone, suitably powdered, causes hallucinations and delirium. The sap of a tree inflicts such pain that death seems preferable. You are a student of such dark wonders, making you a dangerous foe indeed.</p>\n<p>Additional Feats: 4th @Compendium[pf2e.feats-srd.Poison Resistance]{Poison Resistance}, @Compendium[pf2e.feats-srd.Subtle Delivery]{Subtle Delivery}; 6th @Compendium[pf2e.feats-srd.Poison Weapon]{Poison Weapon}, @Compendium[pf2e.feats-srd.Tenacious Toxins]{Tenacious Toxins}; 8th @Compendium[pf2e.feats-srd.Sticky Poison]{Sticky Poison}; 10th @Compendium[pf2e.feats-srd.Improved Poison Weapon]{Improved Poison Weapon}, @Compendium[pf2e.feats-srd.Pinpoint Poisoner]{Pinpoint Poisoner}; 12th @Compendium[pf2e.feats-srd.Deadly Poison Weapon]{Deadly Poison Weapon}; 18th @Compendium[pf2e.feats-srd.Chemical Contagion]{Chemical Contagion}</p>\n<h2>@Compendium[pf2e.feats-srd.Poisoner Dedication]{Poisoner Dedication} Feat 2</h2>\n<p><strong>Prerequisites</strong> trained in Crafting</p>\n<hr />\n<p>You make a point of always having a few toxins near at hand-you never know when some arsenic or the like might prove useful. You gain the basic alchemy benefits, though they can be used only for alchemical poisons. You gain batches of infused reagents per day equal to your level. Your advanced alchemy level for creating these is 1 and doesn't increase on its own.</p>\n<p><strong>Special</strong> You can't select another dedication feat until you have gained two other feats from the Poisoner archetype.</p>\n<h2>@Compendium[pf2e.feats-srd.Poisoner's Twist]{Poisoner's Twist} Feat 4</h2>\n<p><strong>Prerequisites</strong> Poisoner Dedication, trained in Medicine</p>\n<p><strong>Requirements</strong> Your last action was a successful melee Strike that dealt damage against a target that is afflicted by a poison, and you know which poison.</p>\n<hr />\n<p>Poisons attack specific parts of the body-one venom might target the lungs, another the circulatory system, while another deteriorates the nerves. You know how to take advantage of such weaknesses. You deal 1d6 damage of the required Strike's damage type and 1d6 poison damage to the target. If you're at least 18th level, you deal 2d6 damage of each type.</p>\n<h2>@Compendium[pf2e.feats-srd.Expert Poisoner]{Expert Poisoner} Feat 6</h2>\n<p><strong>Prerequisites</strong> Poisoner Dedication, expert in Crafting</p>\n<hr />\n<p>Your advanced alchemy level for poison increases to your level - 3.</p>\n<h2>@Compendium[pf2e.feats-srd.Poison Coat]{Poison Coat} Feat 6</h2>\n<p><strong>Prerequisites</strong> Poisoner Dedication</p>\n<p><strong>Trigger</strong> A creature adjacent to you hits you with a melee unarmed Strike.</p>\n<p><strong>Requirements</strong> You have prepared your clothing to poison attackers (see below).</p>\n<hr />\n<p>In nature, certain animals are covered in venomous spines, such that even touching them is deadly. To use this reaction, you must have brushed poison onto your clothing or woven sharp poisoned needles into the garment's fabric. This takes 10 minutes and uses one dose of contact or injury poison. You can have only one such poison suffused into your clothing at a time.</p>\n<p>When you use this reaction, the triggering creature is exposed to the suffused poison.</p>\n<h2>@Compendium[pf2e.feats-srd.Acquired Tolerance]{Acquired Tolerance} Feat 8</h2>\n<p><strong>Prerequisites</strong> Poisoner Dedication</p>\n<p><strong>Trigger</strong> You fail a save against a poison.</p>\n<hr />\n<p>A small amount of poison, taken at nonlethal doses, can help the body build up a resistance against a more deadly dosage. Reroll the triggering check and use the second result. Once you use Acquired Tolerance, you can continue to use it against the same type of poison that day, but you can't use it against a different type of poison until after you make your next daily preparations. For instance, if you used the reaction on a save against giant scorpion venom, you could use it again against giant scorpion venom even if it came from a different source, but you couldn't use it against nettleweed residue, lich dust, oranother poison.</p>",
    "flags": {},
    "name": "Poisoner",
    "permission": {
        "default": 0
    }
}
