{
    "_id": "UGxZ6vhfq7vQFXTt",
    "content": "<p>This character supported your brief dalliance with stage magic, which you took up as a precursor to learning actual magic or simply to keep your fingers nimble.</p>\n<p>Add the @Compendium[pf2e.feats-srd.Subtle Theft]{Subtle Theft} skill feat to your background options.</p>",
    "flags": {},
    "name": "Magician",
    "permission": {
        "default": 0
    }
}
