{
    "_id": "nsZ93vUEFucsLwRz",
    "content": "<p>You once sought the favor of a powerful spellcaster as a mentor, but this character was plainly the mentor's favorite, no matter how hard you tried.</p>\n<p>Add the @Compendium[pf2e.feats-srd.Quick Identification]{Quick Identification} skill feat to your background options.</p>",
    "flags": {},
    "name": "Privileged Position",
    "permission": {
        "default": 0
    }
}
