{
    "_id": "U1gbRkmZqJ7SmpeF",
    "data": {
        "boosts": {
            "0": {
                "value": [
                    "int",
                    "wis"
                ]
            },
            "1": {
                "value": [
                    "cha",
                    "con",
                    "dex",
                    "int",
                    "str",
                    "wis"
                ]
            }
        },
        "description": {
            "value": "<p>Once, you were a dedicated and important priest of Brigh, goddess of clockwork and invention, based out of the largest church to your deity, the Temple of Brigh in Alkenstar. Here, you made important discoveries in the annals of your religion's canon and furthered the Bronze Lady's agendas of innovation and creation. Your future seemed bright, and you predicted that it was only a matter of time until you ascended to the rank of primary cog or, someday, grand cog.</p>\n<p>Then, your years of devout service were undone in an instant. A man named Ambrost Mugland came to the Temple and demanded not only access to the religious formulas you'd been uncovering, but exclusive rights to the precious knowledge. When you refused, Mugland sent word to the church's leaders that you'd been meddling in heretical doctrine. He also implicated you in the theft of church funds that had mysteriously gone missing as of late. Sure enough, you found yourself being asked to hand in your robes. Your church colleagues didn't turn you in, but they told you in no uncertain terms that you wouldn't be able to find sanctuary for your alleged crimes in the halls of the Temple of Brigh.</p>\n<p>On the run and with nowhere to turn, your faith has been thoroughly tested, though so far you've remained true to your religion and maintained your sacred skills and divine powers. It's unclear what the Bronze Lady has in store for you, but at least one thing's for certain: Ambrost Mugland will pay for what he did.</p>\n<p>Choose two ability boosts. One must be to <strong>Intelligence</strong> or <strong>Wisdom</strong>, and one is a free ability boost.</p>\n<p>You're trained in the Religion skill and the Brigh Lore skill. You gain the @Compendium[pf2e.feats-srd.Quick Identification]{Quick Identification} skill feat.</p>"
        },
        "items": {
            "57e4s": {
                "id": "IlOQuCQIhjJpig3S",
                "img": "systems/pf2e/icons/features/feats/feats.webp",
                "level": 1,
                "name": "Quick Identification",
                "pack": "pf2e.feats-srd"
            }
        },
        "rules": [],
        "source": {
            "value": "Pathfinder: Outlaws of Alkenstar Player's Guide"
        },
        "trainedLore": "Brigh Lore",
        "trainedSkills": {
            "custom": "",
            "value": [
                "rel"
            ]
        },
        "traits": {
            "custom": "",
            "rarity": "uncommon",
            "value": []
        }
    },
    "flags": {},
    "img": "systems/pf2e/icons/default-icons/background.svg",
    "name": "Banished Brighite",
    "type": "background"
}
