{
    "_id": "3M2FRDlunjFshzbq",
    "data": {
        "boosts": {
            "0": {
                "value": [
                    "cha",
                    "str"
                ]
            },
            "1": {
                "value": [
                    "cha",
                    "con",
                    "dex",
                    "int",
                    "str",
                    "wis"
                ]
            }
        },
        "description": {
            "value": "<p>You know there are monstrous things out in the swamp known as Fogfen; you've seen these things through the mist, gliding through the murky water and heaving themselves over sodden bits of land. No one in Otari believes your tales of swamp monsters from the depths, even when you embellish the creatures of your stories with fangs, wings, or tentacles. You'll just have to prove to them that there are truly monsters out there, and that they were wrong to doubt you.</p>\n<p>Choose two ability boosts. One must be to <strong>Strength</strong> or <strong>Charisma</strong>, and one is a free ability boost.</p>\n<p>You're trained in Athletics and the Swamp Lore skill. You gain the @Compendium[pf2e.feats-srd.Titan Wrestler]{Titan Wrestler} skill feat.</p>"
        },
        "items": {
            "by6ry": {
                "id": "KxaYlC50zzHysJj8",
                "img": "systems/pf2e/icons/features/feats/feats.webp",
                "level": "1",
                "name": "Titan Wrestler",
                "pack": "pf2e.feats-srd"
            }
        },
        "rules": [],
        "source": {
            "value": "Pathfinder: Abomination Vaults Player's Guide"
        },
        "trainedLore": "Swamp Lore",
        "trainedSkills": {
            "value": [
                "ath"
            ]
        },
        "traits": {
            "custom": "",
            "rarity": "common",
            "value": []
        }
    },
    "flags": {},
    "img": "systems/pf2e/icons/default-icons/background.svg",
    "name": "Fogfen Tale-Teller",
    "type": "background"
}
