{
    "_id": "ffcNsTUBsxFwbNgJ",
    "data": {
        "boosts": {
            "0": {
                "value": [
                    "con",
                    "wis"
                ]
            },
            "1": {
                "value": [
                    "cha",
                    "con",
                    "dex",
                    "int",
                    "str",
                    "wis"
                ]
            }
        },
        "description": {
            "value": "<p><strong>Prerequisite</strong> Region - Eye of Dread</p>\n<hr />\n<p>You managed to escape the devastation that the Whispering Tyrant brought to your nation, but you lost everything to the lich-king's minions, including your home and many friends and family.</p>\n<p>Choose two ability boosts. One must be to <strong>Constitution</strong> or <strong>Wisdom</strong>, and one is a free ability boost.</p>\n<p>You're trained in the Medicine skill and the Undead Lore skill. You gain the @Compendium[pf2e.feats-srd.Battle Medicine]{Battle Medicine} skill feat.</p>"
        },
        "items": {
            "rqosr": {
                "id": "wYerMk6F1RZb0Fwt",
                "img": "systems/pf2e/icons/features/feats/feats.webp",
                "level": "1",
                "name": "Battle Medicine",
                "pack": "pf2e.feats-srd"
            }
        },
        "rules": [],
        "source": {
            "value": "Pathfinder Lost Omens: World Guide"
        },
        "trainedLore": "Undead Lore",
        "trainedSkills": {
            "value": [
                "med"
            ]
        },
        "traits": {
            "custom": "",
            "rarity": "common",
            "value": []
        }
    },
    "flags": {},
    "img": "systems/pf2e/icons/default-icons/background.svg",
    "name": "Lastwall Survivor",
    "type": "background"
}
