{
    "_id": "jpgO5zofecGeyXd5",
    "data": {
        "boosts": {
            "0": {
                "value": [
                    "int",
                    "wis"
                ]
            },
            "1": {
                "value": [
                    "cha",
                    "con",
                    "dex",
                    "int",
                    "str",
                    "wis"
                ]
            }
        },
        "description": {
            "value": "<p>Hours spent reading numerous compendiums dedicated to various occult topics honed your knowledge of these more obscure magical arts. You might have taken to adventuring to finance your acquisition of rare tomes, to explore occult mysteries that can't be found in the pages of a book, or perhaps to put your skills to the test.</p>\n<p>Choose two ability boosts. One must be to <strong>Intelligence</strong> or <strong>Wisdom</strong>, and one is a free ability boost.</p>\n<p>You're trained in the Occultism skill and the Academia Lore skill. You gain the @Compendium[pf2e.feats-srd.Schooled In Secrets]{Schooled In Secrets} skill feat.</p>"
        },
        "items": {
            "whppw": {
                "id": "lEgYzFHransLkSvI",
                "img": "systems/pf2e/icons/features/feats/feats.webp",
                "level": 1,
                "name": "Schooled In Secrets",
                "pack": "pf2e.feats-srd"
            }
        },
        "rules": [],
        "source": {
            "value": "Pathfinder Secrets of Magic"
        },
        "trainedLore": "Academia Lore",
        "trainedSkills": {
            "custom": "",
            "value": [
                "occ"
            ]
        },
        "traits": {
            "custom": "",
            "rarity": "common",
            "value": []
        }
    },
    "flags": {},
    "img": "systems/pf2e/icons/default-icons/background.svg",
    "name": "Occult Librarian",
    "type": "background"
}
