{
    "_id": "j9v38iHA0sVy59SR",
    "data": {
        "boosts": {
            "0": {
                "value": [
                    "con",
                    "int"
                ]
            },
            "1": {
                "value": [
                    "cha",
                    "con",
                    "dex",
                    "int",
                    "str",
                    "wis"
                ]
            }
        },
        "description": {
            "value": "<p><strong>Prerequisite</strong> Region - Absalom and Starstone Isle</p>\n<hr />\n<p>You've long wanted to join the adventurous Pathfinder Society. You have taken up the dangerous life of an adventurer in hopes of earning a spot among the Pathfinders.</p>\n<p>Choose two ability boosts. One must be to <strong>Constitution</strong> or <strong>Intelligence</strong>, and one is a free ability boost.</p>\n<p>You're trained in the Society skill and the Pathfinder Society Lore skill. You gain the @Compendium[pf2e.feats-srd.Additional Lore]{Additional Lore} skill feat.</p>"
        },
        "items": {
            "jzu36": {
                "id": "BocFD2KV0qgUC76x",
                "img": "systems/pf2e/icons/features/feats/feats.webp",
                "level": "1",
                "name": "Additional Lore",
                "pack": "pf2e.feats-srd"
            }
        },
        "rules": [],
        "source": {
            "value": "Pathfinder Lost Omens: World Guide"
        },
        "trainedLore": "Pathfinder Society Lore",
        "trainedSkills": {
            "value": [
                "soc"
            ]
        },
        "traits": {
            "custom": "",
            "rarity": "common",
            "value": []
        }
    },
    "flags": {},
    "img": "systems/pf2e/icons/default-icons/background.svg",
    "name": "Pathfinder Hopeful",
    "type": "background"
}
