{
    "_id": "WE9EjWB0TFuAhwJc",
    "data": {
        "boosts": {
            "0": {
                "value": [
                    "int",
                    "wis"
                ]
            },
            "1": {
                "value": [
                    "cha",
                    "con",
                    "dex",
                    "int",
                    "str",
                    "wis"
                ]
            }
        },
        "description": {
            "value": "<p>You remember the day the stranger approached you to make several peculiar inquiries. You don't remember much about them, other than a large head and a frail body. At first, the stranger's questions seemed odd: how might forgotten history nevertheless shape the present, whether an insect hive mind could be manipulated at a distance, and so on. You don't remember all of the questions, and you don't know why you could refuse to answer some but felt compelled to answer others. The stranger nevertheless seemed pleased with your responses and insisted you would find study at the Magaambya enlightening. You never saw them again, but you're now here at the Magaambya, with more questions than answers about your future.</p>\n<p>Choose two ability boosts. One must be to <strong>Intelligence</strong> or <strong>Wisdom</strong>, and one is a free ability boost.</p>\n<p>You're trained in the Nature skill. You gain your choice of the @Compendium[pf2e.feats-srd.Dubious Knowledge]{Dubious Knowledge} or @Compendium[pf2e.feats-srd.Quick Identification]{Quick Identification} skill feat. You're also trained in Insect Lore.</p>\n<p>Your recommended primary branch is the Rain-Scribes.</p>\n<hr />\n<p><em>Note: This will grant you two feats. You need to delete the second one manually.</em></p>"
        },
        "items": {
            "bq9q3": {
                "id": "IlOQuCQIhjJpig3S",
                "img": "systems/pf2e/icons/features/feats/feats.webp",
                "level": 1,
                "name": "Quick Identification",
                "pack": "pf2e.feats-srd"
            },
            "kalam": {
                "id": "1Bt7uCW2WI4sM84P",
                "img": "systems/pf2e/icons/features/feats/feats.webp",
                "level": 1,
                "name": "Dubious Knowledge",
                "pack": "pf2e.feats-srd"
            }
        },
        "rules": [],
        "source": {
            "value": "Strength of Thousands Player's Guide"
        },
        "trainedLore": "Insect Lore",
        "trainedSkills": {
            "custom": "",
            "value": [
                "nat"
            ]
        },
        "traits": {
            "custom": "",
            "rarity": "uncommon",
            "value": []
        }
    },
    "flags": {},
    "img": "systems/pf2e/icons/default-icons/background.svg",
    "name": "Sponsored by a Stranger (Nature)",
    "type": "background"
}
