{
    "_id": "8XZqdeZStFAM4XnH",
    "data": {
        "baseItem": null,
        "containerId": null,
        "description": {
            "value": "<p>These brass goggles are engraved with flame patterns and have thick, heavy lenses.</p>\n<p>While worn, they give you a +2 item bonus to Crafting checks to Craft alchemical items and a +2 item bonus to attack rolls with alchemical bombs.</p>\n<p>You can also ignore lesser cover when making Strikes with alchemical bombs.</p>\n<hr />\n<p>Automatically applied effects:</p>\n<ul>\n<li>+2 item bonus to Crafting alchemical item</li>\n<li>+2 item bonus to attack rolls with bombs</li>\n</ul>"
        },
        "equippedBulk": {
            "value": ""
        },
        "hardness": 0,
        "hp": {
            "brokenThreshold": 0,
            "max": 0,
            "value": 0
        },
        "level": {
            "value": 11
        },
        "negateBulk": {
            "value": ""
        },
        "preciousMaterial": {
            "value": ""
        },
        "preciousMaterialGrade": {
            "value": ""
        },
        "price": {
            "value": {
                "gp": 1400
            }
        },
        "quantity": 1,
        "rules": [
            {
                "key": "FlatModifier",
                "label": "Alchemist Goggles (craft alchemical items)",
                "predicate": {
                    "all": [
                        "alchemical",
                        "action:craft"
                    ]
                },
                "selector": "crafting",
                "type": "item",
                "value": 2
            },
            {
                "key": "FlatModifier",
                "label": "Alchemist Goggles, Greater (alchemical bombs)",
                "predicate": {
                    "all": [
                        "alchemical",
                        "bomb"
                    ]
                },
                "selector": "attack",
                "type": "item",
                "value": 2
            }
        ],
        "size": "med",
        "source": {
            "value": "Pathfinder Core Rulebook"
        },
        "stackGroup": null,
        "traits": {
            "custom": "",
            "rarity": "common",
            "value": [
                "invested",
                "magical",
                "transmutation"
            ]
        },
        "usage": {
            "value": "worneyepiece"
        },
        "weight": {
            "value": "-"
        }
    },
    "flags": {},
    "img": "systems/pf2e/icons/equipment/worn-items/other-worn-items/alchemist-goggles.webp",
    "name": "Alchemist Goggles (Greater)",
    "type": "equipment"
}
