{
    "_id": "UMAXLDpI6YLSfYX1",
    "data": {
        "activation": {
            "condition": "",
            "cost": 0,
            "type": ""
        },
        "autoDestroy": {
            "_deprecated": true,
            "value": true
        },
        "autoUse": {
            "_deprecated": true,
            "value": true
        },
        "baseItem": null,
        "charges": {
            "_deprecated": true,
            "max": "1",
            "value": "1"
        },
        "consumableType": {
            "value": "drug"
        },
        "consume": {
            "_deprecated": true,
            "value": ""
        },
        "containerId": null,
        "description": {
            "value": "<p>Alcohol is a common substance available in stunning variety. The Price of a dose of alcohol depends on the specific beverage. You can't recover from the sickened condition from alcohol while affected.</p>\n<p>If you fail a saving throw against alcohol other than initial saves, the affliction's stage doesn't increase; the only way to increase the stage of alcohol's affliction is to consume more alcohol.</p>\n<hr />\n<p><strong>Activate</strong> <span class=\"pf2-icon\">A</span> Interact (Ingested)</p>\n<p><strong>Saving Throw</strong> @Check[type:fortitude|dc:12]</p>\n<p><strong>Onset</strong> 10 minutes</p>\n<p><strong>Stage 1</strong> +1 item bonus to saving throws against fear (10 minutes)</p>\n<p><strong>Stage 2</strong> @Compendium[pf2e.conditionitems.Flat-Footed]{Flat-Footed}, +1 item bonus to saving throws against fear effects (10 minutes)</p>\n<p><strong>Stage 3</strong> @Compendium[pf2e.conditionitems.Clumsy]{Clumsy 1}, flat-footed, @Compendium[pf2e.conditionitems.Stupefied]{Stupefied 2} (10 minutes)</p>\n<p><strong>Stage 4</strong> clumsy 2 and @Compendium[pf2e.conditionitems.Sickened]{Sickened 2} (10 minutes)</p>\n<p><strong>Stage 5</strong> clumsy 2, sickened 2, and stupefied 2 (10 minutes)</p>\n<p><strong>Stage 6</strong> @Compendium[pf2e.conditionitems.Unconscious]{Unconscious} (8 hours)</p>\n<p><strong>Stage 7</strong> death</p>"
        },
        "duration": {
            "units": "",
            "value": null
        },
        "equippedBulk": {
            "value": ""
        },
        "hardness": 0,
        "hp": {
            "brokenThreshold": 0,
            "max": 0,
            "value": 0
        },
        "level": {
            "value": 0
        },
        "negateBulk": {
            "value": "0"
        },
        "preciousMaterial": {
            "value": ""
        },
        "preciousMaterialGrade": {
            "value": ""
        },
        "price": {
            "value": {
                "cp": 1
            }
        },
        "quantity": 1,
        "range": {
            "long": null,
            "units": "",
            "value": null
        },
        "rules": [],
        "size": "med",
        "source": {
            "value": "Pathfinder Gamemastery Guide"
        },
        "spell": {
            "data": null,
            "heightenedLevel": null
        },
        "stackGroup": null,
        "target": {
            "type": "",
            "units": "",
            "value": null
        },
        "traits": {
            "custom": "",
            "rarity": "common",
            "value": [
                "alchemical",
                "consumable",
                "drug",
                "ingested",
                "poison"
            ]
        },
        "usage": {
            "value": "held-in-one-hand"
        },
        "uses": {
            "autoDestroy": true,
            "autoUse": true,
            "max": 0,
            "per": null,
            "value": 0
        },
        "weight": {
            "value": "L"
        }
    },
    "flags": {},
    "img": "systems/pf2e/icons/equipment/alchemical-items/drugs/alcohol.webp",
    "name": "Alcohol",
    "type": "consumable"
}
