{
    "_id": "kY41VIXUSEJYEznp",
    "data": {
        "baseItem": null,
        "containerId": "null",
        "description": {
            "value": "<p>This rune prevents enemies from escaping your grasp by @Compendium[pf2e.conditionitems.Fleeing]{Fleeing} to other planes.</p>\n<p>When you critically hit a target with a weapon with the anchoring rune, the weapon casts 8th-level <em>@Compendium[pf2e.spells-srd.Dimensional Anchor]{Dimensional Anchor}</em> on the target (@Check[type:will|dc:38|name:Dimensional Anchor]{DC 38 Will}, counteract modifier [[/r 1d20+28 #counteract]]{+28}), except that if the target critically succeeds at its Will save, instead of having no effect, the <em>dimensional anchor</em> lasts for 1 round. When you hit a target with the weapon but don't critically hit, the target is affected by 4th-level <em>dimensional anchor</em> for 1 round without a save (this still uses a counteract modifier of +28).</p>"
        },
        "equippedBulk": {
            "value": ""
        },
        "hardness": 0,
        "hp": {
            "brokenThreshold": 0,
            "max": 0,
            "value": 0
        },
        "level": {
            "value": 18
        },
        "negateBulk": {
            "value": "0"
        },
        "preciousMaterial": {
            "value": null
        },
        "preciousMaterialGrade": {
            "value": null
        },
        "price": {
            "value": {
                "gp": 22000
            }
        },
        "quantity": 1,
        "rules": [],
        "size": "med",
        "source": {
            "value": "Pathfinder Lost Omens: The Grand Bazaar"
        },
        "stackGroup": null,
        "traits": {
            "custom": "",
            "rarity": "uncommon",
            "value": [
                "abjuration",
                "magical"
            ]
        },
        "usage": {
            "value": "etched-onto-a-weapon"
        },
        "weight": {
            "value": "-"
        }
    },
    "flags": {},
    "img": "systems/pf2e/icons/equipment/runes/weapon-property-runes/weapon-property-runes.webp",
    "name": "Anchoring (Greater)",
    "type": "equipment"
}
