{
    "_id": "ifsBwfIhd6UcoUCI",
    "data": {
        "baseItem": null,
        "containerId": null,
        "description": {
            "value": "<p>Different versions of this belt are customized to appear to suit specific trades, so a belt used for carpentry would look somewhat different than a belt for baking.</p>\n<p><strong>Activate</strong> <span class=\"pf2-icon\">D</span> envision, Interact</p>\n<p><strong>Effect</strong> You place an object of up to 1 Bulk into the belt, transforming that object into a tool befitting the trade for which the belt was created. As long as there are enough transformed items, the belt can be used as artisan's tools for that trade.</p>\n<p>Each object remains transformed until it has been removed from the belt for 24 hours or someone uses a single Interact action to return it to its normal form.</p>"
        },
        "equippedBulk": {
            "value": ""
        },
        "hardness": 0,
        "hp": {
            "brokenThreshold": 0,
            "max": 0,
            "value": 0
        },
        "level": {
            "value": 6
        },
        "negateBulk": {
            "value": ""
        },
        "preciousMaterial": {
            "value": ""
        },
        "preciousMaterialGrade": {
            "value": ""
        },
        "price": {
            "value": {
                "gp": 220
            }
        },
        "quantity": 1,
        "rules": [],
        "size": "med",
        "source": {
            "value": "Pathfinder #147: Tomorrow Must Burn"
        },
        "stackGroup": null,
        "traits": {
            "custom": "",
            "rarity": "rare",
            "value": [
                "invested",
                "magical",
                "transmutation"
            ]
        },
        "usage": {
            "value": "wornbelt"
        },
        "weight": {
            "value": "1"
        }
    },
    "flags": {},
    "img": "systems/pf2e/icons/equipment/worn-items/other-worn-items/bellflower-toolbelt.webp",
    "name": "Bellflower Toolbelt",
    "type": "equipment"
}
