{
    "_id": "axU0I9xIm4xm2VPH",
    "data": {
        "activation": {
            "condition": "",
            "cost": 0,
            "type": ""
        },
        "autoDestroy": {
            "_deprecated": true,
            "value": true
        },
        "autoUse": {
            "_deprecated": true,
            "value": true
        },
        "baseItem": null,
        "charges": {
            "_deprecated": true,
            "max": 1,
            "value": 1
        },
        "consumableType": {
            "value": "snare"
        },
        "consume": {
            "_deprecated": true,
            "value": "6d6"
        },
        "containerId": null,
        "description": {
            "value": "<p>You create a snare that catalyzes three 3rd-level moderate alchemical bombs of the same type to explode when a creature enters the snare's square. The target and all creatures in adjacent squares must attempt a @Check[type:reflex|dc:26|basic:true|showDC:all], as the snare deals damage equal to three times the direct hit damage from one of the component bombs (for example, [[/r {6d6}[electricity]]]{6d6 electricity damage} from bottled lightning) with no splash damage or other effects.</p>\n<hr />\n<p><strong>Critical Success</strong> The creature is unaffected.</p>\n<p><strong>Success</strong> The creature takes half damage and no other effects.</p>\n<p><strong>Failure</strong> The creature takes full damage. It also takes all other effects of a direct hit from one of the component bombs (such as flat-footed from bottled lightning or persistent damage from an acid flask).</p>\n<p><strong>Critical Failure</strong> The creature takes double damage, plus all other effects of a direct hit (as failure).</p>\n<hr />\n<p><strong>Craft Requirements</strong> Supply three of the same damaging 3rd-level moderate alchemical bomb.</p>"
        },
        "duration": {
            "units": "",
            "value": null
        },
        "equippedBulk": {
            "value": ""
        },
        "hardness": 0,
        "hp": {
            "brokenThreshold": 0,
            "max": 0,
            "value": 0
        },
        "level": {
            "value": 8
        },
        "negateBulk": {
            "value": "0"
        },
        "preciousMaterial": {
            "value": ""
        },
        "preciousMaterialGrade": {
            "value": ""
        },
        "price": {
            "value": {
                "gp": 75
            }
        },
        "quantity": 1,
        "range": {
            "long": null,
            "units": "",
            "value": null
        },
        "rules": [],
        "size": "med",
        "source": {
            "value": "Pathfinder Core Rulebook"
        },
        "spell": {
            "data": null,
            "heightenedLevel": null
        },
        "stackGroup": null,
        "target": {
            "type": "",
            "units": "",
            "value": null
        },
        "traits": {
            "custom": "",
            "rarity": "common",
            "value": [
                "consumable",
                "mechanical",
                "snare",
                "trap"
            ]
        },
        "usage": {
            "value": "held-in-one-hand"
        },
        "uses": {
            "autoDestroy": true,
            "autoUse": true,
            "max": 0,
            "per": null,
            "value": 0
        },
        "weight": {
            "value": "-"
        }
    },
    "flags": {},
    "img": "systems/pf2e/icons/equipment/snares/bomb-snare.webp",
    "name": "Bomb Snare",
    "type": "consumable"
}
