{
    "_id": "Kf4eJEXnFPuAsseP",
    "data": {
        "armor": {
            "value": 4
        },
        "baseItem": "chain-mail",
        "category": "medium",
        "check": {
            "value": -2
        },
        "containerId": null,
        "description": {
            "value": "<p>A suit of chain mail consists of several pieces of armor composed of small metal rings linked together in a protective mesh. It typically includes a chain shirt, leggings, a pair of arms, and a coif, collectively protecting most of the body.</p>"
        },
        "dex": {
            "value": 1
        },
        "equippedBulk": {
            "value": "2"
        },
        "group": "chain",
        "hardness": 0,
        "hp": {
            "brokenThreshold": 0,
            "max": 0,
            "value": 0
        },
        "level": {
            "value": 0
        },
        "negateBulk": {
            "value": "0"
        },
        "potency": {},
        "potencyRune": {
            "value": 0
        },
        "preciousMaterial": {
            "value": ""
        },
        "preciousMaterialGrade": {
            "value": ""
        },
        "price": {
            "value": {
                "gp": 6
            }
        },
        "propertyRune1": {
            "value": ""
        },
        "propertyRune2": {
            "value": ""
        },
        "propertyRune3": {
            "value": ""
        },
        "propertyRune4": {
            "value": ""
        },
        "quantity": 1,
        "resiliencyRune": {
            "value": ""
        },
        "rules": [],
        "size": "med",
        "source": {
            "value": "Pathfinder Core Rulebook"
        },
        "speed": {
            "value": -5
        },
        "stackGroup": null,
        "strength": {
            "value": 16
        },
        "traits": {
            "custom": "",
            "rarity": "common",
            "value": [
                "flexible",
                "noisy"
            ]
        },
        "usage": {
            "value": "wornarmor"
        },
        "weight": {
            "value": "3"
        }
    },
    "flags": {},
    "img": "systems/pf2e/icons/equipment/armor/chainmail.webp",
    "name": "Chain Mail",
    "type": "armor"
}
