{
    "_id": "NLC3c1mudubNNekY",
    "data": {
        "baseItem": null,
        "containerId": null,
        "description": {
            "value": "<p>This small recording device can be as tiny as a music box or around the size of large book and is typically concealed in hollowed-out books and jewelry. A clockwork recorder can record up to 1 hour of sound before its wax cylinders must be retrieved and replaced. Any given clockwork recorder can play back the recordings of a cylinder, regardless of whether it was the recorder used for the original recording.</p>\n<p><strong>Activate</strong> <span class=\"pf2-icon\">3</span> Interact</p>\n<p><strong>Effect</strong> You wind the recorder to start recording sound or to play back a recording. You can have the recording or playback start immediately or be timed to start at any point up to one month later.</p>"
        },
        "equippedBulk": {
            "value": ""
        },
        "hardness": 0,
        "hp": {
            "brokenThreshold": 0,
            "max": 0,
            "value": 0
        },
        "level": {
            "value": 6
        },
        "negateBulk": {
            "value": "0"
        },
        "preciousMaterial": {
            "value": ""
        },
        "preciousMaterialGrade": {
            "value": ""
        },
        "price": {
            "value": {
                "gp": 250
            }
        },
        "quantity": 1,
        "rules": [],
        "size": "med",
        "source": {
            "value": "Pathfinder Lost Omens: Legends"
        },
        "stackGroup": null,
        "traits": {
            "custom": "",
            "rarity": "rare",
            "value": []
        },
        "usage": {
            "value": "held-in-one-hand"
        },
        "weight": {
            "value": "L"
        }
    },
    "flags": {},
    "img": "systems/pf2e/icons/equipment/adventuring-gear/clockwork-recorder.webp",
    "name": "Clockwork Recorder",
    "type": "equipment"
}
