{
    "_id": "V2knI4GpdJYLupjg",
    "data": {
        "MAP": {
            "value": ""
        },
        "baseItem": "alchemical-bomb",
        "bonus": {
            "value": 3
        },
        "bonusDamage": {
            "value": null
        },
        "category": "martial",
        "containerId": null,
        "damage": {
            "damageType": "piercing",
            "dice": 4,
            "die": "d4",
            "value": ""
        },
        "description": {
            "value": "<p><strong>Usage</strong> held in 1 hand</p>\n<p><strong>Activate</strong> <span class=\"pf2-icon\">A</span> Strike</p>\n<hr />\n<p>This flask holds a pressurized red-brown gas flecked with bits of sublimated crystal. You gain a +3 item bonus to attack rolls. When the bomb explodes, it deals [[/r {4d4}[piercing]]]{4d4 piercing damage} and [[/r {6}[splash,piercing]]]{6 piercing splash damage} as the mixture suddenly turns into solid crystals flying at high speeds.</p>\n<p>Surfaces in the splash area grow brittle, gleaming red crystals that crumble to dust after 1 minute. The crystals on level surfaces are @Compendium[pf2e.equipment-srd.Caltrops]{Caltrops}. The crystals on vertical surfaces can be used briefly as handholds, granting the listed item bonus to the next Athletics check to @Compendium[pf2e.actionspf2e.Climb]{Climb} each space. The crystals in each space crumble after the creature leaves, whether Climbing or moving through the caltrops.</p>"
        },
        "equippedBulk": {
            "value": ""
        },
        "group": "bomb",
        "hardness": 0,
        "hp": {
            "brokenThreshold": 0,
            "max": 0,
            "value": 0
        },
        "level": {
            "value": 18
        },
        "negateBulk": {
            "value": "0"
        },
        "potencyRune": {
            "value": 0
        },
        "preciousMaterial": {
            "value": ""
        },
        "preciousMaterialGrade": {
            "value": ""
        },
        "price": {
            "value": {
                "gp": 4000
            }
        },
        "property1": {
            "critDamage": "",
            "critDamageType": "",
            "critDice": null,
            "critDie": "",
            "criticalConditionType": "",
            "criticalConditionValue": null,
            "damageType": "",
            "dice": null,
            "die": "",
            "strikeConditionType": "",
            "strikeConditionValue": null,
            "value": ""
        },
        "propertyRune1": {
            "value": null
        },
        "propertyRune2": {
            "value": null
        },
        "propertyRune3": {
            "value": null
        },
        "propertyRune4": {
            "value": null
        },
        "quantity": 1,
        "range": 20,
        "reload": {
            "value": ""
        },
        "rules": [
            {
                "key": "Note",
                "selector": "{item|_id}-damage",
                "text": "<p class='compact-text'>@Localize[PF2E.BombNotes.CrystalShards.Major.success]</p>"
            }
        ],
        "size": "med",
        "source": {
            "value": "Pathfinder Advanced Player's Guide"
        },
        "specific": {
            "value": false
        },
        "splashDamage": {
            "value": 6
        },
        "stackGroup": null,
        "strikingRune": {
            "value": ""
        },
        "traits": {
            "custom": "",
            "rarity": "common",
            "value": [
                "alchemical",
                "bomb",
                "consumable",
                "earth",
                "splash"
            ]
        },
        "usage": {
            "value": "held-in-one-hand"
        },
        "weight": {
            "value": "L"
        }
    },
    "flags": {},
    "img": "systems/pf2e/icons/equipment/alchemical-items/alchemical-bombs/crystal-shards.webp",
    "name": "Crystal Shards (Major)",
    "type": "weapon"
}
