{
    "_id": "oVrVzML63VFvVfKk",
    "data": {
        "baseItem": null,
        "containerId": null,
        "description": {
            "value": "<p>A <em>disrupting</em> weapon pulses with positive energy, dealing an extra 2d6 positive damage to undead. On a critical hit, the undead creature must attempt a @Check[type:fortitude|dc:34|name:Greater Disrupting] save with the following effects. This is an incapacitation effect.</p>\n<hr />\n<p><strong>Critical Success</strong> It's @Compendium[pf2e.conditionitems.Enfeebled]{Enfeebled 1} until the end of your next turn.</p>\n<p><strong>Success</strong> It's @Compendium[pf2e.conditionitems.Enfeebled]{Enfeebled 2} until the end of your next turn.</p>\n<p><strong>Failure</strong> It's @Compendium[pf2e.conditionitems.Enfeebled]{Enfeebled 3} until the end of your next turn.</p>\n<p><strong>Critical Failure</strong> It's destroyed.</p>"
        },
        "equippedBulk": {
            "value": ""
        },
        "hardness": 0,
        "hp": {
            "brokenThreshold": 0,
            "max": 0,
            "value": 0
        },
        "level": {
            "value": 14
        },
        "negateBulk": {
            "value": "0"
        },
        "preciousMaterial": {
            "value": ""
        },
        "preciousMaterialGrade": {
            "value": ""
        },
        "price": {
            "value": {
                "gp": 4300
            }
        },
        "quantity": 1,
        "rules": [],
        "size": "med",
        "source": {
            "value": "Pathfinder Core Rulebook"
        },
        "stackGroup": null,
        "traits": {
            "custom": "",
            "rarity": "uncommon",
            "value": [
                "magical",
                "necromancy",
                "incapacitation"
            ]
        },
        "usage": {
            "value": "held-in-one-hand"
        },
        "weight": {
            "value": "-"
        }
    },
    "flags": {},
    "img": "systems/pf2e/icons/equipment/runes/weapon-property-runes/weapon-property-runes.webp",
    "name": "Disrupting (Greater)",
    "type": "equipment"
}
