{
    "_id": "hw81uONdpyUbdWUJ",
    "data": {
        "activation": {
            "condition": "",
            "cost": 0,
            "type": ""
        },
        "autoDestroy": {
            "_deprecated": true,
            "value": true
        },
        "autoUse": {
            "_deprecated": true,
            "value": true
        },
        "baseItem": null,
        "charges": {
            "_deprecated": true,
            "max": 0,
            "value": 0
        },
        "consumableType": {
            "value": "snare"
        },
        "consume": {
            "_deprecated": true,
            "value": ""
        },
        "containerId": "null",
        "description": {
            "value": "<p>This simple trap is made of taut twigs that, when triggered, snap down on a pollen-filled sac of a peculiar flower. When inhaled, the pollen imparts a hazy state of profound agreeability. The first creature that enters the snare's space triggers the snare. The creature that triggered the trap must attempt a @Check[type:will|dc:18] save. Undead creatures and creatures that don't breathe are immune to dream pollen.</p>\n<hr />\n<p><strong>Critical Success</strong> The creature is unaffected.</p>\n<p><strong>Success</strong> The creature is @Compendium[pf2e.conditionitems.Stupefied]{Stupefied 1} for 1 round.</p>\n<p><strong>Failure</strong> The creature is stupefied 1 for 1 round. For 1 minute, the creature becomes friendly to all creatures to which it was indifferent, or helpful to all creatures to which it was friendly. If the creature was unfriendly or hostile to any creatures, it remains unfriendly or hostile to them. If the creature is an animal, any creature to which it's friendly or helpful can use Diplomacy to @Compendium[pf2e.actionspf2e.Make an Impression]{Make an Impression} on it and to make very simple Requests of it.</p>\n<p><strong>Critical Failure</strong> As failure, but the duration of the agreeability is 1 hour instead of 1 minute.</p>"
        },
        "duration": {
            "units": "",
            "value": null
        },
        "equippedBulk": {
            "value": ""
        },
        "hardness": 0,
        "hp": {
            "brokenThreshold": 0,
            "max": 0,
            "value": 0
        },
        "level": {
            "value": 3
        },
        "negateBulk": {
            "value": "0"
        },
        "preciousMaterial": {
            "value": null
        },
        "preciousMaterialGrade": {
            "value": null
        },
        "price": {
            "value": {
                "gp": 12
            }
        },
        "quantity": 1,
        "range": {
            "long": null,
            "units": "",
            "value": null
        },
        "rules": [],
        "size": "med",
        "source": {
            "value": "Pathfinder #175: Broken Tusk Moon"
        },
        "spell": {
            "data": null,
            "heightenedLevel": null
        },
        "stackGroup": null,
        "target": {
            "type": "",
            "units": "",
            "value": null
        },
        "traits": {
            "custom": "",
            "rarity": "uncommon",
            "value": [
                "consumable",
                "incapacitation",
                "mechanical",
                "mental",
                "snare",
                "trap"
            ]
        },
        "usage": {
            "value": "held-in-one-hand"
        },
        "uses": {
            "autoDestroy": true,
            "autoUse": true,
            "max": 0,
            "per": null,
            "value": 0
        },
        "weight": {
            "value": "-"
        }
    },
    "flags": {},
    "img": "systems/pf2e/icons/default-icons/consumable.svg",
    "name": "Dream Pollen Snare",
    "type": "consumable"
}
