{
    "_id": "iYiA6CMR1N2E2Ny2",
    "data": {
        "baseItem": null,
        "containerId": null,
        "description": {
            "value": "<p>Made of waxed cotton or cork, earplugs give you a +1 item bonus to saves against effects with the auditory trait. The earplugs make it difficult to hear, however, imposing a -2 item penalty on Perception checks involving sound.</p>\n<p>Inserting or removing the earplugs requires an Interact action.</p>\n<p>@Compendium[pf2e.equipment-effects.Effect: Earplugs]{Effect: Earplugs}</p>"
        },
        "equippedBulk": {
            "value": ""
        },
        "hardness": 0,
        "hp": {
            "brokenThreshold": 0,
            "max": 0,
            "value": 0
        },
        "level": {
            "value": 0
        },
        "negateBulk": {
            "value": "0"
        },
        "preciousMaterial": {
            "value": ""
        },
        "preciousMaterialGrade": {
            "value": ""
        },
        "price": {
            "value": {
                "cp": 1
            }
        },
        "quantity": 1,
        "rules": [],
        "size": "med",
        "source": {
            "value": "Pathfinder Lost Omens: Pathfinder Society Guide"
        },
        "stackGroup": null,
        "traits": {
            "custom": "",
            "rarity": "common",
            "value": []
        },
        "usage": {
            "value": "held-in-one-hand"
        },
        "weight": {
            "value": "-"
        }
    },
    "flags": {},
    "img": "systems/pf2e/icons/equipment/adventuring-gear/earplugs.webp",
    "name": "Earplugs (PFS Guide)",
    "type": "equipment"
}
