{
    "_id": "3pKIEBtZBVmSmVPl",
    "data": {
        "baseItem": null,
        "containerId": null,
        "description": {
            "value": "<p>This brown-and-gold robe covers you from head to toe. Its weighty fabric doesn't move with the wind, instead hanging still as if carved of stone.</p>\n<p><strong>Activate</strong> <span class=\"pf2-icon\">1</span> Interact</p>\n<p><strong>Frequency</strong> once per hour</p>\n<p><strong>Effect</strong> You Burrow through dirt and stone up to your land Speed, leaving no tunnels or signs of your passing. If you end your movement inside solid stone, you are forcibly expelled into the nearest open area, taking 1d6 bludgeoning damage for every 5 feet between the end of your movement and the open area.</p>"
        },
        "equippedBulk": {
            "value": ""
        },
        "hardness": 0,
        "hp": {
            "brokenThreshold": 0,
            "max": 0,
            "value": 0
        },
        "level": {
            "value": 15
        },
        "negateBulk": {
            "value": "0"
        },
        "preciousMaterial": {
            "value": ""
        },
        "preciousMaterialGrade": {
            "value": ""
        },
        "price": {
            "value": {
                "gp": 6500
            }
        },
        "quantity": 1,
        "rules": [],
        "size": "med",
        "source": {
            "value": "Pathfinder Advanced Player's Guide"
        },
        "stackGroup": null,
        "traits": {
            "custom": "",
            "rarity": "common",
            "value": [
                "earth",
                "invested",
                "magical",
                "transmutation"
            ]
        },
        "usage": {
            "value": "worncloak"
        },
        "weight": {
            "value": "-"
        }
    },
    "flags": {},
    "img": "systems/pf2e/icons/equipment/worn-items/other-worn-items/earthglide-cloak.webp",
    "name": "Earthglide Cloak",
    "type": "equipment"
}
