{
    "_id": "34MbgwW1SGlowyk2",
    "data": {
        "activation": {
            "condition": "",
            "cost": 0,
            "type": ""
        },
        "autoDestroy": {
            "_deprecated": true,
            "value": true
        },
        "autoUse": {
            "_deprecated": true,
            "value": true
        },
        "baseItem": null,
        "charges": {
            "_deprecated": true,
            "max": 1,
            "value": 1
        },
        "consumableType": {
            "value": "mutagen"
        },
        "consume": {
            "_deprecated": true,
            "value": ""
        },
        "containerId": null,
        "description": {
            "value": "<p><strong>Activate</strong> <span class=\"pf2-icon\">A</span> Interact</p>\n<hr />\n<p>When created, this mutigen is attuned to one of four energy types: acid, cold, electricity, or fire. When consumed, the mutagen suffuses your body with energy that spills out whenever you attack. At higher levels, it can even grant you the ability to unleash the energy in controlled bursts.</p>\n<p><strong>Benefit</strong> You gain resistance 20 to the attuned energy type. Whenever you score a hit with a melee weapon, add [[/r 2d6]] damage to the attuned energy type. In addition, you can end the benefits of this mutagen to unleash a @Template[type:cone|distance:30] of energy that deals [[/r 3d6]] damage of the attuned type for every full 10 minutes of duration remaining (@Check[type:reflex|dc:32|basic:true|name:Major Energy Mutagen] save).</p>\n<p><strong>Drawback</strong> You gain weakness 5 to the other three energy types.</p>\n<p><strong>Duration</strong> 1 hour.</p>"
        },
        "duration": {
            "units": "",
            "value": null
        },
        "equippedBulk": {
            "value": ""
        },
        "hardness": 0,
        "hp": {
            "brokenThreshold": 0,
            "max": 0,
            "value": 0
        },
        "level": {
            "value": 17
        },
        "negateBulk": {
            "value": "0"
        },
        "preciousMaterial": {
            "value": ""
        },
        "preciousMaterialGrade": {
            "value": ""
        },
        "price": {
            "value": {
                "gp": 3000
            }
        },
        "quantity": 1,
        "range": {
            "long": null,
            "units": "",
            "value": null
        },
        "rules": [],
        "size": "med",
        "source": {
            "value": "Pathfinder Adventure: The Fall of Plaguestone"
        },
        "spell": {
            "data": null,
            "heightenedLevel": null
        },
        "stackGroup": null,
        "target": {
            "type": "",
            "units": "",
            "value": null
        },
        "traits": {
            "custom": "",
            "rarity": "uncommon",
            "value": [
                "alchemical",
                "consumable",
                "elixir",
                "mutagen",
                "polymorph"
            ]
        },
        "usage": {
            "value": "held-in-one-hand"
        },
        "uses": {
            "autoDestroy": true,
            "autoUse": true,
            "max": 0,
            "per": null,
            "value": 0
        },
        "weight": {
            "value": "L"
        }
    },
    "flags": {},
    "img": "systems/pf2e/icons/equipment/alchemical-items/alchemical-elixirs/energy-mutagen.webp",
    "name": "Energy Mutagen (Major)",
    "type": "consumable"
}
