{
    "_id": "DAqI0GwKuRwBagz5",
    "data": {
        "baseItem": null,
        "containerId": null,
        "description": {
            "value": "<p>These manacles are nearly indistinguishable from real manacles upon inspection, but contain a hidden release that enables a wearer who knows the location of the release to free themselves with a single Interact action. An observer who examines the manacles and succeeds at a DC 20 Perception check notices their false nature. On a critical success, the observer finds the location of the hidden catch as well.</p>"
        },
        "equippedBulk": {
            "value": ""
        },
        "hardness": 0,
        "hp": {
            "brokenThreshold": 0,
            "max": 0,
            "value": 0
        },
        "level": {
            "value": 0
        },
        "negateBulk": {
            "value": "0"
        },
        "preciousMaterial": {
            "value": ""
        },
        "preciousMaterialGrade": {
            "value": ""
        },
        "price": {
            "value": {
                "gp": 10
            }
        },
        "quantity": 1,
        "rules": [],
        "size": "med",
        "source": {
            "value": "Pathfinder Lost Omens: Pathfinder Society Guide"
        },
        "stackGroup": null,
        "traits": {
            "custom": "",
            "rarity": "uncommon",
            "value": []
        },
        "usage": {
            "value": "held-in-two-hands"
        },
        "weight": {
            "value": "-"
        }
    },
    "flags": {},
    "img": "systems/pf2e/icons/equipment/adventuring-gear/manacles.webp",
    "name": "False Manacles",
    "type": "equipment"
}
