{
    "_id": "PTwm2NAcReBw2iUY",
    "data": {
        "activation": {
            "condition": "",
            "cost": 0,
            "type": ""
        },
        "autoDestroy": {
            "_deprecated": true,
            "value": true
        },
        "autoUse": {
            "_deprecated": true,
            "value": true
        },
        "baseItem": null,
        "charges": {
            "_deprecated": true,
            "max": 1,
            "value": 1
        },
        "consumableType": {
            "value": "drug"
        },
        "consume": {
            "_deprecated": true,
            "value": ""
        },
        "containerId": null,
        "description": {
            "value": "<p>The flayleaf plant is relatively common, though the mildly euphoric effects of smoking its dried leaves increase when it's sourced from plants specifically grown to produce such effects.</p>\n<hr />\n<p><strong>Activate</strong> <span class=\"pf2-icon\">A</span> Interact (Ingested, Inhaled)</p>\n<p><strong>Saving Throw</strong> @Check[type:fortitude|dc:12]</p>\n<p><strong>Onset</strong> 10 minutes</p>\n<p><strong>Maximum Duration</strong> 4 hours</p>\n<p><strong>Stage 1</strong> +1 item bonus to saving throws against mental effects (1 hour)</p>\n<p><strong>Stage 2</strong> @Compendium[pf2e.conditionitems.Fatigued]{Fatigued} and +1 item bonus to saving throws against mental effects (1 hour)</p>\n<p><strong>Stage 3</strong> fatigued and @Compendium[pf2e.conditionitems.Stupefied]{Stupefied 1} (1 hour)</p>\n<p><strong>Stage 4</strong> fatigued, @Compendium[pf2e.conditionitems.Frightened]{Frightened 2}, stupefied 2 (1 hour)</p>"
        },
        "duration": {
            "units": "",
            "value": null
        },
        "equippedBulk": {
            "value": ""
        },
        "hardness": 0,
        "hp": {
            "brokenThreshold": 0,
            "max": 0,
            "value": 0
        },
        "level": {
            "value": 0
        },
        "negateBulk": {
            "value": "0"
        },
        "preciousMaterial": {
            "value": ""
        },
        "preciousMaterialGrade": {
            "value": ""
        },
        "price": {
            "value": {
                "gp": 1
            }
        },
        "quantity": 1,
        "range": {
            "long": null,
            "units": "",
            "value": null
        },
        "rules": [],
        "size": "med",
        "source": {
            "value": "Pathfinder Gamemastery Guide"
        },
        "spell": {
            "data": null,
            "heightenedLevel": null
        },
        "stackGroup": null,
        "target": {
            "type": "",
            "units": "",
            "value": null
        },
        "traits": {
            "custom": "",
            "rarity": "common",
            "value": [
                "alchemical",
                "consumable",
                "drug",
                "ingested",
                "inhaled",
                "poison"
            ]
        },
        "usage": {
            "value": "held-in-one-hand"
        },
        "uses": {
            "autoDestroy": true,
            "autoUse": true,
            "max": 0,
            "per": null,
            "value": 0
        },
        "weight": {
            "value": "L"
        }
    },
    "flags": {},
    "img": "systems/pf2e/icons/equipment/alchemical-items/drugs/flayleaf.webp",
    "name": "Flayleaf",
    "type": "consumable"
}
