{
    "_id": "ngz7dYysC1NkBBRK",
    "data": {
        "baseItem": null,
        "containerId": null,
        "description": {
            "value": "<p>An item can be stored inside these supple leather gloves, held in an extradimensional space. When an item is inside the glove, an image of the item appears as a simple, stitched pattern on the back of each glove. Many <em>gloves of storing</em> are found with an item already inside.</p>\n<hr />\n<p><strong>Activate</strong> <span class=\"pf2-icon\">A</span> Interact</p>\n<p><strong>Requirements</strong> No item is stored in the gloves</p>\n<p><strong>Effect</strong> One item you're holding with a Bulk of 1 or less vanishes into the gloves' extradimensional space.</p>\n<hr />\n<p><strong>Activate</strong> <span class=\"pf2-icon\">F</span> Interact</p>\n<p><strong>Requirements</strong> An item is stored in the gloves, and you have a free hand</p>\n<p><strong>Effect</strong> The item stored in the gloves appears in your hand. The gloves can't be activated again for 1 minute.</p>"
        },
        "equippedBulk": {
            "value": ""
        },
        "hardness": 0,
        "hp": {
            "brokenThreshold": 0,
            "max": 0,
            "value": 0
        },
        "level": {
            "value": 7
        },
        "negateBulk": {
            "value": ""
        },
        "preciousMaterial": {
            "value": ""
        },
        "preciousMaterialGrade": {
            "value": ""
        },
        "price": {
            "value": {
                "gp": 340
            }
        },
        "quantity": 1,
        "rules": [],
        "size": "med",
        "source": {
            "value": "Pathfinder Core Rulebook"
        },
        "stackGroup": null,
        "traits": {
            "custom": "",
            "rarity": "uncommon",
            "value": [
                "extradimensional",
                "invested",
                "magical",
                "transmutation"
            ]
        },
        "usage": {
            "value": "worngloves"
        },
        "weight": {
            "value": "-"
        }
    },
    "flags": {},
    "img": "systems/pf2e/icons/equipment/cursed-items/gloves-of-carelessness.webp",
    "name": "Gloves of Storing",
    "type": "equipment"
}
