{
    "_id": "KVrCsckKUW68FWcV",
    "data": {
        "activation": {
            "condition": "",
            "cost": 0,
            "type": ""
        },
        "autoDestroy": {
            "_deprecated": true,
            "value": true
        },
        "autoUse": {
            "_deprecated": true,
            "value": true
        },
        "baseItem": null,
        "charges": {
            "_deprecated": true,
            "max": 0,
            "value": 0
        },
        "consumableType": {
            "value": "snare"
        },
        "consume": {
            "_deprecated": true,
            "value": ""
        },
        "containerId": "null",
        "description": {
            "value": "<p>This snare releases a stream of grease that coats the area, making movement difficult and potentially making the target slippery and clumsy. The square with the snare, as well as three adjacent squares you determine when you set the snare, become difficult terrain when a creature triggers the snare. The triggering creature must attempt a @Check[type:reflex|dc:22] saving throw. A creature can use three Interact actions to wipe away the grease from a single square or from the triggering creature; removing the grease from the triggering creature ends the effects on it.</p>\n<hr />\n<p><strong>Critical Success</strong> The creature is unaffected.</p>\n<p><strong>Success</strong> The creature is @Compendium[pf2e.conditionitems.Clumsy]{Clumsy 1} for 1 round.</p>\n<p><strong>Failure</strong> For 1 minute, the creature is clumsy 1 and must roll twice and use the worse result whenever attempting a Thievery check. If the target rolls a failure at a Thievery check, it gets a critical failure instead. This is a misfortune effect.</p>\n<p><strong>Critical Failure</strong> As failure, but the effects last for 1 hour instead of 1 minute, and removing the grease from the triggering creature requires a 1-minute activity instead of three Interact actions.</p>"
        },
        "duration": {
            "units": "",
            "value": null
        },
        "equippedBulk": {
            "value": ""
        },
        "hardness": 0,
        "hp": {
            "brokenThreshold": 0,
            "max": 0,
            "value": 0
        },
        "level": {
            "value": 5
        },
        "negateBulk": {
            "value": "0"
        },
        "preciousMaterial": {
            "value": null
        },
        "preciousMaterialGrade": {
            "value": null
        },
        "price": {
            "value": {
                "gp": 30
            }
        },
        "quantity": 1,
        "range": {
            "long": null,
            "units": "",
            "value": null
        },
        "rules": [],
        "size": "med",
        "source": {
            "value": "Pathfinder Lost Omens: Monsters of Myth"
        },
        "spell": {
            "data": null,
            "heightenedLevel": null
        },
        "stackGroup": null,
        "target": {
            "type": "",
            "units": "",
            "value": null
        },
        "traits": {
            "custom": "",
            "rarity": "rare",
            "value": [
                "consumable",
                "mechanical",
                "snare",
                "trap"
            ]
        },
        "usage": {
            "value": "held-in-one-hand"
        },
        "uses": {
            "autoDestroy": true,
            "autoUse": true,
            "max": 0,
            "per": null,
            "value": 0
        },
        "weight": {
            "value": "-"
        }
    },
    "flags": {},
    "img": "systems/pf2e/icons/default-icons/consumable.svg",
    "name": "Grease Snare",
    "type": "consumable"
}
