{
    "_id": "xdpP0y4EfRf0ALl8",
    "data": {
        "baseItem": null,
        "containerId": null,
        "description": {
            "value": "<p>This golden ring is sculpted with the visage of a grinning skull on the side. While wearing the ring, you can attempt to detect the presence of undead creatures as an exploration activity. This reveals the presence or absence of undead in the area, but it doesn't pinpoint their locations. This ring can't detect undead whose appearance is masked by any illusion spell that is 2nd level or higher. If an undead is hiding or disguised, the GM rolls a secret Perception check for you against the undead's Stealth or Deception DC, as appropriate, with a +2 item bonus to your check.</p>\n<hr />\n<p><strong>Activate</strong> <span class=\"pf2-icon\">r</span> envision (positive)</p>\n<p><strong>Frequency</strong> once per day</p>\n<p><strong>Trigger</strong> You gain the drained condition from an undead creature</p>\n<p><strong>Effect</strong> Reduce the value of the drained condition you gain by 1, and the undead that caused the condition takes 2d6 positive damage.</p>"
        },
        "equippedBulk": {
            "value": ""
        },
        "hardness": 0,
        "hp": {
            "brokenThreshold": 0,
            "max": 0,
            "value": 0
        },
        "level": {
            "value": 5
        },
        "negateBulk": {
            "value": "0"
        },
        "preciousMaterial": {
            "value": null
        },
        "preciousMaterialGrade": {
            "value": null
        },
        "price": {
            "value": {
                "gp": 150
            }
        },
        "quantity": 1,
        "rules": [],
        "size": "med",
        "source": {
            "value": "Pathfinder Book of the Dead"
        },
        "stackGroup": "",
        "traits": {
            "custom": "",
            "rarity": "uncommon",
            "value": [
                "detection",
                "divination",
                "divine",
                "invested"
            ]
        },
        "usage": {
            "value": "worn"
        },
        "weight": {
            "value": "-"
        }
    },
    "flags": {},
    "img": "systems/pf2e/icons/default-icons/equipment.svg",
    "name": "Grim Ring",
    "type": "equipment"
}
