{
    "_id": "TGCzwDIrAqo3HUhr",
    "data": {
        "baseItem": null,
        "containerId": null,
        "description": {
            "value": "<p>This magical chisel evokes the holy symbol of the elven goddess of art and architecture, Findeladlara. The <em>Guiding Chisel's</em> original function was as a portal key to Duskgate, but as Alseta's Ring faded from the collective memories of the elves, the chisel became known and used exclusively for its other abilities. Eventually, elven emissaries gave it to the dwarves of Saggorak as a gesture of friendship.</p>\n<p>You gain a +3 item bonus to Crafting checks related to stonemasonry.</p>\n<p>In addition, it takes you only 1 day to Craft items using the <em>Guiding Chisel</em> instead of 4 days, and you quadruple the discount you get for spending additional days Crafting items with the <em>Guiding Chisel</em>. If it's unclear whether you could use the <em>Guiding Chisel</em> to Craft an item, the GM decides.</p>\n<hr />\n<p><strong>Activate</strong> 10 minutes (command, envision, Interact)</p>\n<p><strong>Frequency</strong> once per day</p>\n<p><strong>Effect</strong> You embed the Guiding Chisel in the ground and imagine a building. After 10 minutes, you remove the chisel and the building appears. The building can take any shape you wish, filling up to ten contiguous 10-foot cubes within 1,000 feet of the chisel. The building lasts until you use the chisel to create another building. This building has the structure trait.</p>\n<hr />\n<p>Automatically applied effects:</p>\n<ul>\n<li>+3 item bonus to Crafting checks related to stonemasonry</li>\n</ul>"
        },
        "equippedBulk": {
            "value": ""
        },
        "hardness": 0,
        "hp": {
            "brokenThreshold": 0,
            "max": 0,
            "value": 0
        },
        "level": {
            "value": 16
        },
        "negateBulk": {
            "value": "0"
        },
        "preciousMaterial": {
            "value": ""
        },
        "preciousMaterialGrade": {
            "value": ""
        },
        "price": {
            "value": {
                "gp": 10000
            }
        },
        "quantity": 1,
        "rules": [
            {
                "key": "FlatModifier",
                "label": "Guiding Chisel (stonemasonry)",
                "predicate": {
                    "all": [
                        "stonemasonry"
                    ]
                },
                "selector": "crafting",
                "type": "item",
                "value": 3
            }
        ],
        "size": "med",
        "source": {
            "value": "Pathfinder #148: Fires of the Haunted City"
        },
        "stackGroup": null,
        "traits": {
            "custom": "",
            "rarity": "unique",
            "value": [
                "conjuration",
                "elf",
                "magical"
            ]
        },
        "usage": {
            "value": "held-in-one-hand"
        },
        "weight": {
            "value": "1"
        }
    },
    "flags": {},
    "img": "systems/pf2e/icons/equipment/held-items/guiding-chisel.webp",
    "name": "Guiding Chisel",
    "type": "equipment"
}
