{
    "_id": "4LJEpZ2HkCu9BvHI",
    "data": {
        "MAP": {
            "value": ""
        },
        "baseItem": "hand-cannon",
        "bonus": {
            "value": 0
        },
        "bonusDamage": {
            "value": 0
        },
        "category": "simple",
        "containerId": "null",
        "damage": {
            "damageType": "piercing",
            "dice": 1,
            "die": "d6",
            "value": ""
        },
        "description": {
            "value": "<p>Popular among privateers and mercenaries in Goka, hand cannons are little more than a hardened tube with a handle and external ignition attached. A hand cannon can be used to fire almost anything that can be packed into its barrel. The wielder of a hand cannon can change the damage type granted by its modular trait as part of the same Interact action used to reload.</p>"
        },
        "equippedBulk": {
            "value": ""
        },
        "group": "firearm",
        "hardness": 0,
        "hp": {
            "brokenThreshold": 0,
            "max": 0,
            "value": 0
        },
        "level": {
            "value": 0
        },
        "negateBulk": {
            "value": "0"
        },
        "potencyRune": {
            "value": 0
        },
        "preciousMaterial": {
            "value": null
        },
        "preciousMaterialGrade": {
            "value": null
        },
        "price": {
            "value": {
                "gp": 5
            }
        },
        "property1": {
            "critDamage": "",
            "critDamageType": "",
            "critDice": 0,
            "critDie": "",
            "criticalConditionType": "",
            "criticalConditionValue": null,
            "damageType": "",
            "dice": 0,
            "die": "",
            "strikeConditionType": "",
            "strikeConditionValue": null,
            "value": ""
        },
        "propertyRune1": {
            "value": null
        },
        "propertyRune2": {
            "value": null
        },
        "propertyRune3": {
            "value": null
        },
        "propertyRune4": {
            "value": null
        },
        "quantity": 1,
        "range": 30,
        "reload": {
            "value": "1"
        },
        "rules": [],
        "size": "med",
        "source": {
            "value": "Pathfinder Guns & Gears"
        },
        "specific": {
            "value": false
        },
        "splashDamage": {
            "value": 0
        },
        "stackGroup": null,
        "strikingRune": {
            "value": ""
        },
        "traits": {
            "custom": "",
            "rarity": "uncommon",
            "value": [
                "modular"
            ]
        },
        "usage": {
            "value": "held-in-one-hand"
        },
        "weight": {
            "value": "1"
        }
    },
    "flags": {},
    "img": "systems/pf2e/icons/default-icons/weapon.svg",
    "name": "Hand Cannon",
    "type": "weapon"
}
