{
    "_id": "sRpA9sGZe1P0EERB",
    "data": {
        "baseItem": null,
        "containerId": null,
        "description": {
            "value": "<p>Homeward wayfinders are powerful escape tools in the hands of a Pathfinder agent, drawing upon a special connection to the Maze of the Open Road. In addition to the effects of a @Compendium[pf2e.equipment-srd.Wayfinder]{Wayfinder}, a homeward wayfinder attunes itself to the most recent Pathfinder Lodge you've visited and has the following activation.</p>\n<hr />\n<p><strong>Activate</strong> 10 minutes (command, Interact)</p>\n<p><strong>Frequency</strong> once per day</p>\n<p><strong>Effect</strong> You teleport back to the attuned Pathfinder Lodge, as long as you are no more than 100 miles away. This teleportation effect fails if you would bring another creature with you, even if you're carrying it in an extradimensional space.</p>"
        },
        "equippedBulk": {
            "value": ""
        },
        "hardness": 0,
        "hp": {
            "brokenThreshold": 0,
            "max": 0,
            "value": 0
        },
        "level": {
            "value": 13
        },
        "negateBulk": {
            "value": "0"
        },
        "preciousMaterial": {
            "value": ""
        },
        "preciousMaterialGrade": {
            "value": ""
        },
        "price": {
            "value": {
                "gp": 2750
            }
        },
        "quantity": 1,
        "rules": [
            {
                "domain": "skill-check",
                "key": "RollOption",
                "option": "compass-in-possession",
                "requiresEquipped": false
            }
        ],
        "size": "med",
        "source": {
            "value": "Pathfinder Lost Omens: Pathfinder Society Guide"
        },
        "stackGroup": null,
        "traits": {
            "custom": "",
            "rarity": "uncommon",
            "value": [
                "conjuration",
                "evocation",
                "invested",
                "magical",
                "teleportation"
            ]
        },
        "usage": {
            "value": "worn"
        },
        "weight": {
            "value": "-"
        }
    },
    "flags": {},
    "img": "systems/pf2e/icons/equipment/worn-items/other-worn-items/wayfinder.webp",
    "name": "Homeward Wayfinder",
    "type": "equipment"
}
