{
    "_id": "KeespXczBEt1ci26",
    "data": {
        "baseItem": null,
        "containerId": null,
        "description": {
            "value": "<p>This silver chalice bears the symbol of Pharasma, a swirling cloud that transforms into a flight of whippoorwills that encircle the top. The chalice can be activated in one of two ways, though only once per day total.</p>\n<hr />\n<p><strong>Activate</strong> <span class=\"pf2-icon\">1</span> envision</p>\n<p><strong>Frequency</strong> Once per day</p>\n<p><strong>Effect</strong> The chalice fills with a single vial's worth of <em>@Compendium[pf2e.equipment-srd.Holy Water]{Holy Water}</em>. The water loses its potency after 1 day if poured into any container other than a font specifically sanctified by a cleric of Pharasma. It similarly loses its potency 1 day after being removed from such a font.</p>\n<hr />\n<p><strong>Activate</strong> <span class=\"pf2-icon\">1</span> Strike</p>\n<p><strong>Frequency</strong> once per day</p>\n<p><strong>Requirements</strong> The <em>Lady's Chalice</em> is full of a vial's worth of <em>holy water</em></p>\n<p><strong>Effect</strong> The chalice splashes a spiral of <em>holy water</em> into an adjacent space. This is a simple thrown weapon with a range of 5 feet. Unlike an alchemical bomb, it doesn't add the manipulate trait to the attack made with it. If it hits, it deals 2d6 good damage and 2 good splash damage (including to you, if you're evil).</p>"
        },
        "equippedBulk": {
            "value": ""
        },
        "hardness": 0,
        "hp": {
            "brokenThreshold": 0,
            "max": 0,
            "value": 0
        },
        "level": {
            "value": 3
        },
        "negateBulk": {
            "value": "0"
        },
        "preciousMaterial": {
            "value": null
        },
        "preciousMaterialGrade": {
            "value": null
        },
        "price": {
            "value": {
                "gp": 60
            }
        },
        "quantity": 1,
        "rules": [],
        "size": "med",
        "source": {
            "value": "Pathfinder Book of the Dead"
        },
        "stackGroup": "",
        "traits": {
            "custom": "",
            "rarity": "uncommon",
            "value": [
                "conjuration",
                "divine",
                "good"
            ]
        },
        "usage": {
            "value": "held-in-one-hand"
        },
        "weight": {
            "value": "L"
        }
    },
    "flags": {},
    "img": "systems/pf2e/icons/equipment/treasure/art-objects/greater-art-object/gold-chalice-with-black-pearls.webp",
    "name": "Lady's Chalice",
    "type": "equipment"
}
