{
    "_id": "0NZuvpCVr21WcQtH",
    "data": {
        "baseItem": null,
        "containerId": null,
        "description": {
            "value": "<p>As long as this locket of horn and silver is closed, you don't need to sleep. However, you can still overexert your body with too much activity, so you still need to rest to avoid becoming fatigued or to remove the fatigued condition.</p>\n<p>You also gain a +4 item bonus on saving throws against mental illusions, magical effects that would make you unconscious, and effects that would make you fatigued.</p>\n<p>Each time dawn occurs, you regain the ability to make your daily preparations as if you had rested for 8 hours. Daily preparations still take about an hour, as normal.</p>\n<p><strong>Activate</strong> <span class=\"pf2-icon\">D</span> Envision, interact</p>\n<p><strong>Requirements</strong> You aren't fatigued</p>\n<p><strong>Effect</strong> You open the locket to unleash the dreams it has kept at bay. You become fatigued and cast one of the following spells at 9th level (DC 41): <em>@Compendium[pf2e.spells-srd.Hallucination]{Hallucination}</em>, <em>@Compendium[pf2e.spells-srd.Sleep]{Sleep}</em>, or <em>@Compendium[pf2e.spells-srd.Weird]{Weird}</em>.</p>\n<hr />\n<p>Automatically applied effects:</p>\n<ul>\n<li>+4 item bonus on saving throws against mental illusions, magical effects that would make you unconscious, and effects that would make you fatigued</li>\n</ul>"
        },
        "equippedBulk": {
            "value": ""
        },
        "hardness": 0,
        "hp": {
            "brokenThreshold": 0,
            "max": 0,
            "value": 0
        },
        "level": {
            "value": 19
        },
        "negateBulk": {
            "value": "0"
        },
        "preciousMaterial": {
            "value": ""
        },
        "preciousMaterialGrade": {
            "value": ""
        },
        "price": {
            "value": {
                "gp": 36000
            }
        },
        "quantity": 1,
        "rules": [
            {
                "key": "FlatModifier",
                "label": "Locket of Sealed Nightmare (illusions, unconscious, fatigue",
                "predicate": {
                    "any": [
                        "illusion",
                        "unconscious",
                        "fatigue"
                    ]
                },
                "selector": "saving-throw",
                "type": "item",
                "value": 4
            }
        ],
        "size": "med",
        "source": {
            "value": "Pathfinder #156: The Apocalypse Prophet"
        },
        "stackGroup": null,
        "traits": {
            "custom": "",
            "rarity": "rare",
            "value": [
                "illusion",
                "invested",
                "magical"
            ]
        },
        "usage": {
            "value": "wornnecklace"
        },
        "weight": {
            "value": "-"
        }
    },
    "flags": {},
    "img": "systems/pf2e/icons/equipment/worn-items/other-worn-items/locket-of-sealed-nightmares.webp",
    "name": "Locket of Sealed Nightmares",
    "type": "equipment"
}
