{
    "_id": "3mprh9aZ670HfNhT",
    "data": {
        "baseItem": null,
        "containerId": null,
        "description": {
            "value": "<p>A maestro's instrument can be crafted in the form of any variety of handheld musical instrument. A moderate maestro's instrument grants you a +2 item bonus to Performance checks while playing music with the instrument.</p>\n<p><strong>Activate</strong> <span class=\"pf2-icon\">D</span> Interact</p>\n<p><strong>Frequency</strong> once per day</p>\n<p><strong>Effect</strong> You can play the instrument to produce the effects of an 4th level (DC 27) <em>@Compendium[pf2e.spells-srd.Charm]{Charm}</em> spell.</p>\n<hr />\n<p><strong>Craft Requirements</strong> You must supply a casting of <em>charm</em> of the appropriate level.</p>\n<p>Automatically applied effects:</p>\n<ul>\n<li>+2 item bonus to Performance checks while playing music with the instrument</li>\n</ul>"
        },
        "equippedBulk": {
            "value": ""
        },
        "hardness": 0,
        "hp": {
            "brokenThreshold": 0,
            "max": 0,
            "value": 0
        },
        "level": {
            "value": 10
        },
        "negateBulk": {
            "value": "0"
        },
        "preciousMaterial": {
            "value": ""
        },
        "preciousMaterialGrade": {
            "value": ""
        },
        "price": {
            "value": {
                "gp": 900
            }
        },
        "quantity": 1,
        "rules": [
            {
                "key": "FlatModifier",
                "label": "Maestro's Instrument (playing it)",
                "predicate": {
                    "all": [
                        "playing"
                    ]
                },
                "selector": "performance",
                "type": "item",
                "value": 2
            }
        ],
        "size": "med",
        "source": {
            "value": "Pathfinder Core Rulebook"
        },
        "stackGroup": null,
        "traits": {
            "custom": "",
            "rarity": "common",
            "value": [
                "enchantment",
                "magical"
            ]
        },
        "usage": {
            "value": "held-in-two-hands"
        },
        "weight": {
            "value": "1"
        }
    },
    "flags": {},
    "img": "systems/pf2e/icons/equipment/held-items/maestros-instrument.webp",
    "name": "Maestro's Instrument (Moderate)",
    "type": "equipment"
}
