{
    "_id": "tYnFIqjvxT9bWaoR",
    "data": {
        "MAP": {
            "value": ""
        },
        "baseItem": "composite-longbow",
        "bonus": {
            "value": 0
        },
        "bonusDamage": {
            "value": 0
        },
        "category": "advanced",
        "containerId": null,
        "damage": {
            "damageType": "piercing",
            "dice": 1,
            "die": "d8",
            "value": ""
        },
        "description": {
            "value": "<p>This heavy, 12-foot-tall <em>+2 striking Composite Longbow</em> is fashioned from mammoth tusks lashed together. Due to its great size, you can attack with the Mammoth Bow only if you're Large or larger. The Mammoth Bow deals 2d6 additional piercing damage because of its incredible, magically enhanced draw power. Additionally, the Mammoth Bow has a 180-foot range increment instead of a 100-foot range increment, but its volley range increases from 30 feet to 50 feet.</p>"
        },
        "equippedBulk": {
            "value": ""
        },
        "group": "bow",
        "hardness": 0,
        "hp": {
            "brokenThreshold": 0,
            "max": 0,
            "value": 0
        },
        "level": {
            "value": 12
        },
        "negateBulk": {
            "value": "0"
        },
        "potencyRune": {
            "value": 2
        },
        "preciousMaterial": {
            "value": null
        },
        "preciousMaterialGrade": {
            "value": null
        },
        "price": {
            "value": {
                "gp": 2000
            }
        },
        "property1": {
            "critDamage": "",
            "critDamageType": "",
            "critDice": 0,
            "critDie": "",
            "criticalConditionType": "",
            "criticalConditionValue": null,
            "damageType": "",
            "dice": null,
            "die": "",
            "strikeConditionType": "",
            "strikeConditionValue": null,
            "value": ""
        },
        "propertyRune1": {
            "value": null
        },
        "propertyRune2": {
            "value": null
        },
        "propertyRune3": {
            "value": null
        },
        "propertyRune4": {
            "value": null
        },
        "quantity": 1,
        "range": 180,
        "reload": {
            "value": "0"
        },
        "rules": [
            {
                "damageType": "piercing",
                "diceNumber": 2,
                "dieSize": "d6",
                "key": "DamageDice",
                "selector": "{item|_id}-damage"
            }
        ],
        "size": "lg",
        "source": {
            "value": "Pathfinder #177: Burning Tundra"
        },
        "specific": {
            "material": null,
            "runes": {
                "potency": 2,
                "striking": "striking"
            },
            "value": true
        },
        "splashDamage": {
            "value": 0
        },
        "stackGroup": null,
        "strikingRune": {
            "value": "striking"
        },
        "traits": {
            "custom": "",
            "rarity": "unique",
            "value": [
                "deadly-d10",
                "evocation",
                "magical",
                "propulsive",
                "volley-50"
            ]
        },
        "usage": {
            "value": "held-in-one-hand"
        },
        "weight": {
            "value": "4"
        }
    },
    "flags": {},
    "img": "systems/pf2e/icons/equipment/weapons/composite-longbow.webp",
    "name": "Mammoth Bow",
    "type": "weapon"
}
