{
    "_id": "NUEwFlFb7RJnLD4w",
    "data": {
        "baseItem": null,
        "containerId": "null",
        "description": {
            "value": "<p>This porcelain or alabaster mask portrays an angelic visage of kindness and mercy.</p>\n<hr />\n<p><strong>Activate</strong> <span class=\"pf2-icon\">F</span> envision (fortune)</p>\n<p><strong>Frequency</strong> once per day</p>\n<p><strong>Trigger</strong> You are about to roll a variable number of Hit Points you restore from an action with the healing trait</p>\n<p><strong>Effect</strong> Roll twice to determine the number of Hit Points you restore and take the higher result.</p>"
        },
        "equippedBulk": {
            "value": ""
        },
        "hardness": 0,
        "hp": {
            "brokenThreshold": 0,
            "max": 0,
            "value": 0
        },
        "level": {
            "value": 4
        },
        "negateBulk": {
            "value": "0"
        },
        "preciousMaterial": {
            "value": null
        },
        "preciousMaterialGrade": {
            "value": null
        },
        "price": {
            "value": {
                "gp": 100
            }
        },
        "quantity": 1,
        "rules": [],
        "size": "med",
        "source": {
            "value": "Pathfinder #169: Kindled Magic"
        },
        "stackGroup": null,
        "traits": {
            "custom": "",
            "rarity": "uncommon",
            "value": [
                "fortune",
                "invested",
                "magical",
                "necromancy"
            ]
        },
        "usage": {
            "value": "wornmask"
        },
        "weight": {
            "value": "-"
        }
    },
    "flags": {},
    "img": "systems/pf2e/icons/default-icons/equipment.svg",
    "name": "Mask of Mercy",
    "type": "equipment"
}
