{
    "_id": "2c5pF6q5XkjLn8MU",
    "data": {
        "baseItem": null,
        "containerId": "null",
        "description": {
            "value": "<p>A mask helps you use the @Compendium[pf2e.actionspf2e.Impersonate]{Impersonate} action to pass yourself off as someone you aren't.</p>\n<p>This ordinary mask is made out of cheap material, such as paper-mâché or simple cloth. This can be specially fitted over another mask.</p>"
        },
        "equippedBulk": {
            "value": ""
        },
        "hardness": 0,
        "hp": {
            "brokenThreshold": 0,
            "max": 0,
            "value": 0
        },
        "level": {
            "value": 0
        },
        "negateBulk": {
            "value": "0"
        },
        "preciousMaterial": {
            "value": null
        },
        "preciousMaterialGrade": {
            "value": null
        },
        "price": {
            "value": {
                "cp": 5
            }
        },
        "quantity": 1,
        "rules": [],
        "size": "med",
        "source": {
            "value": "Pathfinder Lost Omens: The Grand Bazaar"
        },
        "stackGroup": null,
        "traits": {
            "custom": "",
            "rarity": "common",
            "value": []
        },
        "usage": {
            "value": "wornmask"
        },
        "weight": {
            "value": "-"
        }
    },
    "flags": {},
    "img": "systems/pf2e/icons/default-icons/equipment.svg",
    "name": "Mask (Ordinary)",
    "type": "equipment"
}
