{
    "_id": "nNinADW4vVC0roP2",
    "data": {
        "baseItem": null,
        "containerId": "null",
        "description": {
            "value": "<p>Pickpocket's tailoring modifies an existing outfit by adding concealed interior pockets and strategically opened seams for hiding small objects inside the lining. You gain a +1 item bonus to Stealth checks to Conceal an Object of light Bulk or less in the pockets. When you get a failure (but not a critical failure, which works as normal) on a Stealth check to Conceal such an Object, observers know you're concealing an object somewhere, but they don't find the object unless they succeed at a @Check[type:perception|dc:20|name:Find a Pickpocket Pocket|showDC:all] check to locate the seams in the garment.</p>"
        },
        "equippedBulk": {
            "value": ""
        },
        "hardness": 0,
        "hp": {
            "brokenThreshold": 0,
            "max": 0,
            "value": 0
        },
        "level": {
            "value": 4
        },
        "negateBulk": {
            "value": "0"
        },
        "preciousMaterial": {
            "value": null
        },
        "preciousMaterialGrade": {
            "value": null
        },
        "price": {
            "value": {
                "gp": 100
            }
        },
        "quantity": 1,
        "rules": [
            {
                "key": "FlatModifier",
                "label": "Conceal an item (L bulk or less) in a Pickpocket's Pocket",
                "predicate": {
                    "all": [
                        "action:conceal-an-item"
                    ]
                },
                "selector": "stealth",
                "type": "item",
                "value": 1
            }
        ],
        "size": "med",
        "source": {
            "value": "Pathfinder Lost Omens: The Grand Bazaar"
        },
        "stackGroup": null,
        "traits": {
            "custom": "",
            "rarity": "uncommon",
            "value": []
        },
        "usage": {
            "value": "sewn-into-clothing"
        },
        "weight": {
            "value": "-"
        }
    },
    "flags": {},
    "img": "systems/pf2e/icons/default-icons/equipment.svg",
    "name": "Pickpocket's Tailoring",
    "type": "equipment"
}
