{
    "_id": "otCgznS0L14Z46rf",
    "data": {
        "baseItem": null,
        "containerId": null,
        "description": {
            "value": "<p>This ring is made from the purest platinum and is covered in esoteric arcane symbols. It does nothing unless you have a spellcasting class feature with the arcane tradition. While wearing the ring of wizardry, you gain a +2 item bonus to Arcana checks and have two additional 3rd-level and one additional 2nd-level arcane spell slot each day. You prepare spells in these slots or cast from them spontaneously, just as you normally cast your spells.</p>\n<p>If you take off the ring for any reason, you lose the additional spell slots. You can't gain spell slots from more than one ring of wizardry per day, nor can a single ring of wizardry grant spell slots more than once per day.</p>\n<p>If you can cast arcane spells in a variety of different ways (such as if you are a draconic bloodline sorcerer with the wizard multiclass archetype), you can divide the spell slots as you wish among your various sources of arcane spells.</p>\n<p><strong>Craft Requirements</strong> You have a spellcasting class feature with the arcane tradition.</p>\n<hr />\n<p>Automatically applied effects:</p>\n<ul>\n<li>+2 item bonus to Arcana checks </li>\n</ul>"
        },
        "equippedBulk": {
            "value": ""
        },
        "hardness": 0,
        "hp": {
            "brokenThreshold": 0,
            "max": 0,
            "value": 0
        },
        "level": {
            "value": 12
        },
        "negateBulk": {
            "value": ""
        },
        "preciousMaterial": {
            "value": ""
        },
        "preciousMaterialGrade": {
            "value": ""
        },
        "price": {
            "value": {
                "gp": 2000
            }
        },
        "quantity": 1,
        "rules": [
            {
                "key": "FlatModifier",
                "selector": "arcana",
                "type": "item",
                "value": 2
            }
        ],
        "size": "med",
        "source": {
            "value": "Pathfinder Core Rulebook"
        },
        "stackGroup": null,
        "traits": {
            "custom": "",
            "rarity": "uncommon",
            "value": [
                "arcane",
                "divination",
                "invested"
            ]
        },
        "usage": {
            "value": "worn"
        },
        "weight": {
            "value": "-"
        }
    },
    "flags": {},
    "img": "systems/pf2e/icons/equipment/worn-items/other-worn-items/ring-of-wizardry.webp",
    "name": "Ring of Wizardry (Type III)",
    "type": "equipment"
}
