{
    "_id": "Ivqd84dkWA8DW8YJ",
    "data": {
        "baseItem": null,
        "containerId": null,
        "description": {
            "value": "<p>This golden ring has three diamonds set into its face.</p>\n<p><strong>Activate</strong> <span class=\"pf2-icon\">R</span> envision</p>\n<p><strong>Trigger</strong> You are targeted by a spell</p>\n<p><strong>Effect</strong> The ring replicates the effects of an 8th-level <em>@Compendium[pf2e.spells-srd.Spell Turning]{Spell Turning}</em> with a counteract modifier of [[/r 1d20+35]], possibly causing the triggering spell to reflect back on its caster.</p>\n<p>The ring can reflect no more than 9 total levels of spells per day. If you activate the ring to reflect a spell that would exceed this limit, the attempt fails, but the attempted usage of the ring does not count toward the daily limit.</p>"
        },
        "equippedBulk": {
            "value": ""
        },
        "hardness": 0,
        "hp": {
            "brokenThreshold": 0,
            "max": 0,
            "value": 0
        },
        "level": {
            "value": 20
        },
        "negateBulk": {
            "value": "0"
        },
        "preciousMaterial": {
            "value": ""
        },
        "preciousMaterialGrade": {
            "value": ""
        },
        "price": {
            "value": {
                "gp": 67000
            }
        },
        "quantity": 1,
        "rules": [],
        "size": "med",
        "source": {
            "value": "Pathfinder Core Rulebook"
        },
        "stackGroup": null,
        "traits": {
            "custom": "",
            "rarity": "rare",
            "value": [
                "abjuration",
                "invested",
                "magical"
            ]
        },
        "usage": {
            "value": "worn"
        },
        "weight": {
            "value": "-"
        }
    },
    "flags": {},
    "img": "systems/pf2e/icons/equipment/worn-items/other-worn-items/ring-of-spell-turning.webp",
    "name": "Ring of Spell Turning",
    "type": "equipment"
}
