{
    "_id": "1ii8hvKjkf71wYMx",
    "data": {
        "baseItem": null,
        "containerId": "null",
        "description": {
            "value": "<p>This green spellbook with gold trim contains a cautionary story about a boy who was eaten by a wolf after he previously lied about wolf attacks. When opened, the engravings on the front seem to move in a loop, enacting this story.</p>\n<hr />\n<p><strong>Activate</strong> <span class=\"pf2-icon\">r</span> envision</p>\n<p><strong>Frequency</strong> once per day</p>\n<p><strong>Trigger</strong> A creature succeeds, but doesn't critically succeed, at a Perception check to disbelieve an illusion spell you prepared from this grimoire</p>\n<p><strong>Effect</strong> You quickly tell a fib to try to smooth over the inconsistencies in your illusion. Attempt a Deception check against the triggering creature's Perception DC. If you succeed, the creature doesn't disbelieve the illusion.</p>"
        },
        "equippedBulk": {
            "value": ""
        },
        "hardness": 0,
        "hp": {
            "brokenThreshold": 0,
            "max": 0,
            "value": 0
        },
        "level": {
            "value": 6
        },
        "negateBulk": {
            "value": "0"
        },
        "preciousMaterial": {
            "value": null
        },
        "preciousMaterialGrade": {
            "value": null
        },
        "price": {
            "value": {
                "gp": 230
            }
        },
        "quantity": 1,
        "rules": [],
        "size": "med",
        "source": {
            "value": "Pathfinder Secrets of Magic"
        },
        "stackGroup": null,
        "traits": {
            "custom": "",
            "rarity": "common",
            "value": [
                "grimoire",
                "illusion",
                "magical"
            ]
        },
        "usage": {
            "value": "held-in-one-hand"
        },
        "weight": {
            "value": "L"
        }
    },
    "flags": {},
    "img": "systems/pf2e/icons/default-icons/equipment.svg",
    "name": "Storyteller's Opus",
    "type": "equipment"
}
