{
    "_id": "pNQJ9PTOEHxEZCgp",
    "data": {
        "armor": {
            "value": 2
        },
        "baseItem": null,
        "category": "shield",
        "check": {
            "value": 0
        },
        "containerId": null,
        "description": {
            "value": "<p>With a superior design and excellent craftsmanship, this steel shield has higher Hardness than its non-magical counterparts, making it harder to break and destroy.</p>\n<p>The shield has Hardness 13, HP 104, and BT 52.</p>"
        },
        "dex": {
            "value": 0
        },
        "equippedBulk": {
            "value": ""
        },
        "group": null,
        "hardness": 13,
        "hp": {
            "brokenThreshold": 52,
            "max": 104,
            "value": 104
        },
        "level": {
            "value": 10
        },
        "negateBulk": {
            "value": "0"
        },
        "potencyRune": {
            "value": 0
        },
        "preciousMaterial": {
            "value": ""
        },
        "preciousMaterialGrade": {
            "value": ""
        },
        "price": {
            "value": {
                "gp": 1000
            }
        },
        "propertyRune1": {
            "value": ""
        },
        "propertyRune2": {
            "value": ""
        },
        "propertyRune3": {
            "value": ""
        },
        "propertyRune4": {
            "value": ""
        },
        "quantity": 1,
        "resiliencyRune": {
            "value": ""
        },
        "rules": [],
        "size": "med",
        "source": {
            "value": "Pathfinder Core Rulebook"
        },
        "speed": {
            "value": 0
        },
        "stackGroup": null,
        "strength": {
            "value": 0
        },
        "traits": {
            "custom": "",
            "rarity": "common",
            "value": [
                "abjuration",
                "magical"
            ]
        },
        "usage": {
            "value": "held-in-one-hand"
        },
        "weight": {
            "value": "1"
        }
    },
    "flags": {},
    "img": "systems/pf2e/icons/equipment/shields/specific-shields/sturdy-shield.webp",
    "name": "Sturdy Shield (Moderate)",
    "type": "armor"
}
