{
    "_id": "5Qkz4RVJr2Kx3RL6",
    "data": {
        "MAP": {
            "value": ""
        },
        "baseItem": "alchemical-bomb",
        "bonus": {
            "value": 2
        },
        "bonusDamage": {
            "value": 0
        },
        "category": "martial",
        "containerId": null,
        "damage": {
            "damageType": "bludgeoning",
            "dice": 1,
            "die": "",
            "value": ""
        },
        "description": {
            "value": "<p>A tanglefoot bag is filled with sticky substances. When you hit a creature with a tanglefoot bag, that creature takes a -15-foot status penalty to its Speeds for 1 minute. You gain a +2 item bonus to attack rolls, and the Escape DC is 28.</p>\n<p>On a critical hit, a creature in contact with a solid surface becomes stuck to the surface and @Compendium[pf2e.conditionitems.Immobilized]{Immobilized} for 1 round, and a creature flying via wings has its wings tangled, causing it to fall safely to the ground and become unable to Fly again for 1 round. Tanglefoot bags are not effective when used on a creature that is in water.</p>\n<p>The target can end any effects by Escaping or spending a total of 3 actions to carefully remove the sticky substances. These Interact actions don't have to be consecutive, and other creatures can provide the actions as well.</p>"
        },
        "equippedBulk": {
            "value": ""
        },
        "group": "bomb",
        "hardness": 0,
        "hp": {
            "brokenThreshold": 0,
            "max": 0,
            "value": 0
        },
        "level": {
            "value": 11
        },
        "negateBulk": {
            "value": "0"
        },
        "potencyRune": {
            "value": null
        },
        "preciousMaterial": {
            "value": ""
        },
        "preciousMaterialGrade": {
            "value": ""
        },
        "price": {
            "value": {
                "gp": 250
            }
        },
        "property1": {
            "critDamage": "",
            "critDamageType": "",
            "critDice": null,
            "critDie": "",
            "criticalConditionType": "",
            "criticalConditionValue": null,
            "damageType": "",
            "dice": null,
            "die": "",
            "strikeConditionType": "",
            "strikeConditionValue": null,
            "value": ""
        },
        "propertyRune1": {
            "value": ""
        },
        "propertyRune2": {
            "value": ""
        },
        "propertyRune3": {
            "value": ""
        },
        "propertyRune4": {
            "value": ""
        },
        "quantity": 1,
        "range": 20,
        "reload": {
            "value": ""
        },
        "rules": [
            {
                "key": "Note",
                "outcome": [
                    "success"
                ],
                "selector": "{item|_id}-attack",
                "text": "<p class='compact-text'>@Localize[PF2E.BombNotes.TanglefootBag.Greater.success]</p>"
            },
            {
                "key": "Note",
                "outcome": [
                    "criticalSuccess"
                ],
                "selector": "{item|_id}-attack",
                "text": "<p class='compact-text'>@Localize[PF2E.BombNotes.TanglefootBag.Greater.criticalSuccess]</p>"
            }
        ],
        "size": "med",
        "source": {
            "value": "Pathfinder Core Rulebook"
        },
        "splashDamage": {
            "value": null
        },
        "stackGroup": null,
        "strikingRune": {
            "value": ""
        },
        "traits": {
            "custom": "",
            "rarity": "common",
            "value": [
                "alchemical",
                "bomb",
                "consumable"
            ]
        },
        "usage": {
            "value": "held-in-one-hand"
        },
        "weight": {
            "value": "L"
        }
    },
    "flags": {},
    "img": "systems/pf2e/icons/equipment/alchemical-items/alchemical-bombs/tanglefoot-bag.webp",
    "name": "Tanglefoot Bag (Greater)",
    "type": "weapon"
}
