{
    "_id": "OAjI2eaXvHQRrERK",
    "data": {
        "baseItem": null,
        "containerId": "null",
        "description": {
            "value": "<p><strong>Usage</strong> modifies existing clothing.</p>\n<hr />\n<p>Performers and criminals are both known to use disposable clothing designed to be torn off the body quickly and easily. This garment is loose enough to be worn over another outfit, including light armor. You can remove tear-away clothing with an Interact action. The price for tear-away clothing is to modify an existing outfit. If purchasing a new outfit, add the tear-away clothing's price to the outfit to modify it as part of the purchase.</p>"
        },
        "equippedBulk": {
            "value": ""
        },
        "hardness": 0,
        "hp": {
            "brokenThreshold": 0,
            "max": 0,
            "value": 0
        },
        "level": {
            "value": 0
        },
        "negateBulk": {
            "value": "0"
        },
        "preciousMaterial": {
            "value": null
        },
        "preciousMaterialGrade": {
            "value": null
        },
        "price": {
            "value": {
                "sp": 5
            }
        },
        "quantity": 1,
        "rules": [],
        "size": "med",
        "source": {
            "value": "Pathfinder Lost Omens: The Grand Bazaar"
        },
        "stackGroup": null,
        "traits": {
            "custom": "",
            "rarity": "common",
            "value": []
        },
        "usage": {
            "value": "worn"
        },
        "weight": {
            "value": "-"
        }
    },
    "flags": {},
    "img": "systems/pf2e/icons/default-icons/equipment.svg",
    "name": "Tear-Away Clothing",
    "type": "equipment"
}
