{
    "_id": "KekfZ6eRzoZVRemw",
    "data": {
        "baseItem": null,
        "containerId": "null",
        "description": {
            "value": "<p>You've learned to bind some of your feathers together into a fan to focus your ancestral magic. You (and only you) can use the <em>tengu feather fan</em> to cast tengu magic. If your fan is lost or destroyed, you can create a replacement during your daily preparations; if you do so, your previous fan falls apart into mundane feathers. Further feats might grant you additional activations of your <em>tengu feather fan</em>, but you can never have more than three activations per day, no matter how many such feats you have. The DC for spells you cast with your <em>tengu feather fan</em> is your class DC or spell DC, whichever is higher.</p>\n<p>You can cast the 1st-level <em>@Compendium[pf2e.spells-srd.Gust of Wind]{Gust of Wind}</em> spell by activating your <em>tengu feather fan</em>.</p>\n<hr />\n<p><strong>Activate</strong> Interact</p>\n<p><strong>Frequency</strong> once per day</p>\n<p><strong>Effect</strong> You cast one of the spells contained in your <em>tengu feather fan</em>. Activating the fan takes the spell's normal number of actions. You can also Activate the fan to cast a cantrip you've gained from a heritage or ancestry feat; this activation doesn't count against the fan's uses per day.</p>"
        },
        "equippedBulk": {
            "value": ""
        },
        "hardness": 0,
        "hp": {
            "brokenThreshold": 0,
            "max": 0,
            "value": 0
        },
        "level": {
            "value": 5
        },
        "negateBulk": {
            "value": "0"
        },
        "preciousMaterial": {
            "value": null
        },
        "preciousMaterialGrade": {
            "value": null
        },
        "price": {
            "value": {}
        },
        "quantity": 1,
        "rules": [],
        "size": "med",
        "source": {
            "value": "Pathfinder Lost Omens: Ancestry Guide"
        },
        "stackGroup": null,
        "traits": {
            "custom": "",
            "rarity": "unique",
            "value": [
                "evocation",
                "primal"
            ]
        },
        "usage": {
            "value": "held-in-one-hand"
        },
        "weight": {
            "value": "L"
        }
    },
    "flags": {},
    "img": "systems/pf2e/icons/default-icons/equipment.svg",
    "name": "Tengu Feather Fan",
    "type": "equipment"
}
