{
    "_id": "7MTjAlCVVLsNFo7w",
    "data": {
        "baseItem": null,
        "containerId": null,
        "description": {
            "value": "<p>When invested, this ornate crown and its incandescent gemstone meld into your head and take the form of a tattoo. This grants you otherworldly sight and allows you to read auras. No one but you can manipulate the <em>third eye</em> while it's invested by you. Your heightened senses and ability to sense emotional auras grant you a +3 item bonus to Perception checks.</p>\n<p>You continuously see magic auras, as a 9th-level <em>@Compendium[pf2e.spells-srd.Detect Magic]{Detect Magic}</em> spell, except you see the location of all auras within 30 feet, not just the strongest. If you use a Seek action to study a creature you can see, you can perceive an aura that conveys knowledge of that creature's health, including all conditions and afflictions it has and an approximate percentage of its remaining Hit Points.</p>\n<p><strong>Activate</strong> <span class=\"pf2-icon\">D</span> envision, command</p>\n<p><strong>Frequency</strong> once per day</p>\n<p><strong>Effect</strong> You gain the effects of an 8th-level <em>@Compendium[pf2e.spells-srd.True Seeing]{True Seeing}</em> spell.</p>\n<hr />\n<p>Automatically applied effects:</p>\n<ul>\n<li>+3 item bonus to Perception checks</li>\n</ul>"
        },
        "equippedBulk": {
            "value": ""
        },
        "hardness": 0,
        "hp": {
            "brokenThreshold": 0,
            "max": 0,
            "value": 0
        },
        "level": {
            "value": 19
        },
        "negateBulk": {
            "value": "0"
        },
        "preciousMaterial": {
            "value": ""
        },
        "preciousMaterialGrade": {
            "value": ""
        },
        "price": {
            "value": {
                "gp": 40000
            }
        },
        "quantity": 1,
        "rules": [
            {
                "key": "FlatModifier",
                "selector": "perception",
                "type": "item",
                "value": 3
            }
        ],
        "size": "med",
        "source": {
            "value": "Pathfinder Core Rulebook"
        },
        "stackGroup": null,
        "traits": {
            "custom": "",
            "rarity": "common",
            "value": [
                "divination",
                "invested",
                "magical"
            ]
        },
        "usage": {
            "value": "worn"
        },
        "weight": {
            "value": "-"
        }
    },
    "flags": {},
    "img": "systems/pf2e/icons/equipment/worn-items/other-worn-items/third-eye.webp",
    "name": "Third Eye",
    "type": "equipment"
}
