{
    "_id": "xYJwgmn2Nmthztb7",
    "data": {
        "activation": {
            "condition": "",
            "cost": 0,
            "type": ""
        },
        "autoDestroy": {
            "_deprecated": true,
            "value": true
        },
        "autoUse": {
            "_deprecated": true,
            "value": true
        },
        "baseItem": null,
        "charges": {
            "_deprecated": true,
            "max": 0,
            "value": 0
        },
        "consumableType": {
            "value": "catalyst"
        },
        "consume": {
            "_deprecated": true,
            "value": ""
        },
        "containerId": "null",
        "description": {
            "value": "<p><strong>Activate</strong> Cast a Spell (add 1 action)</p>\n<hr />\n<p>This carved chunk of amber contains a single tuft of gray feathers, which spark with electricity to create an odd jittery sensation in anyone holding the amber for long. When used as part of a <em>@Compendium[pf2e.spells-srd.Shocking Grasp]{Shocking Grasp}</em> spell, thunderbird tuft funnels electricity back into the spellcaster in a defensive nimbus. For 1 minute, any creature that touches you or that hits you with a melee unarmed attack or non-reach melee weapon attack takes [[/r {3d4}[electricity]]]{3d4 electricity damage}([[/r {3d6}[electricity]]]{3d6 electricity damage} if the creature is using a metal weapon).</p>"
        },
        "duration": {
            "units": "",
            "value": null
        },
        "equippedBulk": {
            "value": ""
        },
        "hardness": 0,
        "hp": {
            "brokenThreshold": 0,
            "max": 0,
            "value": 0
        },
        "level": {
            "value": 13
        },
        "negateBulk": {
            "value": "0"
        },
        "preciousMaterial": {
            "value": null
        },
        "preciousMaterialGrade": {
            "value": null
        },
        "price": {
            "value": {
                "gp": 500
            }
        },
        "quantity": 1,
        "range": {
            "long": null,
            "units": "",
            "value": null
        },
        "rules": [],
        "size": "med",
        "source": {
            "value": "Pathfinder Secrets of Magic"
        },
        "spell": {
            "data": null,
            "heightenedLevel": null
        },
        "stackGroup": null,
        "target": {
            "type": "",
            "units": "",
            "value": null
        },
        "traits": {
            "custom": "",
            "rarity": "common",
            "value": [
                "catalyst",
                "consumable",
                "magical"
            ]
        },
        "usage": {
            "value": "held-in-one-hand"
        },
        "uses": {
            "autoDestroy": true,
            "autoUse": true,
            "max": 0,
            "per": null,
            "value": 0
        },
        "weight": {
            "value": "L"
        }
    },
    "flags": {},
    "img": "systems/pf2e/icons/default-icons/consumable.svg",
    "name": "Thunderbird Tuft (Major)",
    "type": "consumable"
}
