{
    "_id": "VJs47kgqu1ziZBRU",
    "data": {
        "activation": {
            "condition": "",
            "cost": 0,
            "type": ""
        },
        "autoDestroy": {
            "_deprecated": true,
            "value": true
        },
        "autoUse": {
            "_deprecated": true,
            "value": true
        },
        "baseItem": null,
        "charges": {
            "_deprecated": true,
            "max": 0,
            "value": 0
        },
        "consumableType": {
            "value": "potion"
        },
        "consume": {
            "_deprecated": true,
            "value": ""
        },
        "containerId": null,
        "description": {
            "value": "<p><strong>Activate</strong> <span class=\"pf2-icon\">1</span> Interact</p>\n<p>The liquid in this test tube is as clear as water. You can drop in a sample collected from the environment or a creature to reveal what kind of undead has been in contact with the sample in the past 24 hours. The water changes color, as seen on the table, or remains clear if it doesn't detect any traces of undead. The higher the undead's level or number of undead in contact with the sample, the more intense the color. This isn't a foolproof way to identify a disguised creature as undead, since any contact with undead causes the sample to change colors. If an undead has been disguising its undead nature or its presence in an area, the GM can roll a secret DC 20 Deception or Stealth check for the creature when the dye is activated. On a success, the creature avoided leaving traces. This can't protect the undead from discovery if it actively uses its undead abilities on an area or creature, though it can attempt to remove any evidence with activities like Cover Tracks and Conceal an Object.</p>\n<hr />\n<table style=\"width: 100%; background-color: #ede3c7; height: 187px;\" border=\"1\">\n<thead>\n<tr style=\"height: 17px; background-color: #5d0000; border-color: #000000; border-style: solid;\">\n<td style=\"width: 16.1949%; height: 17px;\"><strong>Color</strong></td>\n<td style=\"width: 83.8051%; height: 17px;\"><strong>Undead Detected</strong></td>\n</tr>\n</thead>\n<tbody>\n<tr style=\"height: 17px;\">\n<td style=\"width: 16.1949%; height: 17px;\">Red</td>\n<td style=\"width: 83.8051%; height: 17px;\">Vampire</td>\n</tr>\n<tr style=\"height: 17px;\">\n<td style=\"width: 16.1949%; height: 17px;\">Orange</td>\n<td style=\"width: 83.8051%; height: 17px;\">Wight</td>\n</tr>\n<tr style=\"height: 17px;\">\n<td style=\"width: 16.1949%; height: 17px;\">Yellow</td>\n<td style=\"width: 83.8051%; height: 17px;\">Mummy</td>\n</tr>\n<tr style=\"height: 17px;\">\n<td style=\"width: 16.1949%; height: 17px;\">Green</td>\n<td style=\"width: 83.8051%; height: 17px;\">Ghost</td>\n</tr>\n<tr style=\"height: 17px;\">\n<td style=\"width: 16.1949%; height: 17px;\">Blue</td>\n<td style=\"width: 83.8051%; height: 17px;\">Ghoul</td>\n</tr>\n<tr style=\"height: 17px;\">\n<td style=\"width: 16.1949%; height: 17px;\">Indigo</td>\n<td style=\"width: 83.8051%; height: 17px;\">Wraith</td>\n</tr>\n<tr style=\"height: 17px;\">\n<td style=\"width: 16.1949%; height: 17px;\">Purple</td>\n<td style=\"width: 83.8051%; height: 17px;\">Shadow</td>\n</tr>\n<tr style=\"height: 17px;\">\n<td style=\"width: 16.1949%; height: 17px;\">Gray</td>\n<td style=\"width: 83.8051%; height: 17px;\">Mindless undead such as a zombie or skeleton</td>\n</tr>\n<tr style=\"height: 17px;\">\n<td style=\"width: 16.1949%; height: 17px;\">Black</td>\n<td style=\"width: 83.8051%; height: 17px;\">Lich</td>\n</tr>\n<tr style=\"height: 17px;\">\n<td style=\"width: 16.1949%; height: 17px;\">White</td>\n<td style=\"width: 83.8051%; height: 17px;\">Other Undead</td>\n</tr>\n</tbody>\n</table>"
        },
        "duration": {
            "units": "",
            "value": null
        },
        "equippedBulk": {
            "value": ""
        },
        "hardness": 0,
        "hp": {
            "brokenThreshold": 0,
            "max": 0,
            "value": 0
        },
        "level": {
            "value": 4
        },
        "negateBulk": {
            "value": "0"
        },
        "preciousMaterial": {
            "value": null
        },
        "preciousMaterialGrade": {
            "value": null
        },
        "price": {
            "value": {
                "gp": 20
            }
        },
        "quantity": 1,
        "range": {
            "long": null,
            "units": "",
            "value": null
        },
        "rules": [],
        "size": "med",
        "source": {
            "value": "Pathfinder Book of the Dead"
        },
        "spell": {
            "data": null,
            "heightenedLevel": null
        },
        "stackGroup": "",
        "target": {
            "type": "",
            "units": "",
            "value": null
        },
        "traits": {
            "custom": "",
            "rarity": "uncommon",
            "value": [
                "alchemical",
                "consumable"
            ]
        },
        "usage": {
            "value": "held-in-one-hand"
        },
        "uses": {
            "autoDestroy": true,
            "autoUse": true,
            "max": 0,
            "per": null,
            "value": 0
        },
        "weight": {
            "value": "L"
        }
    },
    "flags": {},
    "img": "systems/pf2e/icons/default-icons/consumable.svg",
    "name": "Undead Detection Dye",
    "type": "consumable"
}
