{
    "_id": "3Lexs7KnhbV0HgFh",
    "data": {
        "baseItem": null,
        "containerId": null,
        "description": {
            "value": "<p>This wand features a carved dragon's head at its top and a polished metal sphere set in its midsection.</p>\n<p><strong>Activate</strong> Cast a Spell</p>\n<p><strong>Frequency</strong> Once per day, plus overcharge</p>\n<p><strong>Effect</strong> You cast <em>@Compendium[pf2e.spells-srd.Magic Missile]{Magic Missile}</em> at 3rd level.</p>\n<p>After you cast the spell, an additional missile or missiles are released from the wand at the start of each of your turns, as though you cast the 1-action version of magic missile. Choose targets each time. This lasts for 1 minute, until you're no longer wielding the wand, or until you try to activate the wand again.</p>\n<p><strong>Craft Requirements</strong> Supply a casting of magic missile of the appropriate level.</p>"
        },
        "equippedBulk": {
            "value": ""
        },
        "hardness": 0,
        "hp": {
            "brokenThreshold": 0,
            "max": 0,
            "value": 0
        },
        "level": {
            "value": 9
        },
        "negateBulk": {
            "value": "0"
        },
        "preciousMaterial": {
            "value": ""
        },
        "preciousMaterialGrade": {
            "value": ""
        },
        "price": {
            "value": {
                "gp": 700
            }
        },
        "quantity": 1,
        "rules": [],
        "size": "med",
        "source": {
            "value": "Pathfinder Core Rulebook"
        },
        "stackGroup": null,
        "traits": {
            "custom": "",
            "rarity": "common",
            "value": [
                "evocation",
                "force",
                "magical",
                "wand"
            ]
        },
        "usage": {
            "value": "held-in-one-hand"
        },
        "weight": {
            "value": "L"
        }
    },
    "flags": {},
    "img": "systems/pf2e/icons/equipment/wands/specialty-wands/wand-of-manifold-missiles.webp",
    "name": "Wand of Manifold Missiles (3rd-Level Spell)",
    "type": "equipment"
}
