{
    "_id": "oyjDCHscjcLhzall",
    "data": {
        "baseItem": null,
        "containerId": null,
        "description": {
            "value": "<p>This wand is made of two copper plates separated by a ceramic center.</p>\n<p><strong>Activate</strong> Cast a spell</p>\n<p><strong>Frequency</strong> Once per day, plus overcharge</p>\n<p><strong>Effect</strong> You cast <em>@Compendium[pf2e.spells-srd.Lightning Bolt]{Lightning Bolt}</em> at 4th level, but the spell's area is twice as wide (two adjacent and parallel @Template[type:line|distance:120|width:10]{120-foot lines}) and creatures that fail their save are @Compendium[pf2e.conditionitems.Flat-Footed]{Flat-Footed} for 1 round.</p>\n<p><strong>Craft Requirements</strong> Supply a casting of lightning bolt at 4th-level.</p>"
        },
        "equippedBulk": {
            "value": ""
        },
        "hardness": 0,
        "hp": {
            "brokenThreshold": 0,
            "max": 0,
            "value": 0
        },
        "level": {
            "value": 10
        },
        "negateBulk": {
            "value": "0"
        },
        "preciousMaterial": {
            "value": ""
        },
        "preciousMaterialGrade": {
            "value": ""
        },
        "price": {
            "value": {
                "gp": 1000
            }
        },
        "quantity": 1,
        "rules": [],
        "size": "med",
        "source": {
            "value": "Pathfinder Advanced Player's Guide"
        },
        "stackGroup": "",
        "traits": {
            "custom": "",
            "rarity": "common",
            "value": [
                "electricity",
                "evocation",
                "magical",
                "wand"
            ]
        },
        "usage": {
            "value": "held-in-one-hand"
        },
        "weight": {
            "value": "L"
        }
    },
    "flags": {},
    "img": "systems/pf2e/icons/equipment/wands/specialty-wands/wand-of-crackling-lightning.webp",
    "name": "Wand of Crackling Lightning (4th-Level Spell)",
    "type": "equipment"
}
