{
    "_id": "QgNp6uyKuV2PiNbf",
    "data": {
        "baseItem": null,
        "containerId": "null",
        "description": {
            "value": "<p>This red maple wand carved into a tongue of flame feels warm in your hand.</p>\n<p><strong>Activate</strong> @Compendium[pf2e.actionspf2e.Cast a Spell]{Cast a Spell}</p>\n<p><strong>Frequency</strong> once per day, plus overcharge</p>\n<p><strong>Effect</strong> You cast <em>@Compendium[pf2e.spells-srd.Faerie Fire]{Faerie Fire}</em>. For the duration of the spell, you can use the limning flames as a source for your magic. Creatures affected by your <em>faerie fire</em> must succeed at a Will save against your spell DC or take a - 2 status penalty to their Will saves against enchantment and illusions spells as long as they are affected by <em>faerie fire</em>. You can cast an enchantment or illusion spell on such a creature up to a distance twice the spell's normal range. If the spell has a range of touch, or doesn't have a range, it is unaffected by the increase in range from the <em>faerie fire</em>.</p>\n<p>@Compendium[pf2e.equipment-effects.Effect: Wand of Fey Flames]{Effect: Wand of Fey Flames}</p>\n<hr />\n<p><strong>Craft Requirements</strong> Supply a casting of faerie fire.</p>"
        },
        "equippedBulk": {
            "value": ""
        },
        "hardness": 0,
        "hp": {
            "brokenThreshold": 0,
            "max": 0,
            "value": 0
        },
        "level": {
            "value": 7
        },
        "negateBulk": {
            "value": "0"
        },
        "preciousMaterial": {
            "value": null
        },
        "preciousMaterialGrade": {
            "value": null
        },
        "price": {
            "value": {
                "gp": 360
            }
        },
        "quantity": 1,
        "rules": [],
        "size": "med",
        "source": {
            "value": "Pathfinder Lost Omens: The Grand Bazaar"
        },
        "stackGroup": null,
        "traits": {
            "custom": "",
            "rarity": "uncommon",
            "value": [
                "evocation",
                "light",
                "magical",
                "wand"
            ]
        },
        "usage": {
            "value": "held-in-one-hand"
        },
        "weight": {
            "value": "L"
        }
    },
    "flags": {},
    "img": "systems/pf2e/icons/equipment/wands/specialty-wands/wand-of-fey-flames.webp",
    "name": "Wand of Fey Flames",
    "type": "equipment"
}
