{
    "_id": "kzfRjSrq4JNZlc32",
    "data": {
        "activation": {
            "condition": "",
            "cost": 0,
            "type": ""
        },
        "autoDestroy": {
            "_deprecated": true,
            "value": true
        },
        "autoUse": {
            "_deprecated": true,
            "value": true
        },
        "baseItem": null,
        "charges": {
            "_deprecated": true,
            "max": 1,
            "value": 1
        },
        "consumableType": {
            "value": "talisman"
        },
        "consume": {
            "_deprecated": true,
            "value": ""
        },
        "containerId": null,
        "description": {
            "value": "<p><strong>Usage</strong> affixed to armor or to an outfit if a character has no armor</p>\n<p><strong>Activate</strong> <span class=\"pf2-icon\">2</span> Envision</p>\n<p><strong>Requirements</strong> You are an expert in Stealth</p>\n<hr />\n<p>This teardrop-shaped gemstone has triangular facets and looks suitable for fancy attire, although close inspection shows that it's hollow. When it's activated, you can instantly impart up to 1 minute of speech (roughly 150 words) telepathically to any creatures you choose within 100 feet. You can impart this instantaneous telepathic message to creatures that you perceive and creatures @Compendium[pf2e.conditionitems.Hidden]{Hidden} to you, but you can't do so to @Compendium[pf2e.conditionitems.Undetected]{Undetected} creatures. Once used, the whisper briolette becomes unusable and subtly vanishes within the next few minutes, rather than crumbling to dust.</p>"
        },
        "duration": {
            "units": "",
            "value": null
        },
        "equippedBulk": {
            "value": ""
        },
        "hardness": 0,
        "hp": {
            "brokenThreshold": 0,
            "max": 0,
            "value": 0
        },
        "level": {
            "value": 7
        },
        "negateBulk": {
            "value": "0"
        },
        "preciousMaterial": {
            "value": ""
        },
        "preciousMaterialGrade": {
            "value": ""
        },
        "price": {
            "value": {
                "gp": 55
            }
        },
        "quantity": 1,
        "range": {
            "long": null,
            "units": "",
            "value": null
        },
        "rules": [],
        "size": "med",
        "source": {
            "value": "Pathfinder #160: Assault on Hunting Lodge Seven"
        },
        "spell": {
            "data": null,
            "heightenedLevel": null
        },
        "stackGroup": null,
        "target": {
            "type": "",
            "units": "",
            "value": null
        },
        "traits": {
            "custom": "",
            "rarity": "uncommon",
            "value": [
                "consumable",
                "divination",
                "magical",
                "mental",
                "talisman"
            ]
        },
        "usage": {
            "value": "affixed-to-armor"
        },
        "uses": {
            "autoDestroy": true,
            "autoUse": true,
            "max": 0,
            "per": null,
            "value": 0
        },
        "weight": {
            "value": "-"
        }
    },
    "flags": {},
    "img": "systems/pf2e/icons/equipment/consumables/talismans/whisper-briolette.webp",
    "name": "Whisper Briolette",
    "type": "consumable"
}
