{
    "_id": "Ztb4xv4UGZbF32TE",
    "data": {
        "baseItem": null,
        "containerId": null,
        "description": {
            "value": "<p>This rune is a swirling glyph on the front of the armor. A large pair of transparent, ephemeral wings floats out from the back of the armor.</p>\n<p><strong>Activate</strong> <span class=\"pf2-icon\">2</span>command, Interact</p>\n<p><strong>Effect</strong> You trace the rune on the front of the breastplate and the armor's ephemeral wings grow tangible, granting you a fly Speed of 25 feet or your land Speed, whichever is slower. This effect lasts until you Dismiss it. Once the effect ends, the wings return to their ephemeral form.</p>"
        },
        "equippedBulk": {
            "value": ""
        },
        "hardness": 0,
        "hp": {
            "brokenThreshold": 0,
            "max": 0,
            "value": 0
        },
        "level": {
            "value": 19
        },
        "negateBulk": {
            "value": "0"
        },
        "preciousMaterial": {
            "value": ""
        },
        "preciousMaterialGrade": {
            "value": ""
        },
        "price": {
            "value": {
                "gp": 35000
            }
        },
        "quantity": 1,
        "rules": [],
        "size": "med",
        "source": {
            "value": "Pathfinder Advanced Player's Guide"
        },
        "stackGroup": null,
        "traits": {
            "custom": "",
            "rarity": "common",
            "value": [
                "magical",
                "transmutation"
            ]
        },
        "usage": {
            "value": "etched-onto-armor"
        },
        "weight": {
            "value": "-"
        }
    },
    "flags": {},
    "img": "systems/pf2e/icons/equipment/runes/armor-property-runes/armor-property-runes.webp",
    "name": "Winged (Greater)",
    "type": "equipment"
}
