{
    "_id": "hGreHAX3WuNwhaHU",
    "data": {
        "baseItem": null,
        "containerId": "null",
        "description": {
            "value": "<p>A wizard's tower is a tiny gaming piece carved into the form of a stone tower.</p>\n<hr />\n<p><strong>Activate</strong> (10 minutes) command, envision, Interact</p>\n<p><strong>Effect</strong> The gaming piece transforms into a fully furnished stone tower 80 feet high and 30 feet in diameter. The tower is topped by a peaked wooden roof, with a wooden door on the second floor accessed by wooden stairs on the tower's exterior. A spiral staircase in the center of the tower connects its 6 floors. The bottom floor is empty, ideal for storage, and the second floor is a great hall for audiences and guests. The third and fourth floors are divided into servants quarters and guest rooms, while the top two floors feature luxurious personal chambers and an alchemy lab. You can revert the tower back to its original state by climbing to the top floor and using an action to speak a command word.</p>"
        },
        "equippedBulk": {
            "value": ""
        },
        "hardness": 0,
        "hp": {
            "brokenThreshold": 0,
            "max": 0,
            "value": 0
        },
        "level": {
            "value": 13
        },
        "negateBulk": {
            "value": "0"
        },
        "preciousMaterial": {
            "value": null
        },
        "preciousMaterialGrade": {
            "value": null
        },
        "price": {
            "value": {
                "gp": 2500
            }
        },
        "quantity": 1,
        "rules": [],
        "size": "med",
        "source": {
            "value": "Pathfinder Lost Omens: The Grand Bazaar"
        },
        "stackGroup": null,
        "traits": {
            "custom": "",
            "rarity": "uncommon",
            "value": [
                "conjuration",
                "magical",
                "structure"
            ]
        },
        "usage": {
            "value": "held-in-one-hand"
        },
        "weight": {
            "value": "-"
        }
    },
    "flags": {},
    "img": "systems/pf2e/icons/default-icons/equipment.svg",
    "name": "Wizard's Tower",
    "type": "equipment"
}
