{
    "_id": "4vnF6BFM4Xg4Eg0k",
    "data": {
        "badge": null,
        "description": {
            "value": "<p>Improved reflexes, giving a +1 item bonus to Reflex saves for 8 hours</p>"
        },
        "duration": {
            "expiry": "turn-start",
            "sustained": false,
            "unit": "hours",
            "value": 8
        },
        "level": {
            "value": 1
        },
        "rules": [
            {
                "key": "FlatModifier",
                "selector": "reflex",
                "type": "item",
                "value": 1
            }
        ],
        "source": {
            "value": ""
        },
        "start": {
            "initiative": null,
            "value": 0
        },
        "target": null,
        "tokenIcon": {
            "show": true
        },
        "traits": {
            "custom": "",
            "rarity": "common",
            "value": []
        }
    },
    "flags": {},
    "img": "systems/pf2e/icons/spells/fleet-step.webp",
    "name": "Effect: Improved reflexes",
    "type": "effect"
}
