{
    "_id": "WQjFPBQPDu6vyJny",
    "data": {
        "actionCategory": {
            "value": "defensive"
        },
        "actionType": {
            "value": "action"
        },
        "actions": {
            "value": 1
        },
        "description": {
            "value": "<p>The ghost loses the incorporeal trait, temporarily increasing its Strength modifier to equal its Charisma modifier. The ghost loses its immunity to precision damage and its resistance to all damage while corporeal.</p>\n<p>The ghost can resume being incorporeal by using this action again.</p>"
        },
        "requirements": {
            "value": ""
        },
        "rules": [],
        "source": {
            "value": "Pathfinder #165: Eyes of Empty Death"
        },
        "traits": {
            "custom": "",
            "rarity": "common",
            "value": [
                "concentrate"
            ]
        },
        "trigger": {
            "value": ""
        }
    },
    "flags": {},
    "img": "systems/pf2e/icons/actions/OneAction.webp",
    "name": "(Ghost) Corporeal Manifestation",
    "type": "action"
}
