{
    "_id": "OD3VPUalSKDTYFmF",
    "data": {
        "actionCategory": {
            "value": "offensive"
        },
        "actionType": {
            "value": "passive"
        },
        "actions": {
            "value": null
        },
        "description": {
            "value": "<p>The barghest has malformed wings extending from its back. It gains a fly Speed of 25 feet.</p>"
        },
        "requirements": {
            "value": ""
        },
        "rules": [
            {
                "key": "BaseSpeed",
                "selector": "fly",
                "value": 25
            }
        ],
        "source": {
            "value": "Pathfinder Bestiary"
        },
        "traits": {
            "custom": "",
            "rarity": "common",
            "value": []
        },
        "trigger": {
            "value": ""
        }
    },
    "flags": {},
    "img": "systems/pf2e/icons/actions/Passive.webp",
    "name": "(Greater Barghest) Mutation - Wings",
    "type": "action"
}
