{
    "_id": "WtRxZEPH963RkUCj",
    "data": {
        "actionCategory": {
            "value": "offensive"
        },
        "actionType": {
            "value": "action"
        },
        "actions": {
            "value": 3
        },
        "description": {
            "value": "<p><strong>Requirements</strong> Kuworsys is Reared Back</p>\n<p><strong>Effect</strong> Kuworsys Strikes each creature within its reach, to a maximum of four Strikes (one for each available limb). It can make limb Strikes or weapon Strikes, including with ranged weapons, but can use each weapon only once. Each attack counts toward Kuworsys's multiple attack penalty, but the multiple attack penalty doesn't increase until after it makes all the attacks.</p>"
        },
        "requirements": {
            "value": ""
        },
        "rules": [],
        "source": {
            "value": "Pathfinder Lost Omens: Monsters of Myth"
        },
        "traits": {
            "custom": "",
            "rarity": "common",
            "value": []
        },
        "trigger": {
            "value": ""
        }
    },
    "flags": {},
    "img": "systems/pf2e/icons/actions/ThreeActions.webp",
    "name": "(Kuworsys) Rain Blows",
    "type": "action"
}
