{
    "_id": "OeLdzrhIrDOvsm3E",
    "data": {
        "actionCategory": {
            "value": "offensive"
        },
        "actionType": {
            "value": "passive"
        },
        "actions": {
            "value": null
        },
        "deathNote": false,
        "description": {
            "value": "<p>The lich's touch is suffused with evil, dealing evil damage instead of negative. On a critical hit, the target also takes persistent evil damage equal to half the lich's level.</p>"
        },
        "requirements": {
            "value": ""
        },
        "rules": [],
        "source": {
            "value": "Pathfinder Book of the Dead"
        },
        "traits": {
            "custom": "",
            "rarity": "common",
            "value": []
        },
        "trigger": {
            "value": ""
        }
    },
    "flags": {},
    "img": "systems/pf2e/icons/actions/Passive.webp",
    "name": "(Lich) Unholy Touch",
    "type": "action"
}
