{
    "_id": "RQ9NaIerG95wkhjl",
    "data": {
        "actionCategory": {
            "value": "offensive"
        },
        "actionType": {
            "value": "action"
        },
        "actions": {
            "value": 2
        },
        "description": {
            "value": "<p><strong>Requirements</strong> A creature in Ulgrem-Axaan's reach is prone, and Ulgrem-Axaan isn't currently grabbing another creature;</p>\n<p><strong>Effect</strong> Ulgrem-Axaan attempts a jaws Strike against the creature. If successful, Ulgrem-Axaan immediately @Compendium[pf2e.conditionitems.Grabbed]{Grabs} the creature, and the creature takes an additional [[/r {2d10}[bludgeoning]]]{2d10 bludgeoning} damage.</p>"
        },
        "requirements": {
            "value": ""
        },
        "rules": [],
        "source": {
            "value": "Pathfinder Lost Omens: Monsters of Myth"
        },
        "traits": {
            "custom": "",
            "rarity": "common",
            "value": [
                "attack"
            ]
        },
        "trigger": {
            "value": ""
        }
    },
    "flags": {},
    "img": "systems/pf2e/icons/actions/TwoActions.webp",
    "name": "(Ulgrem-Axaan) Fallen Victim",
    "type": "action"
}
