{
    "_id": "zwgUxJBNFqWOuaBX",
    "data": {
        "actionCategory": {
            "value": "offensive"
        },
        "actionType": {
            "value": "action"
        },
        "actions": {
            "value": 1
        },
        "description": {
            "value": "<p>The vrykolakas can cast <em>@Compendium[pf2e.spells-srd.Dominate]{Dominate}</em> at will as a divine innate spell that affects only animals. The save DC is a high DC for the vrykolakas's level, and a creature that succeeds is immune to that vrykolakas's Dominate Animal for 24 hours. Destroying the vrykolakas ends the effect, but reducing it to 0 HP does not.</p>\n<p>A dominated animal takes a -4 circumstance penalty to saving throws against the vrykolakas's Feral Possession.</p>"
        },
        "requirements": {
            "value": ""
        },
        "rules": [],
        "source": {
            "value": "Pathfinder Bestiary 2"
        },
        "traits": {
            "custom": "",
            "rarity": "common",
            "value": [
                "divine",
                "enchantment",
                "incapacitation",
                "mental"
            ]
        },
        "trigger": {
            "value": ""
        }
    },
    "flags": {},
    "img": "systems/pf2e/icons/actions/OneAction.webp",
    "name": "(Vampire, Vrykolakas Master) Dominate Animal",
    "type": "action"
}
