{
    "_id": "uYDzWM5ji52r4mSD",
    "description": "This peculiar rod is strange and unpredictable. Each time it is activated, it produces one of a variety of effects at random.",
    "displayRoll": true,
    "flags": {},
    "formula": "1d100",
    "img": "icons/svg/d20-grey.svg",
    "name": "Rod of Wonder",
    "permission": {
        "default": 0
    },
    "replacement": true,
    "results": [
        {
            "_id": "q4F7v0ZVHoO0xw9f",
            "drawn": false,
            "flags": {},
            "img": "icons/svg/d20-black.svg",
            "range": [
                1,
                3
            ],
            "resultId": "",
            "text": "Leaves grow from the target; they last 24 hours",
            "type": 0,
            "weight": 3
        },
        {
            "_id": "ZqeeL4ilbvDrOb1X",
            "collection": "pf2e.spells-srd",
            "drawn": false,
            "flags": {},
            "img": "systems/pf2e/icons/spells/darkness.webp",
            "range": [
                4,
                8
            ],
            "resultId": "4GE2ZdODgIQtg51c",
            "text": "Darkness",
            "type": 2,
            "weight": 5
        },
        {
            "_id": "8PX1PKHlRBxFGRc7",
            "drawn": false,
            "flags": {},
            "img": "icons/svg/d20-black.svg",
            "range": [
                9,
                9
            ],
            "resultId": "",
            "text": "Summon a @Compendium[pf2e.pathfinder-bestiary.Giant Stag Beetle]{Giant Stag Beetle} (5th-level <em>@Compendium[pf2e.spells-srd.Summon Animal]{Summon Animal}</em>)",
            "type": 0,
            "weight": 1
        },
        {
            "_id": "LARqs6OQ24TOJk0T",
            "drawn": false,
            "flags": {},
            "img": "icons/svg/d20-black.svg",
            "range": [
                10,
                13
            ],
            "resultId": "",
            "text": "A stream of 600 large and colorful butterflies pours forth, fluttering in a 20-foot burst for 2 rounds; creatures are @Compendium[pf2e.conditionitems.Blinded]{Blinded} while in the cloud of butterflies",
            "type": 0,
            "weight": 4
        },
        {
            "_id": "d72F3TOLhyG5DVOQ",
            "drawn": false,
            "flags": {},
            "img": "icons/svg/d20-black.svg",
            "range": [
                14,
                15
            ],
            "resultId": "",
            "text": "All the target's weapons animate with the effects of the @Compendium[pf2e.equipment-srd.Dancing]{Dancing} rune",
            "type": 0,
            "weight": 2
        },
        {
            "_id": "JJTxJP6hFbdz6taZ",
            "collection": "pf2e.spells-srd",
            "drawn": false,
            "flags": {},
            "img": "systems/pf2e/icons/spells/lightning-bolt.webp",
            "range": [
                16,
                25
            ],
            "resultId": "9AAkVUCwF6WVNNY2",
            "text": "Lightning Bolt",
            "type": 2,
            "weight": 10
        },
        {
            "_id": "IA8k3V8sWkYL8eT4",
            "drawn": false,
            "flags": {},
            "img": "icons/svg/d20-black.svg",
            "range": [
                26,
                29
            ],
            "resultId": "",
            "text": "Grass grows in a 60-foot cone in front of the rod, or existing grass grows at 10 × normal rate",
            "type": 0,
            "weight": 4
        },
        {
            "_id": "HcgfbOwKeD2WgPcB",
            "drawn": false,
            "flags": {},
            "img": "icons/svg/d20-black.svg",
            "range": [
                30,
                30
            ],
            "resultId": "",
            "text": "Target turns blue, green, or purple with an unlimited duration",
            "type": 0,
            "weight": 1
        },
        {
            "_id": "Q5FwE89qfiow0PHP",
            "drawn": false,
            "flags": {},
            "img": "icons/svg/d20-black.svg",
            "range": [
                31,
                31
            ],
            "resultId": "",
            "text": "Summon an @Compendium[pf2e.pathfinder-bestiary.Elephant]{Elephant} (6th-level <em>@Compendium[pf2e.spells-srd.Summon Animal]{Summon Animal}</em>)",
            "type": 0,
            "weight": 1
        },
        {
            "_id": "n0o0vmsCnsHDk05W",
            "drawn": false,
            "flags": {},
            "img": "icons/svg/d20-black.svg",
            "range": [
                32,
                34
            ],
            "resultId": "",
            "text": "Heavy rain falls in a 60-foot radius around you for 1 round",
            "type": 0,
            "weight": 3
        },
        {
            "_id": "FpMylshiahGNycao",
            "collection": "pf2e.spells-srd",
            "drawn": false,
            "flags": {},
            "img": "systems/pf2e/icons/spells/stinking-cloud.webp",
            "range": [
                35,
                38
            ],
            "resultId": "GKpEcy9WId6NJvtx",
            "text": "Stinking Cloud",
            "type": 2,
            "weight": 4
        },
        {
            "_id": "VAPCJ9I6CEbuq3AR",
            "drawn": false,
            "flags": {},
            "img": "icons/svg/d20-black.svg",
            "range": [
                39,
                39
            ],
            "resultId": "",
            "text": "Summon an ineffective mouse (1st-level summon animal)",
            "type": 0,
            "weight": 1
        },
        {
            "_id": "zo0UxWq1d4Ma1zMy",
            "drawn": false,
            "flags": {},
            "img": "icons/svg/d20-black.svg",
            "range": [
                40,
                42
            ],
            "resultId": "",
            "text": "<em>@Compendium[pf2e.spells-srd.Vibrant Pattern]{Vibrant Pattern}</em>, with a 1-round duration",
            "type": 0,
            "weight": 3
        },
        {
            "_id": "qwIR0f6JfPp2opLT",
            "drawn": false,
            "flags": {},
            "img": "icons/svg/d20-black.svg",
            "range": [
                43,
                44
            ],
            "resultId": "",
            "text": "The rod casts <em>@Compendium[pf2e.spells-srd.Mirror Image]{Mirror Image}</em> on you",
            "type": 0,
            "weight": 2
        },
        {
            "_id": "FrAHYp1P1WoqMMBR",
            "collection": "pf2e.spells-srd",
            "drawn": false,
            "flags": {},
            "img": "systems/pf2e/icons/spells/gust-of-wind.webp",
            "range": [
                45,
                46
            ],
            "resultId": "g8QqHpv2CWDwmIm1",
            "text": "Gust of Wind",
            "type": 2,
            "weight": 2
        },
        {
            "_id": "OzVHSIVEw4jhjPXi",
            "drawn": false,
            "flags": {},
            "img": "icons/svg/d20-black.svg",
            "range": [
                47,
                48
            ],
            "resultId": "",
            "text": "The non-living, unattended object closest to the target (up to 30 cubic feet in size) turns ethereal for an unlimited duration",
            "type": 0,
            "weight": 2
        },
        {
            "_id": "hefUyK1YbmyR9VFS",
            "collection": "pf2e.spells-srd",
            "drawn": false,
            "flags": {},
            "img": "systems/pf2e/icons/spells/slow.webp",
            "range": [
                49,
                53
            ],
            "resultId": "WsUwpfmhKrKwoIe3",
            "text": "Slow",
            "type": 2,
            "weight": 5
        },
        {
            "_id": "qfBnw6xJf1g9RwiE",
            "drawn": false,
            "flags": {},
            "img": "icons/svg/d20-black.svg",
            "range": [
                54,
                54
            ],
            "resultId": "",
            "text": "You turn blue, green, or purple with an unlimited duration",
            "type": 0,
            "weight": 1
        },
        {
            "_id": "42NSRZJajfERGYQW",
            "drawn": false,
            "flags": {},
            "img": "icons/svg/d20-black.svg",
            "range": [
                55,
                59
            ],
            "resultId": "",
            "text": "The rod casts <em>@Compendium[pf2e.spells-srd.Pest Form]{Pest Form}</em> on you, lasting [[/br 1d4 #rounds]]{1d4 rounds}",
            "type": 0,
            "weight": 5
        },
        {
            "_id": "wFpnsLsgfuInSk5W",
            "drawn": false,
            "flags": {},
            "img": "icons/svg/d20-black.svg",
            "range": [
                60,
                61
            ],
            "resultId": "",
            "text": "[[/r 1d4*10 #gems]]{1d4*10 gems}, each worth 1 sp, shoot from the rod, dealing [[/r {1}[piercing]]]{1 piercing damage} to each creature in a 15-foot cone",
            "type": 0,
            "weight": 2
        },
        {
            "_id": "BBiH8xXbKlzgZXlF",
            "drawn": false,
            "flags": {},
            "img": "icons/svg/d20-black.svg",
            "range": [
                62,
                62
            ],
            "resultId": "",
            "text": "<em>@Compendium[pf2e.spells-srd.Sleep]{Sleep}</em>, with a 100-foot burst",
            "type": 0,
            "weight": 1
        },
        {
            "_id": "UyGxnh34j6FblKpH",
            "collection": "pf2e.spells-srd",
            "drawn": false,
            "flags": {},
            "img": "systems/pf2e/icons/spells/fireball.webp",
            "range": [
                63,
                72
            ],
            "resultId": "sxQZ6yqTn0czJxVd",
            "text": "Fireball",
            "type": 2,
            "weight": 10
        },
        {
            "_id": "QfG6RVlMY8va2fQu",
            "collection": "pf2e.spells-srd",
            "drawn": false,
            "flags": {},
            "img": "systems/pf2e/icons/spells/mind-reading.webp",
            "range": [
                73,
                77
            ],
            "resultId": "KHnhPHL4x1AQHfbC",
            "text": "Mind Reading",
            "type": 2,
            "weight": 5
        },
        {
            "_id": "IgFwwKbJzm4j3Uxo",
            "drawn": false,
            "flags": {},
            "img": "icons/svg/d20-black.svg",
            "range": [
                78,
                80
            ],
            "resultId": "",
            "text": "Roll again; the target believes you created the effect of the second roll",
            "type": 0,
            "weight": 3
        },
        {
            "_id": "14klwQxgyKUMY4NA",
            "collection": "pf2e.spells-srd",
            "drawn": false,
            "flags": {},
            "img": "systems/pf2e/icons/spells/enlarge.webp",
            "range": [
                81,
                84
            ],
            "resultId": "wzctak6BxOW8xvFV",
            "text": "Enlarge",
            "type": 2,
            "weight": 4
        },
        {
            "_id": "KrEtKsqnAA4zdiKW",
            "drawn": false,
            "flags": {},
            "img": "icons/svg/d20-black.svg",
            "range": [
                85,
                87
            ],
            "resultId": "",
            "text": "Target is coated in nectar, making it @Compendium[pf2e.conditionitems.Clumsy]{Clumsy 1} for 1 round",
            "type": 0,
            "weight": 3
        },
        {
            "_id": "Ln0SmnGcphB8rv13",
            "collection": "pf2e.spells-srd",
            "drawn": false,
            "flags": {},
            "img": "systems/pf2e/icons/spells/faerie-fire.webp",
            "range": [
                88,
                92
            ],
            "resultId": "HRb2doyaLtaoCfi3",
            "text": "Faerie Fire",
            "type": 2,
            "weight": 5
        },
        {
            "_id": "RpBcqsDVhPbDirUZ",
            "drawn": false,
            "flags": {},
            "img": "icons/svg/d20-black.svg",
            "range": [
                93,
                97
            ],
            "resultId": "",
            "text": "The rod casts <em>@Compendium[pf2e.spells-srd.Invisibility]{Invisibility}</em> on you",
            "type": 0,
            "weight": 5
        },
        {
            "_id": "o0vIrLyVBp8avBZi",
            "drawn": false,
            "flags": {},
            "img": "icons/svg/d20-black.svg",
            "range": [
                98,
                100
            ],
            "resultId": "",
            "text": "The rod casts <em>@Compendium[pf2e.spells-srd.Shrink]{Shrink}</em> on you, lasting 1 day",
            "type": 0,
            "weight": 3
        }
    ]
}
