{
    "_id": "t7QwdZ2m7AbuRWqd",
    "data": {
        "abilities": {
            "cha": {
                "mod": 3
            },
            "con": {
                "mod": 2
            },
            "dex": {
                "mod": 0
            },
            "int": {
                "mod": 0
            },
            "str": {
                "mod": 5
            },
            "wis": {
                "mod": 3
            }
        },
        "attributes": {
            "ac": {
                "details": "(26 with shield raised)",
                "value": 24
            },
            "allSaves": {
                "value": ""
            },
            "hp": {
                "details": "",
                "max": 95,
                "temp": 0,
                "value": 95
            },
            "initiative": {
                "ability": "perception"
            },
            "perception": {
                "value": 15
            },
            "speed": {
                "otherSpeeds": [],
                "value": "20"
            }
        },
        "details": {
            "alignment": {
                "value": "LN"
            },
            "blurb": "",
            "creatureType": "",
            "level": {
                "value": 6
            },
            "privateNotes": "",
            "publicNotes": "<p>The captain of the guard leads a troop of soldiers who serve as security forces for a powerful individual, most often a high-ranking noble or very rich merchant, though this stat block could also represent a lower-ranking captain of the guard for the leader of a nation. A formidable opponent in their own right, the captain of the guard skillfully employs their troops to protect the life and health of their ward.</p>\n<hr />\n<p>Larger societies rely on those with the authority and the ability to interpret and enforce laws. In good-aligned societies, these officials carry out their duties fairly. In neutral and evil ones, these officials can be harsh and cruel (with an altered alignment to reflect this), imposing severe punishments on those who can't pay for mercy.</p>",
            "source": {
                "value": "Pathfinder Gamemastery Guide"
            }
        },
        "resources": {},
        "saves": {
            "fortitude": {
                "saveDetail": "",
                "value": 14
            },
            "reflex": {
                "saveDetail": "",
                "value": 12
            },
            "will": {
                "saveDetail": "",
                "value": 15
            }
        },
        "traits": {
            "ci": [],
            "di": {
                "custom": "",
                "value": []
            },
            "dr": [],
            "dv": [],
            "languages": {
                "custom": "",
                "selected": [],
                "value": [
                    "common"
                ]
            },
            "rarity": "common",
            "senses": {
                "value": ""
            },
            "size": {
                "value": "med"
            },
            "traits": {
                "custom": "",
                "value": [
                    "human",
                    "humanoid"
                ]
            }
        }
    },
    "flags": {},
    "img": "systems/pf2e/icons/default-icons/npc.svg",
    "items": [
        {
            "_id": "l2i7aOSZ1o0FbLUP",
            "data": {
                "MAP": {
                    "value": ""
                },
                "baseItem": "crossbow",
                "bonus": {
                    "value": 0
                },
                "bonusDamage": {
                    "value": 0
                },
                "category": "simple",
                "containerId": null,
                "damage": {
                    "damageType": "piercing",
                    "dice": 1,
                    "die": "d8",
                    "value": ""
                },
                "description": {
                    "value": "<p>This ranged weapon has a bow-like assembly mounted on a handled frame called a tiller. The tiller has a mechanism to lock the bowstring in place, attached to a trigger mechanism that releases the tension and launches a bolt.</p>"
                },
                "equipped": {
                    "carryType": "worn",
                    "handsHeld": 2,
                    "invested": null
                },
                "equippedBulk": {
                    "value": ""
                },
                "group": "bow",
                "hardness": 0,
                "hp": {
                    "brokenThreshold": 0,
                    "max": 0,
                    "value": 0
                },
                "level": {
                    "value": 0
                },
                "negateBulk": {
                    "value": "0"
                },
                "potencyRune": {
                    "value": null
                },
                "preciousMaterial": {
                    "value": ""
                },
                "preciousMaterialGrade": {
                    "value": ""
                },
                "price": {
                    "value": {
                        "gp": 3
                    }
                },
                "property1": {
                    "critDamage": "",
                    "critDamageType": "",
                    "critDice": null,
                    "critDie": "",
                    "criticalConditionType": "",
                    "criticalConditionValue": null,
                    "damageType": "",
                    "dice": null,
                    "die": "",
                    "strikeConditionType": "",
                    "strikeConditionValue": null,
                    "value": ""
                },
                "propertyRune1": {
                    "value": ""
                },
                "propertyRune2": {
                    "value": ""
                },
                "propertyRune3": {
                    "value": ""
                },
                "propertyRune4": {
                    "value": ""
                },
                "quantity": 1,
                "range": 120,
                "reload": {
                    "value": "1"
                },
                "rules": [],
                "size": "med",
                "slug": "crossbow",
                "source": {
                    "value": "Pathfinder Core Rulebook"
                },
                "specific": {
                    "value": false
                },
                "splashDamage": {
                    "value": 0
                },
                "stackGroup": null,
                "strikingRune": {
                    "value": ""
                },
                "traits": {
                    "custom": "",
                    "rarity": "common",
                    "value": []
                },
                "usage": {
                    "value": "held-in-two-hands"
                },
                "weight": {
                    "value": "1"
                }
            },
            "flags": {
                "core": {
                    "sourceId": "Compendium.pf2e.equipment-srd.62nnVQvGhoVLLl2K"
                }
            },
            "img": "systems/pf2e/icons/equipment/weapons/crossbow.webp",
            "name": "Crossbow",
            "sort": 100000,
            "type": "weapon"
        },
        {
            "_id": "TCDCbHDHjLorCHLx",
            "data": {
                "MAP": {
                    "value": ""
                },
                "baseItem": "dagger",
                "bonus": {
                    "value": 0
                },
                "bonusDamage": {
                    "value": 0
                },
                "category": "simple",
                "containerId": null,
                "damage": {
                    "damageType": "piercing",
                    "dice": 1,
                    "die": "d4",
                    "value": ""
                },
                "description": {
                    "value": "<p>This small, bladed weapon is held in one hand and used to stab a creature in close combat. It can also be thrown.</p>"
                },
                "equipped": {
                    "carryType": "worn",
                    "handsHeld": 1,
                    "invested": null
                },
                "equippedBulk": {
                    "value": ""
                },
                "group": "knife",
                "hardness": 0,
                "hp": {
                    "brokenThreshold": 0,
                    "max": 0,
                    "value": 0
                },
                "level": {
                    "value": 0
                },
                "negateBulk": {
                    "value": "0"
                },
                "potencyRune": {
                    "value": 0
                },
                "preciousMaterial": {
                    "value": null
                },
                "preciousMaterialGrade": {
                    "value": null
                },
                "price": {
                    "value": {
                        "sp": 2
                    }
                },
                "property1": {
                    "critDamage": "",
                    "critDamageType": "",
                    "critDice": null,
                    "critDie": "",
                    "criticalConditionType": "",
                    "criticalConditionValue": null,
                    "damageType": "",
                    "dice": null,
                    "die": "",
                    "strikeConditionType": "",
                    "strikeConditionValue": null,
                    "value": ""
                },
                "propertyRune1": {
                    "value": null
                },
                "propertyRune2": {
                    "value": null
                },
                "propertyRune3": {
                    "value": null
                },
                "propertyRune4": {
                    "value": null
                },
                "quantity": 1,
                "range": null,
                "reload": {
                    "value": ""
                },
                "rules": [],
                "size": "med",
                "slug": "dagger",
                "source": {
                    "value": "Pathfinder Core Rulebook"
                },
                "specific": {
                    "value": false
                },
                "splashDamage": {
                    "value": 0
                },
                "stackGroup": null,
                "strikingRune": {
                    "value": ""
                },
                "traits": {
                    "custom": "",
                    "rarity": "common",
                    "value": [
                        "agile",
                        "finesse",
                        "thrown-10",
                        "versatile-s"
                    ]
                },
                "usage": {
                    "value": "held-in-one-hand"
                },
                "weight": {
                    "value": "L"
                }
            },
            "flags": {
                "core": {
                    "sourceId": "Compendium.pf2e.equipment-srd.rQWaJhI5Bko5x14Z"
                }
            },
            "img": "systems/pf2e/icons/equipment/weapons/dagger.webp",
            "name": "Dagger",
            "sort": 200000,
            "type": "weapon"
        },
        {
            "_id": "EYXqnzW1WGw1aWCa",
            "data": {
                "MAP": {
                    "value": ""
                },
                "baseItem": "longsword",
                "bonus": {
                    "value": 0
                },
                "bonusDamage": {
                    "value": 0
                },
                "category": "martial",
                "containerId": null,
                "damage": {
                    "damageType": "slashing",
                    "dice": 1,
                    "die": "d8",
                    "value": ""
                },
                "description": {
                    "value": "<p>Longswords can be one‑edged or two‑edged swords. Their blades are heavy and they're between 3 and 4 feet in length.</p>"
                },
                "equipped": {
                    "carryType": "worn",
                    "handsHeld": 1,
                    "invested": null
                },
                "equippedBulk": {
                    "value": ""
                },
                "group": "sword",
                "hardness": 0,
                "hp": {
                    "brokenThreshold": 0,
                    "max": 0,
                    "value": 0
                },
                "level": {
                    "value": 0
                },
                "negateBulk": {
                    "value": "0"
                },
                "potencyRune": {
                    "value": 1
                },
                "preciousMaterial": {
                    "value": null
                },
                "preciousMaterialGrade": {
                    "value": null
                },
                "price": {
                    "value": {
                        "gp": 1
                    }
                },
                "property1": {
                    "critDamage": "",
                    "critDamageType": "",
                    "critDice": null,
                    "critDie": "",
                    "criticalConditionType": "",
                    "criticalConditionValue": null,
                    "damageType": "",
                    "dice": null,
                    "die": "",
                    "strikeConditionType": "",
                    "strikeConditionValue": null,
                    "value": ""
                },
                "propertyRune1": {
                    "value": null
                },
                "propertyRune2": {
                    "value": null
                },
                "propertyRune3": {
                    "value": null
                },
                "propertyRune4": {
                    "value": null
                },
                "quantity": 1,
                "range": null,
                "reload": {
                    "value": ""
                },
                "rules": [],
                "size": "med",
                "slug": "longsword",
                "source": {
                    "value": "Pathfinder Core Rulebook"
                },
                "specific": {
                    "value": false
                },
                "splashDamage": {
                    "value": 0
                },
                "stackGroup": null,
                "strikingRune": {
                    "value": ""
                },
                "traits": {
                    "custom": "",
                    "rarity": "common",
                    "value": [
                        "versatile-p"
                    ]
                },
                "usage": {
                    "value": "held-in-one-hand"
                },
                "weight": {
                    "value": "1"
                }
            },
            "flags": {
                "core": {
                    "sourceId": "Compendium.pf2e.equipment-srd.LJdbVTOZog39EEbi"
                }
            },
            "img": "systems/pf2e/icons/equipment/weapons/longsword.webp",
            "name": "Longsword",
            "sort": 300000,
            "type": "weapon"
        },
        {
            "_id": "uynKYJoCB64MIHm3",
            "data": {
                "armor": {
                    "value": 6
                },
                "baseItem": "full-plate",
                "category": "heavy",
                "check": {
                    "value": -3
                },
                "containerId": null,
                "description": {
                    "value": "<p>Plate mail consists of interlocking plates that encase nearly the entire body in a carapace of steel. It is costly and heavy, and the wearer often requires help to don it correctly, but it provides some of the best defense armor can supply. A suit of this armor comes with an undercoat of padded armor and a pair of gauntlets.</p>"
                },
                "dex": {
                    "value": 0
                },
                "equipped": {
                    "carryType": "worn",
                    "inSlot": true,
                    "invested": null
                },
                "equippedBulk": {
                    "value": "4"
                },
                "group": "plate",
                "hardness": 0,
                "hp": {
                    "brokenThreshold": 0,
                    "max": 0,
                    "value": 0
                },
                "level": {
                    "value": 2
                },
                "negateBulk": {
                    "value": "0"
                },
                "potency": {},
                "potencyRune": {
                    "value": 0
                },
                "preciousMaterial": {
                    "value": ""
                },
                "preciousMaterialGrade": {
                    "value": ""
                },
                "price": {
                    "value": {
                        "gp": 30
                    }
                },
                "propertyRune1": {
                    "value": ""
                },
                "propertyRune2": {
                    "value": ""
                },
                "propertyRune3": {
                    "value": ""
                },
                "propertyRune4": {
                    "value": ""
                },
                "quantity": 1,
                "resiliencyRune": {
                    "value": ""
                },
                "rules": [],
                "size": "med",
                "slug": "full-plate",
                "source": {
                    "value": "Pathfinder Core Rulebook"
                },
                "speed": {
                    "value": -10
                },
                "stackGroup": null,
                "strength": {
                    "value": 18
                },
                "traits": {
                    "custom": "",
                    "rarity": "common",
                    "value": [
                        "bulwark"
                    ]
                },
                "usage": {
                    "value": "wornarmor"
                },
                "weight": {
                    "value": "5"
                }
            },
            "flags": {
                "core": {
                    "sourceId": "Compendium.pf2e.equipment-srd.Gq1cZWSKOtJhKd2p"
                }
            },
            "img": "systems/pf2e/icons/equipment//armor/fullplate.webp",
            "name": "Full Plate",
            "sort": 400000,
            "type": "armor"
        },
        {
            "_id": "TKT45YKDBK7C1DIF",
            "data": {
                "armor": {
                    "value": 2
                },
                "baseItem": null,
                "category": "shield",
                "check": {
                    "value": 0
                },
                "containerId": null,
                "description": {
                    "value": "<p>Like wooden shields, steel shields come in a variety of shapes and sizes. Though more expensive than wooden shields, they are much more durable.</p>\n<table class=\"pf2-table\">\n<thead>\n<tr>\n<th>Hardness</th>\n<th>HP</th>\n<th>BT</th>\n</tr>\n</thead>\n<tbody>\n<tr>\n<td>5</td>\n<td>20</td>\n<td>10</td>\n</tr>\n</tbody>\n</table>"
                },
                "dex": {
                    "value": 0
                },
                "equipped": {
                    "carryType": "worn",
                    "handsHeld": 1,
                    "invested": null
                },
                "equippedBulk": {
                    "value": ""
                },
                "group": null,
                "hardness": 5,
                "hp": {
                    "brokenThreshold": 10,
                    "max": 20,
                    "value": 20
                },
                "level": {
                    "value": 0
                },
                "negateBulk": {
                    "value": "0"
                },
                "potency": {},
                "potencyRune": {
                    "value": 0
                },
                "preciousMaterial": {
                    "value": ""
                },
                "preciousMaterialGrade": {
                    "value": ""
                },
                "price": {
                    "value": {
                        "gp": 2
                    }
                },
                "propertyRune1": {
                    "value": ""
                },
                "propertyRune2": {
                    "value": ""
                },
                "propertyRune3": {
                    "value": ""
                },
                "propertyRune4": {
                    "value": ""
                },
                "quantity": 1,
                "resiliencyRune": {
                    "value": ""
                },
                "rules": [],
                "size": "med",
                "slug": "steel-shield",
                "source": {
                    "value": "Pathfinder Core Rulebook"
                },
                "speed": {
                    "value": 0
                },
                "stackGroup": null,
                "strength": {
                    "value": 0
                },
                "traits": {
                    "custom": "",
                    "rarity": "common",
                    "value": []
                },
                "usage": {
                    "value": "held-in-one-hand"
                },
                "weight": {
                    "value": "1"
                }
            },
            "flags": {
                "core": {
                    "sourceId": "Compendium.pf2e.equipment-srd.Yr9yCuJiAlFh3QEB"
                }
            },
            "img": "systems/pf2e/icons/equipment/shields/steel-shield.webp",
            "name": "Steel Shield",
            "sort": 500000,
            "type": "armor"
        },
        {
            "_id": "sH9wjvFFWdNhYpVU",
            "data": {
                "activation": {
                    "condition": "",
                    "cost": 0,
                    "type": ""
                },
                "autoDestroy": {
                    "_deprecated": true,
                    "value": true
                },
                "autoUse": {
                    "_deprecated": true,
                    "value": true
                },
                "baseItem": null,
                "charges": {
                    "_deprecated": true,
                    "max": 0,
                    "value": 0
                },
                "consumableType": {
                    "value": "ammo"
                },
                "consume": {
                    "_deprecated": true,
                    "value": ""
                },
                "containerId": null,
                "description": {
                    "value": "<p>Shorter than traditional arrows but similar in construction, bolts are the ammunition used by crossbows.</p>"
                },
                "duration": {
                    "units": "",
                    "value": null
                },
                "equipped": {
                    "carryType": "worn",
                    "handsHeld": 1
                },
                "equippedBulk": {
                    "value": ""
                },
                "hardness": 0,
                "hp": {
                    "brokenThreshold": 0,
                    "max": 0,
                    "value": 0
                },
                "level": {
                    "value": 0
                },
                "negateBulk": {
                    "value": "0"
                },
                "preciousMaterial": {
                    "value": ""
                },
                "preciousMaterialGrade": {
                    "value": ""
                },
                "price": {
                    "value": {
                        "sp": 1
                    }
                },
                "quantity": 20,
                "range": {
                    "long": null,
                    "units": "",
                    "value": null
                },
                "rules": [],
                "size": "med",
                "slug": "bolts",
                "source": {
                    "value": "Pathfinder Core Rulebook"
                },
                "spell": {
                    "data": null,
                    "heightenedLevel": null
                },
                "stackGroup": "bolts",
                "target": {
                    "type": "",
                    "units": "",
                    "value": null
                },
                "traits": {
                    "custom": "",
                    "rarity": "common",
                    "value": []
                },
                "usage": {
                    "value": "held-in-one-hand"
                },
                "uses": {
                    "autoDestroy": true,
                    "autoUse": true,
                    "max": 0,
                    "per": null,
                    "value": 0
                },
                "weight": {
                    "value": "L"
                }
            },
            "flags": {
                "core": {
                    "sourceId": "Compendium.pf2e.equipment-srd.AITVZmakiu3RgfKo"
                }
            },
            "img": "systems/pf2e/icons/equipment/weapons/bolts.webp",
            "name": "Bolts",
            "sort": 600000,
            "type": "consumable"
        },
        {
            "_id": "J0gZtGInMyuCyCuB",
            "data": {
                "attack": {
                    "value": ""
                },
                "attackEffects": {
                    "value": []
                },
                "bonus": {
                    "value": 18
                },
                "damageRolls": {
                    "0": {
                        "damage": "1d8+11",
                        "damageType": "slashing"
                    }
                },
                "description": {
                    "value": ""
                },
                "rules": [],
                "slug": null,
                "source": {
                    "value": ""
                },
                "traits": {
                    "custom": "",
                    "rarity": "common",
                    "value": [
                        "magical",
                        "versatile-p"
                    ]
                },
                "weaponType": {
                    "value": "melee"
                }
            },
            "flags": {},
            "img": "systems/pf2e/icons/default-icons/melee.svg",
            "name": "Longsword",
            "sort": 700000,
            "type": "melee"
        },
        {
            "_id": "3k43BvFaLIDzoL5a",
            "data": {
                "attack": {
                    "value": ""
                },
                "attackEffects": {
                    "value": []
                },
                "bonus": {
                    "value": 12
                },
                "damageRolls": {
                    "0": {
                        "damage": "1d8+6",
                        "damageType": "piercing"
                    }
                },
                "description": {
                    "value": ""
                },
                "rules": [],
                "slug": null,
                "source": {
                    "value": ""
                },
                "traits": {
                    "custom": "",
                    "rarity": "common",
                    "value": [
                        "range-increment-120",
                        "reload-1"
                    ]
                },
                "weaponType": {
                    "value": "ranged"
                }
            },
            "flags": {},
            "img": "systems/pf2e/icons/default-icons/melee.svg",
            "name": "Crossbow",
            "sort": 800000,
            "type": "melee"
        },
        {
            "_id": "PlvlB09wLGdgmyo3",
            "data": {
                "actionCategory": {
                    "value": "defensive"
                },
                "actionType": {
                    "value": "reaction"
                },
                "actions": {
                    "value": null
                },
                "description": {
                    "value": "<p>@Localize[PF2E.NPC.Abilities.Glossary.AttackOfOpportunity]</p>"
                },
                "requirements": {
                    "value": ""
                },
                "rules": [],
                "slug": "attack-of-opportunity",
                "source": {
                    "value": ""
                },
                "traits": {
                    "custom": "",
                    "rarity": "common",
                    "value": []
                },
                "trigger": {
                    "value": ""
                },
                "weapon": {
                    "value": ""
                }
            },
            "flags": {
                "core": {
                    "sourceId": "Compendium.pf2e.bestiary-ability-glossary-srd.hFtNbo1LKYCoDy2O"
                }
            },
            "img": "systems/pf2e/icons/actions/Reaction.webp",
            "name": "Attack of Opportunity",
            "sort": 900000,
            "type": "action"
        },
        {
            "_id": "T7oZcH7OKDm1O4cw",
            "data": {
                "actionCategory": {
                    "value": "defensive"
                },
                "actionType": {
                    "value": "passive"
                },
                "actions": {
                    "value": null
                },
                "description": {
                    "value": "<p>@Template[type:emanation|distance:30]{30 feet} @Compendium[pf2e.bestiary-ability-glossary-srd.Aura]{Aura}</p>\n<hr />\n<p>The captain of the guard bolsters lower-level guards under their command, granting them a +1 status bonus to their attack rolls and a +2 status bonus to their Will saves.</p>\n<hr />\n<p>@Compendium[pf2e.bestiary-effects.Effect: Aura of Command]{Effect: Aura of Command}</p>"
                },
                "requirements": {
                    "value": ""
                },
                "rules": [],
                "slug": null,
                "source": {
                    "value": ""
                },
                "traits": {
                    "custom": "",
                    "rarity": "common",
                    "value": [
                        "aura",
                        "emotion",
                        "mental"
                    ]
                },
                "trigger": {
                    "value": ""
                },
                "weapon": {
                    "value": ""
                }
            },
            "flags": {},
            "img": "systems/pf2e/icons/actions/Passive.webp",
            "name": "Aura of Command",
            "sort": 1000000,
            "type": "action"
        },
        {
            "_id": "HXCEPfKkb2TP6NVy",
            "data": {
                "actionCategory": {
                    "value": "defensive"
                },
                "actionType": {
                    "value": "passive"
                },
                "actions": {
                    "value": null
                },
                "description": {
                    "value": "<p>When the captain of the guard rolls a success on a Will save against a fear effect, they get a critical success instead.</p>\n<p>In addition, any time they gain the @Compendium[pf2e.conditionitems.Frightened]{Frightened} condition, reduce its value by 1.</p>"
                },
                "requirements": {
                    "value": ""
                },
                "rules": [
                    {
                        "key": "Note",
                        "predicate": {
                            "all": [
                                "fear"
                            ]
                        },
                        "selector": "will",
                        "text": "<p class='compact-text'><strong>{item|name}</strong> When you roll a success at a Will save against a fear effect, you get a critical success instead.</p>"
                    },
                    {
                        "adjustment": {
                            "success": "one-degree-better"
                        },
                        "key": "AdjustDegreeOfSuccess",
                        "predicate": {
                            "all": [
                                "fear"
                            ]
                        },
                        "selector": "will",
                        "type": "save"
                    }
                ],
                "slug": null,
                "source": {
                    "value": ""
                },
                "traits": {
                    "custom": "",
                    "rarity": "common",
                    "value": []
                },
                "trigger": {
                    "value": ""
                },
                "weapon": {
                    "value": ""
                }
            },
            "flags": {},
            "img": "systems/pf2e/icons/actions/Passive.webp",
            "name": "Bravery",
            "sort": 1100000,
            "type": "action"
        },
        {
            "_id": "LEi8MMikbUZD1avz",
            "data": {
                "actionCategory": {
                    "value": "defensive"
                },
                "actionType": {
                    "value": "reaction"
                },
                "actions": {
                    "value": null
                },
                "description": {
                    "value": "<p>@Localize[PF2E.NPC.Abilities.Glossary.ShieldBlock]</p>"
                },
                "requirements": {
                    "value": ""
                },
                "rules": [],
                "slug": "shield-block",
                "source": {
                    "value": ""
                },
                "traits": {
                    "custom": "",
                    "rarity": "common",
                    "value": []
                },
                "trigger": {
                    "value": ""
                },
                "weapon": {
                    "value": ""
                }
            },
            "flags": {
                "core": {
                    "sourceId": "Compendium.pf2e.bestiary-ability-glossary-srd.m4HQ2o5aPxjXf2kY"
                }
            },
            "img": "systems/pf2e/icons/actions/Reaction.webp",
            "name": "Shield Block",
            "sort": 1200000,
            "type": "action"
        },
        {
            "_id": "9hxxkHZZGdkhbZvg",
            "data": {
                "actionCategory": {
                    "value": "defensive"
                },
                "actionType": {
                    "value": "passive"
                },
                "actions": {
                    "value": null
                },
                "description": {
                    "value": "<p>When the captain has their shield raised, they can @Compendium[pf2e.bestiary-ability-glossary-srd.Shield Block]{Shield Block} when an attack is made against an adjacent ally. If they do, the shield prevents that ally from taking damage instead of the captain.</p>"
                },
                "requirements": {
                    "value": ""
                },
                "rules": [],
                "slug": null,
                "source": {
                    "value": ""
                },
                "traits": {
                    "custom": "",
                    "rarity": "common",
                    "value": []
                },
                "trigger": {
                    "value": ""
                },
                "weapon": {
                    "value": ""
                }
            },
            "flags": {},
            "img": "systems/pf2e/icons/actions/Passive.webp",
            "name": "Shield Warden",
            "sort": 1300000,
            "type": "action"
        },
        {
            "_id": "drNAUPLqWo7QSh3l",
            "data": {
                "actionCategory": {
                    "value": "offensive"
                },
                "actionType": {
                    "value": "action"
                },
                "actions": {
                    "value": 1
                },
                "description": {
                    "value": "<p><strong>Requirements</strong> The captain of the guard has their shield raised</p>\n<p><strong>Effect</strong> The captain of the guard presses forward, using their shield to push back foes.</p>\n<p>The captain Strides and @Compendium[pf2e.actionspf2e.Shove]{Shoves}, in either order. The multiple attack penalty doesn't apply to this Shove, though the Shove does count toward the captain's multiple attack penalty.</p>"
                },
                "requirements": {
                    "value": ""
                },
                "rules": [],
                "slug": null,
                "source": {
                    "value": ""
                },
                "traits": {
                    "custom": "",
                    "rarity": "common",
                    "value": []
                },
                "trigger": {
                    "value": ""
                },
                "weapon": {
                    "value": ""
                }
            },
            "flags": {},
            "img": "systems/pf2e/icons/actions/OneAction.webp",
            "name": "Shielded Advance",
            "sort": 1400000,
            "type": "action"
        },
        {
            "_id": "gjRkdJRbt97tIbfZ",
            "data": {
                "description": {
                    "value": ""
                },
                "mod": {
                    "value": 15
                },
                "proficient": {
                    "value": 0
                },
                "rules": [],
                "slug": null,
                "source": {
                    "value": ""
                },
                "traits": {
                    "custom": "",
                    "rarity": "common",
                    "value": []
                }
            },
            "flags": {},
            "img": "systems/pf2e/icons/default-icons/lore.svg",
            "name": "Athletics",
            "sort": 1500000,
            "type": "lore"
        },
        {
            "_id": "mU5IeLhsZuwGA8dX",
            "data": {
                "description": {
                    "value": ""
                },
                "mod": {
                    "value": 11
                },
                "proficient": {
                    "value": 0
                },
                "rules": [],
                "slug": null,
                "source": {
                    "value": ""
                },
                "traits": {
                    "custom": "",
                    "rarity": "common",
                    "value": []
                }
            },
            "flags": {},
            "img": "systems/pf2e/icons/default-icons/lore.svg",
            "name": "Diplomacy",
            "sort": 1600000,
            "type": "lore"
        },
        {
            "_id": "KvliqTPC7wXCxpCr",
            "data": {
                "description": {
                    "value": ""
                },
                "mod": {
                    "value": 13
                },
                "proficient": {
                    "value": 0
                },
                "rules": [],
                "slug": null,
                "source": {
                    "value": ""
                },
                "traits": {
                    "custom": "",
                    "rarity": "common",
                    "value": []
                }
            },
            "flags": {},
            "img": "systems/pf2e/icons/default-icons/lore.svg",
            "name": "Intimidation",
            "sort": 1700000,
            "type": "lore"
        },
        {
            "_id": "7JSOtd0bGE4q9bHf",
            "data": {
                "description": {
                    "value": ""
                },
                "mod": {
                    "value": 12
                },
                "proficient": {
                    "value": 0
                },
                "rules": [],
                "slug": null,
                "source": {
                    "value": ""
                },
                "traits": {
                    "custom": "",
                    "rarity": "common",
                    "value": []
                }
            },
            "flags": {},
            "img": "systems/pf2e/icons/default-icons/lore.svg",
            "name": "Legal Lore",
            "sort": 1800000,
            "type": "lore"
        },
        {
            "_id": "oy3Dc9bbilIEBgxH",
            "data": {
                "description": {
                    "value": ""
                },
                "mod": {
                    "value": 10
                },
                "proficient": {
                    "value": 0
                },
                "rules": [],
                "slug": null,
                "source": {
                    "value": ""
                },
                "traits": {
                    "custom": "",
                    "rarity": "common",
                    "value": []
                }
            },
            "flags": {},
            "img": "systems/pf2e/icons/default-icons/lore.svg",
            "name": "Society",
            "sort": 1900000,
            "type": "lore"
        },
        {
            "_id": "hF5pPWi7gLBNBaO0",
            "data": {
                "description": {
                    "value": ""
                },
                "mod": {
                    "value": 8
                },
                "proficient": {
                    "value": 0
                },
                "rules": [],
                "slug": null,
                "source": {
                    "value": ""
                },
                "traits": {
                    "custom": "",
                    "rarity": "common",
                    "value": []
                }
            },
            "flags": {},
            "img": "systems/pf2e/icons/default-icons/lore.svg",
            "name": "Warfare Lore",
            "sort": 2000000,
            "type": "lore"
        }
    ],
    "name": "Captain Of The Guard",
    "token": {
        "disposition": -1,
        "height": 1,
        "img": "systems/pf2e/icons/default-icons/npc.svg",
        "name": "Captain Of The Guard",
        "width": 1
    },
    "type": "npc"
}
