{
    "_id": "QoS5lEJqji2h490F",
    "data": {
        "attributes": {
            "ac": {
                "value": 31
            },
            "hardness": 20,
            "hasHealth": true,
            "hp": {
                "details": "",
                "max": 80,
                "temp": 0,
                "tempmax": 0,
                "value": 80
            },
            "stealth": {
                "details": "<p>(expert) or <em>@Compendium[pf2e.spells-srd.Detect Magic]{Detect Magic}</em> to note the presence of necromantic energies suffusing the crystals.</p>",
                "value": 20
            }
        },
        "creatureType": "",
        "details": {
            "description": "<p>Sharp, bloodthirsty crystals make walking through this chamber treacherous.</p>",
            "disable": "<p>@Check[type:religion|dc:30|name:Lifeleech Crystal Patch Disable|traits:environmental,magical] (expert) to utter prayers that quell the crystals' necromantic compulsion to drink blood</p>",
            "isComplex": false,
            "level": {
                "value": 11
            },
            "reset": "",
            "routine": ""
        },
        "saves": {
            "fortitude": {
                "saveDetail": "",
                "value": 24
            },
            "reflex": {
                "saveDetail": "",
                "value": 12
            },
            "will": {
                "saveDetail": "",
                "value": 0
            }
        },
        "source": {
            "value": ""
        },
        "statusEffects": [],
        "traits": {
            "ci": [],
            "di": {
                "custom": "Critical Hits (except bludgeoning or sonic)",
                "selected": {},
                "value": [
                    "object-immunities",
                    "precision"
                ]
            },
            "dr": [],
            "dv": [
                {
                    "type": "sonic",
                    "value": 10
                }
            ],
            "rarity": "common",
            "size": {
                "value": "med"
            },
            "traits": {
                "custom": "",
                "value": [
                    "environmental",
                    "magical"
                ]
            }
        }
    },
    "flags": {},
    "img": "systems/pf2e/icons/default-icons/hazard.svg",
    "items": [
        {
            "_id": "3ueUOMbC3RvbqrJs",
            "data": {
                "actionCategory": {
                    "value": ""
                },
                "actionType": {
                    "value": "reaction"
                },
                "actions": {
                    "value": null
                },
                "description": {
                    "value": "<p><strong>Trigger</strong> A creature with blood moves through a patch of lifeleech crystals.</p>\n<p><strong>Effect</strong> The crystals twist and slash, animating and cutting into the creature as it walks, dealing [[/r {5d8}[slashing]]]{5d8 slashing damage}. The creature must attempt a @Check[type:reflex|dc:28|traits:damaging-effect,environmental,magical] saving throw.</p>\n<hr />\n<p><strong>Critical Success</strong> The creature is unaffected.</p>\n<p><strong>Success</strong> The creature takes full damage and is @Compendium[pf2e.conditionitems.Drained]{Drained 1}.</p>\n<p><strong>Failure</strong> The creature takes double damage and is @Compendium[pf2e.conditionitems.Drained]{Drained 2}.</p>\n<p><strong>Critical Failure</strong> As failure, plus the creature's blood causes fresh growth. A new 10-foot-square patch of lifeleech crystals grows in an adjacent space to the current patch of crystals.</p>"
                },
                "requirements": {
                    "value": ""
                },
                "rules": [],
                "slug": null,
                "source": {
                    "value": ""
                },
                "traits": {
                    "custom": "",
                    "rarity": "common",
                    "selected": {},
                    "value": []
                },
                "trigger": {
                    "value": ""
                },
                "weapon": {
                    "value": ""
                }
            },
            "flags": {},
            "img": "systems/pf2e/icons/actions/Reaction.webp",
            "name": "Slice Legs",
            "sort": 100000,
            "type": "action"
        }
    ],
    "name": "Lifeleech Crystal Patches",
    "token": {
        "disposition": 0,
        "height": 1,
        "img": "systems/pf2e/icons/default-icons/hazard.svg",
        "name": "Lifeleech Crystal Patches",
        "width": 1
    },
    "type": "hazard"
}
