{
    "_id": "Pmi71NUPAIE3YMws",
    "data": {
        "attributes": {
            "ac": {
                "value": 27
            },
            "hardness": 0,
            "hasHealth": true,
            "hp": {
                "details": "",
                "max": 130,
                "temp": 0,
                "tempmax": 0,
                "value": 130
            },
            "stealth": {
                "details": "<p>(expert)</p>",
                "value": 16
            }
        },
        "creatureType": "",
        "customModifiers": {},
        "details": {
            "description": "<p>Blasts of fire and smoke pour out of the tunnel walls to coalesce into the burning form of Dahak himself; a PC who succeeds at a @Check[type:religion|dc:20|name:Recognize Depiction of Dahak|traits:hazard,complex,fire,magical,trap,action:recall-knowledge] check to Recall Knowledge notes that the fiery dragon closely resembles classical depictions of the draconic god of destruction.</p>",
            "disable": "<p>@Check[type:religion|dc:26|name:Counteract Dahak With Prayers|traits:complex,fire,magical,trap,hazard] (expert) to utter prayers to a non-evil deity to counteract Dahak's presence (prayers to Apsu allow this check to be made if the character is merely trained in Religion), @Check[type:thievery|dc:30|name:Divert the Hazard's Energy Back|traits:complex,fire,magical,trap,hazard] (expert) to divert the hazard's energies back upon themselves, or a successful <em>@Compendium[pf2e.spells-srd.Dispel Magic]{Dispel Magic}</em> (4th level; counteract DC 26).</p>",
            "isComplex": true,
            "level": {
                "value": 8
            },
            "reset": "<p>The vision of Dahak deactivates and resets automatically once no creatures remain within the Huntergate way station.</p>",
            "routine": "<p>(2 actions) The vision of Dahak manifests next to the creature that is closest to the center of the way station, then uses its Breath Weapon in a direction that catches the most possible targets in its area.</p>"
        },
        "saves": {
            "fortitude": {
                "saveDetail": "",
                "value": 17
            },
            "reflex": {
                "saveDetail": "",
                "value": 13
            },
            "will": {
                "saveDetail": "",
                "value": 0
            }
        },
        "source": {
            "value": "Pathfinder #146: Cult of Cinders"
        },
        "statusEffects": [],
        "traits": {
            "ci": [],
            "di": {
                "custom": "",
                "selected": {},
                "value": [
                    "critical-hits",
                    "fire",
                    "object-immunities",
                    "precision"
                ]
            },
            "dr": [],
            "dv": [
                {
                    "type": "cold",
                    "value": 10
                }
            ],
            "rarity": "rare",
            "size": {
                "value": "med"
            },
            "traits": {
                "custom": "",
                "value": [
                    "fire",
                    "magical",
                    "trap"
                ]
            }
        }
    },
    "flags": {},
    "img": "systems/pf2e/icons/default-icons/hazard.svg",
    "items": [
        {
            "_id": "7wokY8VtRk0KvDhV",
            "data": {
                "actionCategory": {
                    "value": "defensive"
                },
                "actionType": {
                    "value": "reaction"
                },
                "actions": {
                    "value": null
                },
                "description": {
                    "value": "<p><strong>Trigger</strong> A creature is within the way station.</p>\n<p><strong>Effect</strong> The vision of Dahak appears in a 15-foot space adjacent to that creature and rolls initiative.</p>"
                },
                "requirements": {
                    "value": ""
                },
                "rules": [],
                "slug": null,
                "source": {
                    "value": ""
                },
                "traits": {
                    "custom": "",
                    "rarity": "common",
                    "selected": {},
                    "value": []
                },
                "trigger": {
                    "value": ""
                },
                "weapon": {
                    "value": ""
                }
            },
            "flags": {},
            "img": "systems/pf2e/icons/actions/Reaction.webp",
            "name": "Manifest",
            "sort": 100000,
            "type": "action"
        },
        {
            "_id": "Omu620MVyXotE5Nc",
            "data": {
                "actionCategory": {
                    "value": "offensive"
                },
                "actionType": {
                    "value": "action"
                },
                "actions": {
                    "value": 2
                },
                "description": {
                    "value": "<p>The vision of Dahak unleashes a blast of fire from its burning maw, creating a @Template[type:cone|distance:60] that deals [[/r {6d6}[fire]]]{6d6 fire damage} to all creatures within (@Check[type:reflex|dc:26|basic:true|traits:magical,trap,hazard] save).</p>"
                },
                "requirements": {
                    "value": ""
                },
                "rules": [],
                "slug": null,
                "source": {
                    "value": ""
                },
                "traits": {
                    "custom": "",
                    "rarity": "common",
                    "value": [
                        "divine",
                        "evocation",
                        "fire"
                    ]
                },
                "trigger": {
                    "value": ""
                },
                "weapon": {
                    "value": ""
                }
            },
            "flags": {},
            "img": "systems/pf2e/icons/actions/TwoActions.webp",
            "name": "Breath Weapon",
            "sort": 200000,
            "type": "action"
        }
    ],
    "name": "Vision of Dahak",
    "token": {
        "disposition": 0,
        "height": 1,
        "img": "systems/pf2e/icons/default-icons/hazard.svg",
        "name": "Vision of Dahak",
        "width": 1
    },
    "type": "hazard"
}
