{
    "_id": "QbnfMqilzwyzk0bf",
    "content": "<table class=\"pf2-table\">\n<thead>\n<tr>\n<th>\n<h3><strong>Name</strong></h3>\n</th>\n<th>\n<h3><strong>Crit Effect</strong></h3>\n</th>\n<th>\n<h3><strong>Type</strong></h3>\n</th>\n</tr>\n</thead>\n<tbody>\n<tr>\n<td>Weapon Tangle</td>\n<td>You can't use this weapon to attack until the end of your next turn.</td>\n<td>\n<h3>Melee</h3>\n</td>\n</tr>\n<tr>\n<td>Amazing Miss</td>\n<td>You are stunned 1.</td>\n<td>\n<h3>Ranged</h3>\n</td>\n</tr>\n<tr>\n<td>Bone Bruise</td>\n<td>You become wounded 1 or your wounded value increases by 1.</td>\n<td>\n<h3>Unarmed</h3>\n</td>\n</tr>\n<tr>\n<td>You made 'em Bigger</td>\n<td>The target increases in size, with the effects of a 2nd level <em>enlarge </em>spell.</td>\n<td>\n<h3>Spell</h3>\n</td>\n</tr>\n</tbody>\n</table>\n<h3 style=\"text-align: left;\"> </h3>",
    "flags": {},
    "name": "Critical Fumble Deck #34",
    "permission": {
        "default": 0
    }
}
