{
    "_id": "SzcyJHMmYgLwtXlQ",
    "data": {
        "attributes": {
            "ac": {
                "value": 19
            },
            "hardness": 5,
            "hasHealth": true,
            "hp": {
                "details": "",
                "max": 50,
                "temp": 0,
                "value": 50
            },
            "stealth": {
                "details": "<p>(trained)</p>",
                "value": 13
            }
        },
        "creatureType": "",
        "details": {
            "description": "<p>A crossbow hidden by the shrine's back curtains is ready to shoot. The loaded bolt is magically augmented with holy power to strike true against demons.</p>",
            "disable": "<p>@Check[type:thievery|dc:20|name:Disable Wire|traits:trap,mechanical] (trained) to disable the trigger wire.</p>",
            "isComplex": false,
            "level": {
                "value": 3
            },
            "reset": "",
            "routine": ""
        },
        "saves": {
            "fortitude": {
                "saveDetail": "",
                "value": 9
            },
            "reflex": {
                "saveDetail": "",
                "value": 9
            },
            "will": {
                "saveDetail": "",
                "value": 0
            }
        },
        "source": {
            "value": "Pathfinder Bounty #18: From Family Lost"
        },
        "statusEffects": [],
        "traits": {
            "ci": [],
            "di": {
                "custom": "",
                "selected": {},
                "value": [
                    "critical-hits",
                    "object-immunities",
                    "precision"
                ]
            },
            "dr": [],
            "dv": [],
            "rarity": "common",
            "size": {
                "value": "med"
            },
            "traits": {
                "custom": "",
                "value": [
                    "mechanical",
                    "trap"
                ]
            }
        }
    },
    "flags": {},
    "img": "systems/pf2e/icons/default-icons/hazard.svg",
    "items": [
        {
            "_id": "0qtKNKZnNdAzY9FI",
            "data": {
                "actionCategory": {
                    "value": "offensive"
                },
                "actionType": {
                    "value": "reaction"
                },
                "actions": {
                    "value": null
                },
                "description": {
                    "value": "<p><strong>Trigger</strong> The holy text is touched or moved</p>\n<p><strong>Effect</strong> The trap shoots a bolt, aimed where a creature would stand in front of the altar.</p>"
                },
                "requirements": {
                    "value": ""
                },
                "rules": [],
                "slug": null,
                "source": {
                    "value": ""
                },
                "traits": {
                    "custom": "",
                    "rarity": "common",
                    "value": [
                        "attack"
                    ]
                },
                "trigger": {
                    "value": ""
                }
            },
            "flags": {},
            "img": "systems/pf2e/icons/actions/Reaction.webp",
            "name": "Crossbow",
            "sort": 0,
            "type": "action"
        },
        {
            "_id": "0VATQa0n9Q2hJS2v",
            "data": {
                "attack": {
                    "value": ""
                },
                "attackEffects": {
                    "value": []
                },
                "bonus": {
                    "value": 16
                },
                "damageRolls": {
                    "tldlblj7tlfak0ovl8wo": {
                        "damage": "2d8+12",
                        "damageType": "piercing"
                    },
                    "j4nn8qpcb2mzq66r0pvi": {
                        "damage": "1d6",
                        "damageType": "good"
                    }
                },
                "description": {
                    "value": ""
                },
                "rules": [],
                "slug": null,
                "source": {
                    "value": ""
                },
                "traits": {
                    "custom": "",
                    "rarity": "common",
                    "value": []
                },
                "weaponType": {
                    "value": "ranged"
                }
            },
            "flags": {},
            "img": "systems/pf2e/icons/default-icons/melee.svg",
            "name": "Crossbow",
            "sort": 0,
            "type": "melee"
        }
    ],
    "name": "Blessed Crossbow Trap",
    "token": {
        "disposition": 0,
        "height": 1,
        "img": "systems/pf2e/icons/default-icons/hazard.svg",
        "name": "Blessed Crossbow Trap",
        "width": 1
    },
    "type": "hazard"
}
