{
    "_id": "4fhQXAfVGQ0aX8LA",
    "data": {
        "attributes": {
            "ac": {
                "value": 16
            },
            "hardness": 7,
            "hasHealth": true,
            "hp": {
                "details": "",
                "max": 30,
                "temp": 0,
                "value": 30
            },
            "stealth": {
                "details": "",
                "value": -5
            }
        },
        "creatureType": "",
        "details": {
            "description": "<p>The hypnotic ticking of this metronome captures the attention of all who approach it.</p>",
            "disable": "<p>@Check[type:thievery|dc:15|name:Interfere with the Metronome's Mechanisms|traits:magical,trap] or @Check[type:crafting|dc:15|name:Interfere with the Metronome's Mechanisms|traits:magical,trap] to interfere with the metronome's mechanisms, @Check[type:athletics|dc:18|name:Prevent the Hand from Moving|traits:magical,trap] to grip the hand and prevent it from moving, or @Check[type:arcana|dc:18|name:Interpret the Magic Runes|traits:magical,trap] or @Check[type:occultism|dc:18|name:Interpret the Magic Runes|traits:magical,trap] to interpret the magic runes on the metronome and counteract its effects. Three successful checks are required to fully disable the metronome, ending its ticking.</p>",
            "isComplex": false,
            "level": {
                "value": 2
            },
            "reset": "",
            "routine": ""
        },
        "saves": {
            "fortitude": {
                "saveDetail": "",
                "value": 11
            },
            "reflex": {
                "saveDetail": "",
                "value": 5
            },
            "will": {
                "saveDetail": "",
                "value": 0
            }
        },
        "source": {
            "value": "Pathfinder Society Scenario #3-05: Inheritor's Rite"
        },
        "statusEffects": [],
        "traits": {
            "ci": [],
            "di": {
                "custom": "",
                "selected": {},
                "value": [
                    "critical-hits",
                    "object-immunities",
                    "precision"
                ]
            },
            "dr": [],
            "dv": [],
            "rarity": "uncommon",
            "size": {
                "value": "med"
            },
            "traits": {
                "custom": "",
                "value": [
                    "magical",
                    "trap"
                ]
            }
        }
    },
    "flags": {},
    "img": "systems/pf2e/icons/default-icons/hazard.svg",
    "items": [
        {
            "_id": "8yf2azDgIFK4OjDT",
            "data": {
                "actionCategory": {
                    "value": "offensive"
                },
                "actionType": {
                    "value": "reaction"
                },
                "actions": {
                    "value": null
                },
                "description": {
                    "value": "<p><strong>Trigger</strong> A creature starts the metronome</p>\n<p><strong>Effect</strong> During the next 10 minutes, any creature who approaches within 30 feet of the metronome, other than the one who activated it, must attempt a @Check[type:will|dc:16|traits:magical,trap] save, with the following effects.</p>\n<hr />\n<p><strong>Critical Success</strong> The creature is unaffected by the metronome and acts normally.</p>\n<p><strong>Success</strong> The creature is @Compendium[pf2e.conditionitems.Fascinated]{Fascinated} for as long as it can hear the metronome and remains within 30 feet of it.</p>\n<p><strong>Failure</strong> The creature is @Compendium[pf2e.conditionitems.Slowed]{Slowed 1} and is fascinated for as long as it can hear the metronome and remains within 30 feet of it. While fascinated in this way, the creature can't willingly move more than 30 feet away from the metronome until it stops ticking. The creature is then @Compendium[pf2e.conditionitems.Fatigued]{Fatigued} for 1 hour.</p>\n<p><strong>Critical Failure</strong> The creature is slowed 1 and is fascinated for as long as it can hear the metronome and remains within 30 feet of it. While fascinated in this way, the creature can't willingly move more than 30 feet away from the metronome until it stops ticking. The creature is then fatigued for 2 hours.</p>"
                },
                "requirements": {
                    "value": ""
                },
                "rules": [],
                "slug": null,
                "source": {
                    "value": ""
                },
                "traits": {
                    "custom": "",
                    "rarity": "common",
                    "value": [
                        "auditory",
                        "occult"
                    ]
                },
                "trigger": {
                    "value": ""
                }
            },
            "flags": {},
            "img": "systems/pf2e/icons/actions/Reaction.webp",
            "name": "Enchanting Beat",
            "sort": 0,
            "type": "action"
        }
    ],
    "name": "Manipulator's Metronome (1-2)",
    "token": {
        "disposition": 0,
        "height": 1,
        "img": "systems/pf2e/icons/default-icons/hazard.svg",
        "name": "Manipulator's Metronome (1-2)",
        "width": 1
    },
    "type": "hazard"
}
