{
    "_id": "VMeVz1AsEkq6QWDE",
    "data": {
        "attributes": {
            "ac": {
                "value": 0
            },
            "hardness": 0,
            "hasHealth": false,
            "hp": {
                "details": "",
                "max": 0,
                "temp": 0,
                "tempmax": 0,
                "value": 0
            },
            "stealth": {
                "details": "<p>(expert)</p>",
                "value": 12
            }
        },
        "creatureType": "",
        "details": {
            "description": "<p>A cloud of invisible magical sensors in a 5-foot radius surrounds an invisible wall or floor rune the size of the creature to be summoned.</p>",
            "disable": "<p>@Check[type:acrobatics|dc:20] to approach without triggering the trap followed by @Check[type:thievery|dc:22] (trained) to erase the rune, or <em>@Compendium[pf2e.spells-srd.Dispel Magic]{Dispel Magic}</em> (2nd level; counteract DC 19) to counteract the rune</p>",
            "isComplex": true,
            "level": {
                "value": 4
            },
            "reset": "<p>The trap resets each day at dawn.</p>",
            "routine": ""
        },
        "saves": {
            "fortitude": {
                "saveDetail": "",
                "value": 0
            },
            "reflex": {
                "saveDetail": "",
                "value": 0
            },
            "will": {
                "saveDetail": "",
                "value": 0
            }
        },
        "source": {
            "value": "Pathfinder Society Scenario #3-11: No Time for Treason"
        },
        "statusEffects": [],
        "traits": {
            "ci": [],
            "di": {
                "custom": "",
                "selected": {},
                "value": []
            },
            "dr": [],
            "dv": [],
            "rarity": "uncommon",
            "size": {
                "value": "med"
            },
            "traits": {
                "custom": "",
                "value": [
                    "magical",
                    "trap"
                ]
            }
        }
    },
    "flags": {},
    "img": "systems/pf2e/icons/default-icons/hazard.svg",
    "items": [
        {
            "_id": "1M9OasbKWAPME9IC",
            "data": {
                "actionCategory": {
                    "value": ""
                },
                "actionType": {
                    "value": "reaction"
                },
                "actions": {
                    "value": null
                },
                "description": {
                    "value": "<p><strong>Trigger</strong> A creature enters the cloud of magical sensors.</p>\n<p><strong>Effect</strong> This trap summons a @Compendium[pf2e.pathfinder-bestiary.Sod Hound]{Sod Hound} with the elite adjustment. The sod hound rolls initiative and remains for 7 rounds, after which the spell ends and the sod hound disappears. The sod hound also disappears if someone disables the trap before the duration expires. The summoned sod hound can use 3 actions each round and can use reactions, unlike most summoned creatures.</p>"
                },
                "requirements": {
                    "value": ""
                },
                "rules": [],
                "slug": null,
                "source": {
                    "value": ""
                },
                "traits": {
                    "custom": "",
                    "rarity": "common",
                    "value": [
                        "arcane",
                        "conjuration",
                        "summon"
                    ]
                },
                "trigger": {
                    "value": ""
                },
                "weapon": {
                    "value": ""
                }
            },
            "flags": {},
            "img": "systems/pf2e/icons/actions/Reaction.webp",
            "name": "Summon Monster",
            "sort": 100000,
            "type": "action"
        }
    ],
    "name": "Muesello's Elite Summoning Rune",
    "token": {
        "disposition": 0,
        "height": 1,
        "img": "systems/pf2e/icons/default-icons/hazard.svg",
        "name": "Muesello's Elite Summoning Rune",
        "width": 1
    },
    "type": "hazard"
}
