{
    "_id": "uOlyklPCUWLtCaYI",
    "data": {
        "actionCategory": {
            "value": "defensive"
        },
        "actionType": {
            "value": "reaction"
        },
        "actions": {
            "value": null
        },
        "description": {
            "value": "<p><strong>Trigger</strong> A critical hit deals physical damage to you.</p>\n<hr />\n<p>Attempt a @Check[type:flat|dc:17]. If you are successful, the attack becomes a normal hit.</p>"
        },
        "requirements": {
            "value": ""
        },
        "rules": [],
        "source": {
            "value": "Pathfinder Guns & Gears"
        },
        "traits": {
            "custom": "",
            "rarity": "common",
            "value": [
                "automaton"
            ]
        },
        "trigger": {
            "value": ""
        }
    },
    "flags": {},
    "img": "systems/pf2e/icons/actions/Reaction.webp",
    "name": "Chassis Deflection",
    "type": "action"
}
