{
    "_id": "F4Tz0YFz1Lr4eVZR",
    "data": {
        "actionCategory": {
            "value": "offensive"
        },
        "actionType": {
            "value": "action"
        },
        "actions": {
            "value": 1
        },
        "description": {
            "value": "<p>You designate a single construct within 30 feet that you can see or hear. The construct becomes @Compendium[pf2e.conditionitems.Quickened]{Quickened 1} for 1 minute and is temporarily immune to this ability for 24 hours. It can use its additional action only to Stride or Strike.</p>"
        },
        "requirements": {
            "value": ""
        },
        "rules": [],
        "source": {
            "value": "Pathfinder Society Scenario 1-00: Origin of the Open Road"
        },
        "traits": {
            "custom": "",
            "rarity": "common",
            "value": [
                "concentrate",
                "manipulate"
            ]
        },
        "trigger": {
            "value": ""
        },
        "weapon": {
            "value": ""
        }
    },
    "flags": {},
    "img": "systems/pf2e/icons/actions/OneAction.webp",
    "name": "De-Animating Gestures (False)",
    "type": "action"
}
