{
    "_id": "naKVqd8POxcnGclz",
    "data": {
        "actionCategory": {
            "value": "interaction"
        },
        "actionType": {
            "value": "action"
        },
        "actions": {
            "value": 2
        },
        "description": {
            "value": "<p>You intentionally take your innovation beyond normal safety limits, making it explode and damage nearby creatures without damaging the innovation... hopefully. The explosion deals [[/r max(2, @actor.level)d6[fire]]]{leveled fire damage} with a @Check[type:reflex|dc:resolve(@actor.attributes.classDC.value)|basic:true] to all creatures in a @Template[type:emanation|distance:5] around you (if you're wearing or holding the innovation) or around your innovation (if your innovation is a minion).</p>\n<p>At 3rd level, and every level thereafter, increase your explosion's damage by 1d6.</p>\n<p>If you have the breakthrough innovation class feature, you can choose either a 5-foot or @Template[type:emanation|distance:10] for the area when you use Explode; if you have the revolutionary innovation class feature, you can choose a 5-foot, 10-foot, or @Template[type:emanation|distance:15].</p>\n<p>@Check[type:flat|dc:17|name:Unstable Flat Check|showDC:all|traits:unstable]{Unstable Check}</p>\n<p>On a failure, the innovation malfunctions in a spectacular (though harmless) fashion, such as a belch of smoke or shower of sparks, and it becomes incapable of being used for further unstable actions.</p>\n<p>On a critical failure, you also take [[/r {@actor.level}[fire]]]{fire damage equal to your level}.</p>"
        },
        "requirements": {
            "value": ""
        },
        "rules": [],
        "source": {
            "value": ""
        },
        "traits": {
            "custom": "",
            "rarity": "common",
            "value": [
                "fire",
                "inventor",
                "manipulate",
                "unstable"
            ]
        },
        "trigger": {
            "value": ""
        }
    },
    "flags": {},
    "img": "systems/pf2e/icons/actions/TwoActions.webp",
    "name": "Explode",
    "type": "action"
}
