{
    "_id": "Q4kdWVOf2ztIBFg1",
    "data": {
        "actionCategory": {
            "value": ""
        },
        "actionType": {
            "value": "passive"
        },
        "actions": {
            "value": null
        },
        "description": {
            "value": "<p><strong>Requirements</strong> You have @Compendium[pf2e.equipment-srd.Alchemist's Tools]{Alchemist's Tools}.</p>\n<hr />\n<p>You can identify the nature of an alchemical item with 10 minutes of testing using alchemist's tools. If your attempt is interrupted in any way, you must start over.</p>\n<hr />\n<p><strong>Success</strong> You identify the item and the means of activating it.</p>\n<p><strong>Failure</strong> You fail to identify the item but can try again.</p>\n<p><strong>Critical Failure</strong> You misidentify the item as another item of the GM's choice.</p>"
        },
        "requirements": {
            "value": ""
        },
        "rules": [],
        "source": {
            "value": "Pathfinder Core Rulebook"
        },
        "traits": {
            "custom": "",
            "rarity": "common",
            "value": [
                "concentrate",
                "skill",
                "secret",
                "exploration"
            ]
        },
        "trigger": {
            "value": ""
        },
        "weapon": {
            "value": ""
        }
    },
    "flags": {},
    "img": "systems/pf2e/icons/default-icons/mystery-man.svg",
    "name": "Identify Alchemy",
    "type": "action"
}
