{
    "_id": "xccOiNL2W1EtfUYl",
    "data": {
        "actionCategory": {
            "value": ""
        },
        "actionType": {
            "value": "action"
        },
        "actions": {
            "value": 1
        },
        "description": {
            "value": "<p>You ask a question that charms or needles someone in just the right way. Ask a question of a non-allied creature that you can see and have been conversing with. Attempt a Diplomacy check against the creature's Will DC. The creature is then temporarily immune for 1 hour.</p>\n<hr />\n<p><strong>Critical Success</strong> The target must directly answer your question. It doesn't have to answer truthfully, but you gain a +4 circumstance bonus to your Perception DC if the creature attempts to @Compendium[pf2e.actionspf2e.Lie]{Lie} to you.</p>\n<p><strong>Success</strong> As critical success, but the circumstance bonus is +2.</p>\n<p><strong>Failure</strong> The target can refuse to answer you as normal.</p>\n<p><strong>Critical Failure</strong> The target can refuse to answer you as normal, and its attitude toward you decreases by one step due to your aggravating attention.</p>"
        },
        "requirements": {
            "value": ""
        },
        "rules": [],
        "source": {
            "value": "Pathfinder Advanced Player's Guide"
        },
        "traits": {
            "custom": "",
            "rarity": "common",
            "value": [
                "auditory",
                "concentrate",
                "investigator",
                "linguistic",
                "mental"
            ]
        },
        "trigger": {
            "value": ""
        },
        "weapon": {
            "value": ""
        }
    },
    "flags": {},
    "img": "systems/pf2e/icons/actions/OneAction.webp",
    "name": "Pointed Question",
    "type": "action"
}
