{
    "_id": "EUcnU1JTJsMF2fVD",
    "data": {
        "actionCategory": {
            "value": "defensive"
        },
        "actionType": {
            "value": "reaction"
        },
        "actions": {
            "value": null
        },
        "description": {
            "value": "<p><strong>Trigger</strong> An adjacent ally is hit or critically hit by an attack</p>\n<p><strong>Effect</strong> You interpose yourself between your ally and the attack. The attack hits you instead, or critically hits you if it critically hit your ally.</p>"
        },
        "requirements": {
            "value": ""
        },
        "rules": [],
        "source": {
            "value": "Pathfinder #174: Shadows of the Ancients"
        },
        "traits": {
            "custom": "",
            "rarity": "common",
            "value": []
        },
        "trigger": {
            "value": ""
        }
    },
    "flags": {},
    "img": "systems/pf2e/icons/actions/Reaction.webp",
    "name": "Protector's Interdiction",
    "type": "action"
}
