{
    "_id": "ehYmO1rFBt35zoOw",
    "data": {
        "badge": null,
        "description": {
            "value": "<p>You are granted a +2 item bonus to Diplomacy checks made in the language granted by Server's Stew for 1 hour.</p>"
        },
        "duration": {
            "expiry": "turn-end",
            "sustained": false,
            "unit": "hours",
            "value": 1
        },
        "level": {
            "value": 7
        },
        "rules": [
            {
                "key": "FlatModifier",
                "label": "Using Server's Stew Language",
                "predicate": {
                    "all": [
                        "servers-stew-language"
                    ]
                },
                "selector": "diplomacy",
                "type": "item",
                "value": 2
            }
        ],
        "source": {
            "value": ""
        },
        "start": {
            "initiative": null,
            "value": 0
        },
        "target": null,
        "tokenIcon": {
            "show": true
        },
        "traits": {
            "custom": "",
            "rarity": "common",
            "value": []
        }
    },
    "flags": {},
    "img": "systems/pf2e/icons/equipment/consumables/other-consumables/servers-stew.webp",
    "name": "Effect: Server's Stew",
    "type": "effect"
}
