{
    "_id": "dchlrZqQ2oEmgNlN",
    "data": {
        "badge": null,
        "description": {
            "value": "<p>The target takes a -10-foot circumstance penalty to its Speeds for 1 round.</p>"
        },
        "duration": {
            "expiry": "turn-end",
            "sustained": false,
            "unit": "rounds",
            "value": 1
        },
        "level": {
            "value": 1
        },
        "rules": [
            {
                "key": "FlatModifier",
                "label": "Silkspinner's Shield Webbing",
                "selector": "speed",
                "type": "circumstance",
                "value": -10
            }
        ],
        "source": {
            "value": ""
        },
        "start": {
            "initiative": null,
            "value": 0
        },
        "target": null,
        "tokenIcon": {
            "show": false
        },
        "traits": {
            "custom": "",
            "rarity": "common",
            "value": []
        }
    },
    "flags": {},
    "img": "systems/pf2e/icons/equipment/shields/specific-shields/silkspinners-shield-animated-strike-effect.webp",
    "name": "Effect: Silkspinner's Shield (Animated Strike)",
    "type": "effect"
}
