{
    "_id": "mQJk8R0vHzvpTz0e",
    "data": {
        "badge": null,
        "description": {
            "value": "<p>Until the end of your turn, that creature takes a -1 status penalty to Will saves against your enchantment spells and your illusion spells.</p>"
        },
        "duration": {
            "expiry": "turn-end",
            "sustained": false,
            "unit": "rounds",
            "value": 1
        },
        "level": {
            "value": 6
        },
        "rules": [
            {
                "key": "FlatModifier",
                "predicate": {
                    "any": [
                        "enchantment",
                        "illusion"
                    ]
                },
                "selector": "will",
                "type": "status",
                "value": -1
            }
        ],
        "source": {
            "value": ""
        },
        "start": {
            "initiative": null,
            "value": 0
        },
        "target": null,
        "tokenIcon": {
            "show": true
        },
        "traits": {
            "custom": "",
            "rarity": "common",
            "value": []
        }
    },
    "flags": {},
    "img": "systems/pf2e/icons/equipment/weapons/specific-magic-weapons/chatterer-of-follies.webp",
    "name": "Equipment Effect: Chatterer of Follies",
    "type": "effect"
}
