{
    "_id": "lj5iHaiY0IwCCptd",
    "data": {
        "ancestry": null,
        "description": {
            "value": "<p>You were born with a connection to Axis, the Plane of Law. You gain the aphorite trait, in addition to the traits from your ancestry. You also gain @Compendium[pf2e.ancestryfeatures.Low-Light Vision]{Low-Light Vision}, or you gain @Compendium[pf2e.ancestryfeatures.Darkvision]{Darkvision} if your ancestry already has low‑light vision. You can choose from aphorite feats and feats from your ancestry whenever you gain an ancestry feat.</p>"
        },
        "rules": [
            {
                "add": [
                    "aphorite"
                ],
                "key": "ActorTraits"
            },
            {
                "key": "Sense",
                "label": "PF2E.SensesLowLightVision",
                "selector": "lowLightVision"
            },
            {
                "key": "Sense",
                "label": "PF2E.SensesDarkvision",
                "predicate": {
                    "all": [
                        "self:low-light-vision:from-ancestry"
                    ]
                },
                "selector": "darkvision"
            }
        ],
        "source": {
            "value": "Pathfinder Lost Omens: Ancestry Guide"
        },
        "traits": {
            "custom": "",
            "rarity": "uncommon",
            "value": [
                "aphorite"
            ]
        }
    },
    "flags": {},
    "img": "systems/pf2e/icons/default-icons/heritage.svg",
    "name": "Aphorite",
    "type": "heritage"
}
