{
    "_id": "nXQxlmjH24Eb8h2Q",
    "data": {
        "ancestry": {
            "name": "Orc",
            "uuid": "Compendium.pf2e.ancestries.lSGWXjcbOa6O5fTx"
        },
        "description": {
            "value": "<p>You descend from a line of terrifying battlefield commanders. You become trained in Intimidation, and you gain the @Compendium[pf2e.feats-srd.Intimidating Glare]{Intimidating Glare} skill feat.</p>"
        },
        "rules": [
            {
                "key": "GrantItem",
                "uuid": "Compendium.pf2e.feats-srd.Intimidating Glare"
            },
            {
                "key": "ActiveEffectLike",
                "mode": "upgrade",
                "path": "data.skills.itm.rank",
                "value": 1
            }
        ],
        "source": {
            "value": "Pathfinder Lost Omens: Ancestry Guide"
        },
        "traits": {
            "custom": "",
            "rarity": "common",
            "value": []
        }
    },
    "flags": {},
    "img": "systems/pf2e/icons/default-icons/heritage.svg",
    "name": "Battle-Ready Orc",
    "type": "heritage"
}
