{
    "_id": "IFg2tqmAFFnU8UNU",
    "data": {
        "ancestry": {
            "name": "Kitsune",
            "uuid": "Compendium.pf2e.ancestries.4BL5wf1VF9feC2rY"
        },
        "description": {
            "value": "<p>Whether due to Daikitsu's grace or faithful forebears, you have a strong connection to the divine, affording you certain protections. You gain the @Compendium[pf2e.actionspf2e.Invoke Celestial Privilege]{Invoke Celestial Privilege} reaction. Your alternate form is a common Medium humanoid ancestry prevalent where you grew up (typically human), called a tailless form.</p>"
        },
        "rules": [
            {
                "key": "GrantItem",
                "uuid": "Compendium.pf2e.actionspf2e.Invoke Celestial Privilege"
            }
        ],
        "source": {
            "value": "Pathfinder Lost Omens: Ancestry Guide"
        },
        "traits": {
            "custom": "",
            "rarity": "common",
            "value": []
        }
    },
    "flags": {},
    "img": "systems/pf2e/icons/default-icons/heritage.svg",
    "name": "Celestial Envoy Kitsune",
    "type": "heritage"
}
