{
    "_id": "OoUqJJB77VfWbWRM",
    "data": {
        "ancestry": {
            "name": "Lizardfolk",
            "uuid": "Compendium.pf2e.ancestries.HWEgF7Gmoq55VhTL"
        },
        "description": {
            "value": "<p>Your toes are adapted for gripping and climbing.</p>\n<p>You gain the @Compendium[pf2e.feats-srd.Combat Climber]{Combat Climber} feat as a bonus feat, and as long as you aren't wearing footwear, you can use the sticky pads on your feet to climb, leaving your hands free.</p>\n<p>Additionally, if you roll a success on an Athletics check to climb, you get a critical success instead.</p>"
        },
        "rules": [
            {
                "key": "Note",
                "predicate": {
                    "all": [
                        "action:climb"
                    ]
                },
                "selector": "athletics",
                "text": "<p class='compact-text'><strong>{item|name}</strong> When you roll a success to Climb, you get a critical success instead.</p>"
            },
            {
                "key": "GrantItem",
                "uuid": "Compendium.pf2e.feats-srd.Combat Climber"
            },
            {
                "adjustment": {
                    "success": "one-degree-better"
                },
                "key": "AdjustDegreeOfSuccess",
                "predicate": {
                    "all": [
                        "action:climb"
                    ]
                },
                "selector": "athletics",
                "type": "skill"
            }
        ],
        "source": {
            "value": "Pathfinder Lost Omens: Character Guide"
        },
        "traits": {
            "custom": "",
            "rarity": "common",
            "value": []
        }
    },
    "flags": {},
    "img": "systems/pf2e/icons/features/ancestry/cliifscale-lizardfolk.webp",
    "name": "Cliffscale Lizardfolk",
    "type": "heritage"
}
