{
    "_id": "isJhIPhT4MsjJvoq",
    "data": {
        "ancestry": {
            "name": "Shoony",
            "uuid": "Compendium.pf2e.ancestries.q6rsqYARyOGXZA8F"
        },
        "description": {
            "value": "<p>You come from a long line of fisherfolk and have inherited the quick reflexes necessary to nab and reel in big game. If you roll a success on an attempt to @Compendium[pf2e.actionspf2e.Grab an Edge]{Grab an Edge}, you get a critical success instead; if you roll a critical failure, you get a failure instead. A creature that rolls a failure on a check to @Compendium[pf2e.actionspf2e.Disarm]{Disarm} you gets a critical failure instead.</p>"
        },
        "rules": [],
        "source": {
            "value": "Pathfinder #153: Life's Long Shadows"
        },
        "traits": {
            "custom": "",
            "rarity": "common",
            "value": []
        }
    },
    "flags": {},
    "img": "systems/pf2e/icons/features/ancestry/fishseeker-shoony.webp",
    "name": "Fishseeker Shoony",
    "type": "heritage"
}
