{
    "_id": "3reGfXH0S82hM7Gp",
    "data": {
        "ancestry": null,
        "description": {
            "value": "<p>Your blood is touched by primal chaos. You gain the ganzi trait in addition to the traits from your ancestry. You gain resistance to a single damage type equal to half your level; at the beginning of each day, determine randomly whether this resistance applies to acid, electricity, or sonic damage. You also gain a +1 circumstance bonus to saving throws against effects that would cause you to gain the @Compendium[pf2e.conditionitems.Controlled]{Controlled} condition. You can choose from ganzi feats and feats from your ancestry whenever you gain an ancestry feat.</p>"
        },
        "rules": [
            {
                "key": "FlatModifier",
                "label": "PF2E.SkillVariant.VsControlled",
                "predicate": {
                    "all": [
                        "controlled"
                    ]
                },
                "selector": "saving-throw",
                "type": "circumstance",
                "value": 1
            }
        ],
        "source": {
            "value": "Pathfinder Lost Omens: Ancestry Guide"
        },
        "traits": {
            "custom": "",
            "rarity": "uncommon",
            "value": [
                "ganzi"
            ]
        }
    },
    "flags": {},
    "img": "systems/pf2e/icons/default-icons/heritage.svg",
    "name": "Ganzi",
    "type": "heritage"
}
