{
    "_id": "Mj7uHxxVkRUlOFwJ",
    "data": {
        "ancestry": {
            "name": "Halfling",
            "uuid": "Compendium.pf2e.ancestries.GgZAHbrjnzWOZy2v"
        },
        "description": {
            "value": "<p>Accustomed to a calm life in the hills, your people find rest and relaxation especially replenishing, particularly when indulging in creature comforts. When you regain Hit Points overnight, add your level to the Hit Points regained. When anyone uses the Medicine skill to @Compendium[pf2e.actionspf2e.Treat Wounds]{Treat your Wounds}, you can eat a snack to add your level to the Hit Points you regain from their treatment.</p>"
        },
        "rules": [],
        "source": {
            "value": "Pathfinder Core Rulebook"
        },
        "traits": {
            "custom": "",
            "rarity": "common",
            "value": []
        }
    },
    "flags": {},
    "img": "systems/pf2e/icons/features/ancestry/hillock-halfling.webp",
    "name": "Hillock Halfling",
    "type": "heritage"
}
