{
    "_id": "CCwTBSNTw0caN1jd",
    "data": {
        "ancestry": {
            "name": "Fleshwarp",
            "uuid": "Compendium.pf2e.ancestries.FXlXmNBFiiz9oasi"
        },
        "description": {
            "value": "<p>Transformed by uncontrolled magic, you originated in a the Mana Wastes or another region similarly devastated by uncontrolled magic. Due to your toughened or redundant organs, the DC for your checks to recover from persistent bleed damage is @Check[type:flat|dc:10]{10} instead of 15, and it's reduced to @Check[type:flat|dc:5]{5} instead of 10 if you have particularly effective assistance recovering from the persistent damage.</p>"
        },
        "rules": [],
        "source": {
            "value": "Pathfinder Lost Omens: Ancestry Guide"
        },
        "traits": {
            "custom": "",
            "rarity": "common",
            "value": []
        }
    },
    "flags": {},
    "img": "systems/pf2e/icons/default-icons/heritage.svg",
    "name": "Mutated Fleshwarp",
    "type": "heritage"
}
