{
    "_id": "9mS8EGLlGUOzSAzP",
    "data": {
        "ancestry": {
            "name": "Strix",
            "uuid": "Compendium.pf2e.ancestries.GXcC6oVa5quzgNHD"
        },
        "description": {
            "value": "<p>You are a dedicated nocturnal avian, keeping watch and predating in the most lightless environments. You gain @Compendium[pf2e.ancestryfeatures.Darkvision]{Darkvision}.</p>"
        },
        "rules": [
            {
                "key": "Sense",
                "label": "PF2E.SensesDarkvision",
                "selector": "darkvision"
            }
        ],
        "source": {
            "value": "Pathfinder Lost Omens: Ancestry Guide"
        },
        "traits": {
            "custom": "",
            "rarity": "common",
            "value": []
        }
    },
    "flags": {},
    "img": "systems/pf2e/icons/default-icons/heritage.svg",
    "name": "Nightglider Strix",
    "type": "heritage"
}
