{
    "_id": "vDEfNzjLpGJU54cz",
    "data": {
        "ancestry": {
            "name": "Shisk",
            "uuid": "Compendium.pf2e.ancestries.x1YinOddgUxwOLqP"
        },
        "description": {
            "value": "<p>Your body has adapted a defensive mechanism to break off your quills in an attacker, allowing you to defend yourself against aggressive predators, though it takes a while for the quills to grow back. You gain the @Compendium[pf2e.actionspf2e.Barbed Quills]{Barbed Quills} reaction.</p>"
        },
        "rules": [
            {
                "key": "GrantItem",
                "uuid": "Compendium.pf2e.actionspf2e.Barbed Quills"
            }
        ],
        "source": {
            "value": "Pathfinder Lost Omens: The Mwangi Expanse"
        },
        "traits": {
            "custom": "",
            "rarity": "common",
            "value": []
        }
    },
    "flags": {},
    "img": "systems/pf2e/icons/default-icons/heritage.svg",
    "name": "Quillcoat Shisk",
    "type": "heritage"
}
