{
    "_id": "NWsZ0cIeghyzk9bU",
    "data": {
        "ancestry": {
            "name": "Catfolk",
            "uuid": "Compendium.pf2e.ancestries.972EkpJOPv9KkQIW"
        },
        "description": {
            "value": "<p>You were born with big, expressive ears that move with your moods and perk up at any unexpected sound. You gain a +2 circumstance bonus to locate undetected creatures that you could hear within 30 feet with a Seek action.</p>\n<p>As long as you're aware of a creature via sound, once per round, your ears can help you @Compendium[pf2e.actionspf2e.Point Out]{Point Out} the creature to all allies as a free action.</p>"
        },
        "rules": [
            {
                "key": "FlatModifier",
                "label": "To Seek undetected within 30 feet via hearing (Sharp-Eared Catfolk)",
                "predicate": {
                    "all": [
                        "action:seek",
                        "sense:hearing",
                        "target:within-30"
                    ]
                },
                "selector": "perception",
                "type": "circumstance",
                "value": 2
            }
        ],
        "source": {
            "value": "Pathfinder Lost Omens: Ancestry Guide"
        },
        "traits": {
            "custom": "",
            "rarity": "common",
            "value": []
        }
    },
    "flags": {},
    "img": "systems/pf2e/icons/default-icons/heritage.svg",
    "name": "Sharp-Eared Catfolk",
    "type": "heritage"
}
