{
    "_id": "2kSzKDtwbcILZTIe",
    "data": {
        "ancestry": {
            "name": "Grippli",
            "uuid": "Compendium.pf2e.ancestries.hXM5jXezIki1cMI2"
        },
        "description": {
            "value": "<p>Your tongue is especially long, and you can launch it with extraordinary range and precision. You can use your tongue to deliver touch-range spells and perform extremely simple Interact actions, such as opening some types of unlocked doors. Your tongue can't perform actions that require fingers or significant manual dexterity, including any action that would require a check to accomplish, and you can't use it to hold items.</p>"
        },
        "rules": [],
        "source": {
            "value": "Pathfinder Lost Omens: The Mwangi Expanse"
        },
        "traits": {
            "custom": "",
            "rarity": "common",
            "value": []
        }
    },
    "flags": {},
    "img": "systems/pf2e/icons/default-icons/heritage.svg",
    "name": "Snaptongue Grippli",
    "type": "heritage"
}
