{
    "_id": "0TFf82gcfxXG9A54",
    "data": {
        "ancestry": {
            "name": "Shisk",
            "uuid": "Compendium.pf2e.ancestries.x1YinOddgUxwOLqP"
        },
        "description": {
            "value": "<p>Your magical knowledge allows you to cast simple spells. Choose occult or primal. You gain one cantrip from that magical tradition's spell list. You can cast this spell as an innate spell at will, as a spell of your chosen tradition. A cantrip is heightened to a spell level equal to half your level rounded up.</p>"
        },
        "rules": [],
        "source": {
            "value": "Pathfinder Lost Omens: The Mwangi Expanse"
        },
        "traits": {
            "custom": "",
            "rarity": "common",
            "value": []
        }
    },
    "flags": {},
    "img": "systems/pf2e/icons/default-icons/heritage.svg",
    "name": "Spellkeeper Shisk",
    "type": "heritage"
}
