{
    "_id": "C16JgmeJJG249WXz",
    "data": {
        "description": {
            "value": "<p>When in mask form, your familiar can hide its obvious supernatural qualities to pass as a simple, unassuming mask. It doesn't need to Impersonate to fool a passing glance, and it gains a +4 circumstance bonus to its Deception DC against an active observer Seeking or otherwise studying it.</p>"
        },
        "duration": {
            "expiry": "turn-start",
            "sustained": false,
            "unit": "unlimited",
            "value": -1
        },
        "level": {
            "value": 1
        },
        "rules": [],
        "source": {
            "value": ""
        },
        "start": {
            "initiative": null,
            "value": 0
        },
        "target": null,
        "tokenIcon": {
            "show": false
        },
        "traits": {
            "custom": "",
            "rarity": "common",
            "value": []
        }
    },
    "flags": {},
    "img": "systems/pf2e/icons/actions/Passive.webp",
    "name": "Mask Freeze",
    "type": "effect"
}
