{
    "_id": "asOhEdyF8CWFbR96",
    "data": {
        "badge": null,
        "description": {
            "value": "<p>Choose a spell in your repertoire or that you prepared today at least 5 levels lower than your highest-level spell slot. Your familiar can Cast that Spell once per day using your magical tradition, spell attack modifier, and spell DC. If the spell has a drawback that affects the caster, both you and your familiar are affected. You must be able to cast 6th-level spells using spell slots to select this.</p>"
        },
        "duration": {
            "expiry": "turn-start",
            "sustained": false,
            "unit": "unlimited",
            "value": -1
        },
        "level": {
            "value": 1
        },
        "rules": [],
        "source": {
            "value": ""
        },
        "start": {
            "initiative": null,
            "value": 0
        },
        "target": null,
        "tokenIcon": {
            "show": false
        },
        "traits": {
            "custom": "",
            "rarity": "common",
            "value": []
        }
    },
    "flags": {},
    "img": "systems/pf2e/icons/actions/Passive.webp",
    "name": "Spellcasting",
    "type": "effect"
}
