{
    "_id": "PeuUz7JaabCgl6Yh",
    "data": {
        "description": {
            "value": "<p>Granted by @Compendium[pf2e.equipment-srd.Cheetah's Elixir (Greater)]{Cheetah's Elixir (Greater)}</p>\n<p>Automatically applied effects:</p>\n<ul>\n<li>+10 foot status bonus to Speed</li>\n</ul>"
        },
        "duration": {
            "expiry": "turn-start",
            "sustained": false,
            "unit": "hours",
            "value": 1
        },
        "level": {
            "value": 9
        },
        "rules": [
            {
                "key": "FlatModifier",
                "selector": "speed",
                "type": "status",
                "value": 10
            }
        ],
        "source": {
            "value": ""
        },
        "start": {
            "initiative": null,
            "value": 0
        },
        "target": null,
        "tokenIcon": {
            "show": true
        },
        "traits": {
            "custom": "",
            "rarity": "common",
            "value": []
        }
    },
    "flags": {},
    "img": "systems/pf2e/icons/equipment/alchemical-items/alchemical-elixirs/cheetahs-elixir.webp",
    "name": "Effect: Cheetah's Elixir (Greater)",
    "type": "effect"
}
