{
    "_id": "jrPmEfubRDzMKbxl",
    "data": {
        "ability": [
            "int",
            "wis"
        ],
        "alignment": {
            "follower": [
                "LG",
                "NG",
                "CG",
                "N"
            ],
            "own": "NG"
        },
        "description": {
            "value": "<p><strong>Arundhat</strong> is a goddess of the Vudran pantheon known as the bringer of blossoms and scent.</p>\n<p><strong>Edicts</strong> Practice herbalism, tend to sacred flowers, offer appropriate flowers to other divinities</p>\n<p><strong>Anathema</strong> Dispose of waste near flowers, harvest flowers without offering the proper prayers, dispose of withered flowers improperly</p>"
        },
        "domains": {
            "alternate": [],
            "primary": [
                "healing",
                "magic",
                "nature",
                "protection"
            ]
        },
        "font": [
            "heal"
        ],
        "rules": [],
        "skill": "nat",
        "source": {
            "value": "Pathfinder Lost Omens: Gods & Magic"
        },
        "spells": {
            "1": "Compendium.pf2e.spells-srd.s3abwDbTV43pGFFW",
            "3": "Compendium.pf2e.spells-srd.AMEu5zzLN7uCX645",
            "4": "Compendium.pf2e.spells-srd.qvwIwJ9QBihy8R0t"
        },
        "weapons": [
            "staff"
        ]
    },
    "flags": {},
    "img": "systems/pf2e/icons/default-icons/deity.svg",
    "name": "Arundhat",
    "type": "deity"
}
