{
    "_id": "yiKle2URZ43KYVKQ",
    "data": {
        "ability": [
            "str",
            "con"
        ],
        "alignment": {
            "follower": [
                "NG",
                "N",
                "NE"
            ],
            "own": "N"
        },
        "description": {
            "value": "<p>Chamidu is a Vudran goddess with an affinity for the beasts of the world. She is sometimes represented as a six-armed woman with four faces (one looking in each cardinal direction) and may ride a tiger with human hands for paws. She sometimes wields numerous weapons simultaneously.</p>\n<p><strong>Edicts</strong> Destroy aberrant creatures and fiends, live free of social or materialistic chains, cause destruction when angered</p>\n<p><strong>Anathema</strong> Harm a child, pollute the wilds, refuse to treat an illness</p>"
        },
        "domains": {
            "alternate": [],
            "primary": [
                "healing",
                "lightning",
                "nature",
                "nightmares"
            ]
        },
        "font": [
            "harm",
            "heal"
        ],
        "rules": [],
        "skill": "med",
        "source": {
            "value": "Pathfinder Lost Omens: Gods & Magic"
        },
        "spells": {
            "1": "Compendium.pf2e.spells-srd.4YnON9JHYqtLzccu",
            "3": "Compendium.pf2e.spells-srd.9AAkVUCwF6WVNNY2",
            "5": "Compendium.pf2e.spells-srd.YtesyvfAIwXOqISq"
        },
        "weapons": [
            "spear"
        ]
    },
    "flags": {},
    "img": "systems/pf2e/icons/default-icons/deity.svg",
    "name": "Chamidu",
    "type": "deity"
}
