{
    "_id": "XHDlP7o1jNz9851v",
    "data": {
        "ability": [
            "str",
            "dex"
        ],
        "alignment": {
            "follower": [
                "LN",
                "LE"
            ],
            "own": "LE"
        },
        "description": {
            "value": "<p><strong>Edicts</strong> Remain celibate and detached from worldly pleasures, meditate, utterly destroy your enemies, erase all traces of defeated foes</p>\n<p><strong>Anathema</strong> Provoke a fight, give mercy to anyone who provokes a fight with you</p>"
        },
        "domains": {
            "alternate": [],
            "primary": [
                "destruction",
                "earth",
                "water",
                "zeal"
            ]
        },
        "font": [
            "harm",
            "heal"
        ],
        "rules": [],
        "skill": "ath",
        "source": {
            "value": "Pathfinder Lost Omens: Gods & Magic"
        },
        "spells": {
            "1": "Compendium.pf2e.spells-srd.R8bqnYiThB6MYTxD",
            "2": "Compendium.pf2e.spells-srd.X3dYByf3YmkcdwG0",
            "4": "Compendium.pf2e.spells-srd.8M03UxGXjYyDFAoy"
        },
        "weapons": [
            "scimitar"
        ]
    },
    "flags": {},
    "img": "systems/pf2e/icons/default-icons/deity.svg",
    "name": "Diomazul",
    "type": "deity"
}
