{
    "_id": "iXvyp9rGnqvFfy4q",
    "data": {
        "ability": [
            "str",
            "wis"
        ],
        "alignment": {
            "follower": [
                "LG",
                "NG",
                "CG"
            ],
            "own": "NG"
        },
        "description": {
            "value": "<p>Kazutal, also known as Mother Jaguar or Lady Jaguar, is an old deity, revered for thousands of years on the continent of Arcadia. Ages ago, she was worshipped in the Razatlani Empire as a goddess of might and protection in war. After the catastrophe of Earthfall, however, her edge softened; those who struggled to put the world back together called upon her to protect their neighbors and came together under her guidance to build strong bonds of community and support.</p>\n<p><strong>Edicts</strong> defend your people, provide for those who need you, oppose those who unjustly lord power over others, demonstrate devotion to things you love</p>\n<p><strong>Anathema</strong> own a slave, force a creature to act against its will, refuse to give aid to an ally, enforce an unjust law</p>\n<p><strong>Areas of Concern</strong> safety, liberty, and community</p>"
        },
        "domains": {
            "alternate": [
                "cities"
            ],
            "primary": [
                "family",
                "freedom",
                "might",
                "protection"
            ]
        },
        "font": [
            "heal"
        ],
        "rules": [],
        "skill": "soc",
        "source": {
            "value": "Pathfinder Lost Omens: Gods & Magic"
        },
        "spells": {
            "1": "Compendium.pf2e.spells-srd.aAbfKn8maGjJjk2W",
            "3": "Compendium.pf2e.spells-srd.wp09USMB3GIW1qbp",
            "4": "Compendium.pf2e.spells-srd.2BV2yYPfVJ5zirZt"
        },
        "weapons": [
            "machete"
        ]
    },
    "flags": {},
    "img": "systems/pf2e/icons/default-icons/deity.svg",
    "name": "Kazutal",
    "type": "deity"
}
