{
    "_id": "MbJ93Nw39h2cBYi5",
    "data": {
        "ability": [
            "dex",
            "int"
        ],
        "alignment": {
            "follower": [
                "N",
                "LE",
                "NE",
                "CE"
            ],
            "own": "NE"
        },
        "description": {
            "value": "<p><strong>Edicts</strong> Work quietly toward your goals in the shadows, steal what you need, keep an ear among the ignored and downtrodden</p>\n<p><strong>Anathema</strong> Work honestly for something you could steal instead, risk too much for another creature</p>"
        },
        "domains": {
            "alternate": [],
            "primary": [
                "darkness",
                "luck",
                "swarm",
                "trickery"
            ]
        },
        "font": [
            "harm"
        ],
        "rules": [],
        "skill": "thi",
        "source": {
            "value": "Pathfinder Lost Omens: Gods & Magic"
        },
        "spells": {
            "1": "Compendium.pf2e.spells-srd.4YnON9JHYqtLzccu",
            "2": "Compendium.pf2e.spells-srd.6Ot4N22t5tPD51BO",
            "3": "Compendium.pf2e.spells-srd.EoKBlgf6Smt8opaU"
        },
        "weapons": [
            "dagger"
        ]
    },
    "flags": {},
    "img": "systems/pf2e/icons/deity/Lao%20Shu%20Po.webp",
    "name": "Lao Shu Po",
    "type": "deity"
}
