{
    "_id": "lUFMwdv1UOyzFhIM",
    "data": {
        "ability": [
            "int",
            "cha"
        ],
        "alignment": {
            "follower": [
                "NG",
                "LN",
                "N",
                "CN"
            ],
            "own": "N"
        },
        "description": {
            "value": "<p><strong>Edicts</strong> Tell history to others, sponsor or perform in plays and recitals, adapt ancient works into modern language</p>\n<p><strong>Anathema</strong> Begin a performance or tale without first inviting the gods to watch, act out a death on stage</p>"
        },
        "domains": {
            "alternate": [],
            "primary": [
                "creation",
                "knowledge",
                "passion",
                "sorrow"
            ]
        },
        "font": [
            "harm",
            "heal"
        ],
        "rules": [],
        "skill": "prf",
        "source": {
            "value": "Pathfinder Lost Omens: Gods & Magic"
        },
        "spells": {
            "1": "Compendium.pf2e.spells-srd.i35dpZFI7jZcRoBo",
            "3": "Compendium.pf2e.spells-srd.IihxWhRfpsBgQ5jS",
            "5": "Compendium.pf2e.spells-srd.Ucf8eynbZMfUucjE"
        },
        "weapons": [
            "hatchet"
        ]
    },
    "flags": {},
    "img": "systems/pf2e/icons/default-icons/deity.svg",
    "name": "Likha",
    "type": "deity"
}
