{
    "_id": "gsFaxWHbZmc1moY6",
    "data": {
        "ability": [
            "wis",
            "cha"
        ],
        "alignment": {
            "follower": [
                "NG",
                "LN",
                "N",
                "NE"
            ],
            "own": "N"
        },
        "description": {
            "value": "<p><strong>Edicts</strong> Seek out magic and use it, use poison, heal poisons, bear or adopt children, raise snakes</p>\n<p><strong>Anathema</strong> Kill a harmless snake or swan, spurn friends due to jealousy or romantic competition, betray your offspring, separate lovers</p>"
        },
        "domains": {
            "alternate": [],
            "primary": [
                "glyph",
                "magic",
                "passion",
                "wyrmkin"
            ]
        },
        "font": [
            "harm",
            "heal"
        ],
        "rules": [],
        "skill": "arc",
        "source": {
            "value": "Pathfinder Lost Omens: Gods & Magic"
        },
        "spells": {
            "1": "Compendium.pf2e.spells-srd.vLA0q0WOK2YPuJs6",
            "2": "Compendium.pf2e.spells-srd.XXqE1eY3w3z6xJCB",
            "3": "Compendium.pf2e.spells-srd.9AAkVUCwF6WVNNY2",
            "4": "Compendium.pf2e.spells-srd.Mv5L4201uk8hnAtD",
            "5": "Compendium.pf2e.spells-srd.GP3wewkQXEPrLxYj",
            "6": "Compendium.pf2e.spells-srd.WPXzPl7YbMEIGWfi",
            "7": "Compendium.pf2e.spells-srd.WG91Z5TiR6oO5FOw",
            "8": "Compendium.pf2e.spells-srd.uEyfLoFQsRKBRIcB",
            "9": "Compendium.pf2e.spells-srd.r4HLQcYwB62bTayl"
        },
        "weapons": [
            "jaws",
            "urumi"
        ]
    },
    "flags": {},
    "img": "systems/pf2e/icons/deity/Nalinivati.webp",
    "name": "Nalinivati",
    "type": "deity"
}
