{
    "_id": "WO9UsCY41oTtC2G0",
    "data": {
        "ability": [
            "int",
            "wis"
        ],
        "alignment": {
            "follower": [
                "LN",
                "N",
                "CN"
            ],
            "own": "N"
        },
        "description": {
            "value": "<p><strong>Edicts</strong> Seek new knowledge, use your knowledge and skill to improve the world around you, protect knowledge from becoming lost</p>\n<p><strong>Anathema</strong> Choose to use old knowledge or tools after they have been improved upon, destroy knowledge, refuse to answer a query for which you know the answer</p>\n<p><strong>Areas of Concern</strong> Learning, innovation, safeguarding knowledge</p>\n<p><strong>Pantheon Members</strong> @Compendium[pf2e.deities.Brigh]{Brigh}, @Compendium[pf2e.deities.Casandalee]{Casandalee}, @Compendium[pf2e.deities.Irori]{Irori}, @Compendium[pf2e.deities.Shyka]{Shyka}, @Compendium[pf2e.deities.Ydajisk]{Ydajisk}</p>"
        },
        "domains": {
            "alternate": [
                "glyph",
                "perfection",
                "time"
            ],
            "primary": [
                "creation",
                "knowledge",
                "secrecy",
                "truth"
            ]
        },
        "font": [
            "harm",
            "heal"
        ],
        "rules": [],
        "skill": "cra",
        "source": {
            "value": "Pathfinder Blog"
        },
        "spells": {
            "1": "Compendium.pf2e.spells-srd.Z7N5IxJCwrAdIgSg",
            "3": "Compendium.pf2e.spells-srd.ZYoC630tNGutgbE0",
            "9": "Compendium.pf2e.spells-srd.rsZ5c0AUyywe5yoK"
        },
        "weapons": [
            "light-hammer"
        ]
    },
    "flags": {},
    "img": "systems/pf2e/icons/default-icons/deity.svg",
    "name": "Pillars of Knowledge",
    "type": "deity"
}
