{
    "_id": "0nQItOlce5ua6Eaf",
    "data": {
        "ability": [
            "str",
            "wis"
        ],
        "alignment": {
            "follower": [
                "CG",
                "N",
                "CN",
                "CE"
            ],
            "own": "CN"
        },
        "description": {
            "value": "<p><strong>Edicts</strong> Slaughter your enemies, drink the blood of defeated foes, heal battle injuries</p>\n<p><strong>Anathema</strong> Spare an evil fiend, fail to placate Sekhmet with daily rituals</p>"
        },
        "domains": {
            "alternate": [],
            "primary": [
                "destruction",
                "healing",
                "indulgence",
                "might"
            ]
        },
        "font": [
            "harm",
            "heal"
        ],
        "rules": [],
        "skill": "med",
        "source": {
            "value": "Pathfinder Lost Omens: Gods & Magic"
        },
        "spells": {
            "1": "Compendium.pf2e.spells-srd.Gb7SeieEvd0pL2Eh",
            "4": "Compendium.pf2e.spells-srd.IarZrgCeaiUqOuRu",
            "5": "Compendium.pf2e.spells-srd.YtesyvfAIwXOqISq"
        },
        "weapons": [
            "claw",
            "battle-axe"
        ]
    },
    "flags": {},
    "img": "systems/pf2e/icons/default-icons/deity.svg",
    "name": "Sekhmet",
    "type": "deity"
}
