{
    "_id": "xTD0XFaguBX6QQ2L",
    "data": {
        "ability": [
            "dex",
            "wis"
        ],
        "alignment": {
            "follower": [
                "NG",
                "CG",
                "CN"
            ],
            "own": "CG"
        },
        "description": {
            "value": "<p><strong>Edicts</strong> Avenge the wronged, protect the dead and the vulnerable, use poison and suffocation, heal others</p>\n<p><strong>Anathema</strong> Poison someone you didn't intend to, harm a creature as punishment for a different creature's crime, desecrate a corpse</p>"
        },
        "domains": {
            "alternate": [],
            "primary": [
                "healing",
                "magic",
                "nature",
                "protection"
            ]
        },
        "font": [
            "heal"
        ],
        "rules": [],
        "skill": "med",
        "source": {
            "value": "Pathfinder Lost Omens: Gods & Magic"
        },
        "spells": {
            "1": "Compendium.pf2e.spells-srd.szIyEsvihc5e1w8n",
            "3": "Compendium.pf2e.spells-srd.DCQHaLrYXMI37dvW",
            "6": "Compendium.pf2e.spells-srd.ayRXv0wQH00TTNZe"
        },
        "weapons": [
            "whip"
        ]
    },
    "flags": {},
    "img": "systems/pf2e/icons/default-icons/deity.svg",
    "name": "Selket",
    "type": "deity"
}
