{
    "_id": "fTs56epghXwclPcX",
    "data": {
        "ability": [
            "con",
            "int"
        ],
        "alignment": {
            "follower": [
                "LG",
                "NG",
                "CG",
                "LN",
                "N",
                "CN",
                "LE",
                "NE"
            ],
            "own": "N"
        },
        "description": {
            "value": "<p><strong>Edicts</strong> Provide shelter and succor for women and children in need, act as a responsible steward of your environment</p>\n<p><strong>Anathema</strong> Harm a pregnant mother or innocent child, including animals</p>"
        },
        "domains": {
            "alternate": [],
            "primary": [
                "family",
                "healing",
                "nature",
                "pain"
            ]
        },
        "font": [
            "heal"
        ],
        "rules": [],
        "skill": "med",
        "source": {
            "value": "Pathfinder Lost Omens: Gods & Magic"
        },
        "spells": {
            "1": "Compendium.pf2e.spells-srd.R8bqnYiThB6MYTxD",
            "2": "Compendium.pf2e.spells-srd.wp09USMB3GIW1qbp",
            "6": "Compendium.pf2e.spells-srd.znv4ECL7ZtuiagtA"
        },
        "weapons": [
            "ranseur"
        ]
    },
    "flags": {},
    "img": "systems/pf2e/icons/default-icons/deity.svg",
    "name": "Stag Mother of the Forest of Stones",
    "type": "deity"
}
