{
    "_id": "VG51y4FbTLdeGHZB",
    "data": {
        "ability": [
            "int",
            "wis"
        ],
        "alignment": {
            "follower": [
                "NG",
                "CG",
                "CN"
            ],
            "own": "CG"
        },
        "description": {
            "value": "<p>The Path of the Heavens is well known to those who make their way in Golarion. Looking down from above, these deities help travelers and voyagers find their path. Their guidance can be literal, or for others, more spiritual—some worshippers seek to know the progress of Sarenrae (the sun), Tsukiyo (the moon), and Desna (the stars) and through this knowledge gain enlightenment. Nocticula, the last member of the pantheon, for her part uses the cover of the darkness, the gaps in between the others, to shelter travelers and outcasts. Some who worship her as their primary deity in the pantheon seek to use the void between the stars to defend voyagers on the road. Though this is frowned upon by the other members of the Path of the Heavens, it does not seem to disrupt the harmony between the gods.</p>\n<p><strong>Edicts</strong> guide travelers; observe the movements of the moon, planets, and stars</p>\n<p><strong>Anathema</strong> mislead a traveler, permanently blind an enemy</p>\n<p><strong>Areas of Concern</strong> Celestial bodies, navigation, travelers</p>\n<p><strong>Pantheon Members</strong> @Compendium[pf2e.deities.Desna]{Desna}, @Compendium[pf2e.deities.Nocticula]{Nocticula}, @Compendium[pf2e.deities.Sarenrae]{Sarenrae}, @Compendium[pf2e.deities.Tsukiyo]{Tsukiyo}</p>"
        },
        "domains": {
            "alternate": [
                "toil",
                "void"
            ],
            "primary": [
                "moon",
                "star",
                "sun",
                "travel"
            ]
        },
        "font": [
            "heal"
        ],
        "rules": [],
        "skill": "sur",
        "source": {
            "value": "Pathfinder Blog"
        },
        "spells": {
            "1": "Compendium.pf2e.spells-srd.KcLVELhCUcKXxiKE",
            "2": "Compendium.pf2e.spells-srd.2ZdHjnpEQJuqOYSG",
            "3": "Compendium.pf2e.spells-srd.06pzGkKTyPE3tHR8"
        },
        "weapons": [
            "starknife"
        ]
    },
    "flags": {},
    "img": "systems/pf2e/icons/default-icons/deity.svg",
    "name": "The Path of the Heavens",
    "type": "deity"
}
