{
    "_id": "EUOAV02rHz96jMPh",
    "data": {
        "ability": [],
        "alignment": {
            "follower": [
                "LE",
                "NE",
                "CE"
            ],
            "own": null
        },
        "description": {
            "value": "<p>These cultists believe undeath is the truest form of existence, and life is meant to be spent in preparation for transition to a more glorious unlife after death.</p>\n<p><strong>Edicts</strong> seek methods to become undead (a lich if possible), oppose those who seek to destroy undead, protect necromantic secrets, serve the Whispering Tyrant</p>\n<p><strong>Anathema</strong> destroy necromantic texts (unless they reveal secrets of the Whispering Way), teach others of the Whispering Way other than by whispering, use positive energy to harm undead</p>"
        },
        "domains": {
            "alternate": [],
            "primary": []
        },
        "font": [],
        "rules": [],
        "skill": null,
        "source": {
            "value": "Pathfinder Core Rulebook"
        },
        "spells": {},
        "weapons": []
    },
    "flags": {},
    "img": "systems/pf2e/icons/default-icons/deity.svg",
    "name": "Whispering Way",
    "type": "deity"
}
