{
    "_id": "fVfFKKvGocG2JM5q",
    "content": "<p><strong>Deities</strong> @Compendium[pf2e.deities.Chohar]{Chohar}, @Compendium[pf2e.deities.Droskar]{Droskar}, @Compendium[pf2e.deities.Lissala]{Lissala}, @Compendium[pf2e.deities.Mammon]{Mammon}, @Compendium[pf2e.deities.Sairazul]{Sairazul}, @Compendium[pf2e.deities.The Path of the Heavens]{The Path of the Heavens}</p>\n<p><strong>Domain Spell</strong> <em>@Compendium[pf2e.spells-srd.Practice Makes Perfect]{Practice Makes Perfect}</em>; <strong>Advanced Domain Spell</strong> <em>@Compendium[pf2e.spells-srd.Tireless Worker]{Tireless Worker}</em></p>\n<p>You work constantly and refuse to let anything stand in your way.</p>",
    "flags": {},
    "name": "Toil Domain",
    "permission": {
        "default": 0
    }
}
