{
    "_id": "6iDd7CTzxkvMp6lB",
    "data": {
        "actionCategory": {
            "value": ""
        },
        "actionType": {
            "value": "reaction"
        },
        "actions": {
            "value": null
        },
        "description": {
            "value": "<p><strong>Frequency</strong> once per hour</p>\n<p><strong>Trigger</strong> You @Compendium[pf2e.actionspf2e.Cast a Spell]{Cast a Spell} that has the monk trait.</p>\n<hr />\n<p>The power of your ki soothes your wounds and energizes you for battle. You regain Hit Points equal to your level plus your Wisdom modifier.</p>"
        },
        "featType": {
            "value": "class"
        },
        "level": {
            "value": 6
        },
        "prerequisites": {
            "value": [
                {
                    "value": "ki spells"
                }
            ]
        },
        "rules": [],
        "source": {
            "value": "Pathfinder Advanced Player's Guide"
        },
        "traits": {
            "custom": "",
            "rarity": "common",
            "value": [
                "monk"
            ]
        }
    },
    "flags": {},
    "img": "systems/pf2e/icons/features/feats/feats.webp",
    "name": "Align Ki",
    "type": "feat"
}
