{
    "_id": "7F3sTNRoNsQgD8tX",
    "data": {
        "actionCategory": {
            "value": ""
        },
        "actionType": {
            "value": "passive"
        },
        "actions": {
            "value": null
        },
        "description": {
            "value": "<p>You have a specific disguise that you keep at the ready, worn underneath your outer garment. You can change into this disguise to @Compendium[pf2e.actionspf2e.Impersonate]{Impersonate} as a 3-action activity. If you have master proficiency in Deception, it is instead a 2-action activity, and if you have legendary proficiency, it is a single action. You can create a new backup disguise by spending the normal amount of time it takes you to Impersonate, but you can have only one backup disguise at a time. Having a backup disguise doesn't allow you to remove your armor or any other complex piece of clothing any more quickly, but once you have those off, the disguise is readily available. Because you have the backup disguise at the ready, it's possible that a thorough search might reveal some elements of the disguise (see Conceal an Object in the Stealth skill).</p>"
        },
        "featType": {
            "value": "skill"
        },
        "level": {
            "value": 2
        },
        "location": "",
        "prerequisites": {
            "value": [
                {
                    "value": "expert in Deception"
                }
            ]
        },
        "rules": [],
        "source": {
            "value": "Pathfinder Lost Omens: Character Guide"
        },
        "traits": {
            "custom": "",
            "rarity": "uncommon",
            "value": [
                "general",
                "skill"
            ]
        }
    },
    "flags": {},
    "img": "systems/pf2e/icons/features/feats/feats.webp",
    "name": "Backup Disguise",
    "type": "feat"
}
