{
    "_id": "WqTqHPDbargixuej",
    "data": {
        "actionCategory": {
            "value": ""
        },
        "actionType": {
            "value": "passive"
        },
        "actions": {
            "value": null
        },
        "description": {
            "value": "<p>In even a brief conversation or social interaction, you pick up on subtle social and visual cues to learn a great deal about a person's origin and history. You might notice bits of green under the person's fingernails and determine they're an herbalist, a pin indicating their membership in a secret society, or something similar. You pick up on only details that have to do with their societal role, so you might learn the city district where a vampire lives, but wouldn't learn any of their weaknesses, nor necessarily even that they are a vampire.</p>\n<p>Spend 1 minute in the presence of someone you haven't met before, or haven't met since you first gained Biographical Eye, then attempt a DC 30 Society check. You gain a +1 circumstance bonus to the check if you engaged the person in conversation during this time. If the person is deliberately trying to conceal their nature or present a false identity, you learn about their false biography rather than their true one unless the result of your Society check exceeds their Will DC.</p>\n<hr />\n<p><strong>Critical Success</strong> You learn the creature's profession, their</p>\n<p>specialty within that profession, and a major accomplishment</p>\n<p>or controversy from their career. You also learn the nation</p>\n<p>and settlement where they live, as well as the district in a</p>\n<p>city large enough to have districts. In addition, you learn the</p>\n<p>nation or settlement where they spent their formative years.</p>\n<p><strong>Success</strong> You learn the creature's profession and specialty</p>\n<p>within that profession. You learn the nation or settlement</p>\n<p>where they normally live.</p>\n<p><strong>Failure</strong> You learn the creature's profession and the region of</p>\n<p>the world they hail from, but no more.</p>\n<p><strong>Critical Failure</strong> You learn a piece of erroneous information</p>\n<p>about the creature.</p>"
        },
        "featType": {
            "value": "skill"
        },
        "level": {
            "value": 7
        },
        "prerequisites": {
            "value": [
                {
                    "value": "master in Society"
                }
            ]
        },
        "rules": [],
        "source": {
            "value": "Pathfinder Advanced Player's Guide"
        },
        "traits": {
            "custom": "",
            "rarity": "common",
            "value": [
                "general",
                "secret",
                "skill"
            ]
        }
    },
    "flags": {},
    "img": "systems/pf2e/icons/features/feats/feats.webp",
    "name": "Biographical Eye",
    "type": "feat"
}
