{
    "_id": "LvVg83ZDj8mabcWF",
    "data": {
        "actionCategory": {
            "value": ""
        },
        "actionType": {
            "value": "passive"
        },
        "actions": {
            "value": null
        },
        "description": {
            "value": "<p><strong>Access</strong> You are from Dongun Hold or Alkenstar.</p>\n<hr />\n<p>Raised in the ancient halls of Dongun Hold or the surrounding region, you display your lineage with a clan pistol, rather than a clan dagger. You get one clan pistol of your clan for free, as it was given to you at birth. This replaces your clan dagger. Selling this pistol is a terrible taboo and earns you the disdain of other dwarves. You are trained with the clan pistol. In addition, when your clan pistol is visible, you gain a +1 circumstance bonus on checks to @Compendium[pf2e.actionspf2e.Gather Information]{Gather Information} or @Compendium[pf2e.actionspf2e.Make an Impression]{Make an Impression} when interacting with citizens of Alkenstar, Dongun Hold, or their allies.</p>"
        },
        "featType": {
            "value": "ancestry"
        },
        "level": {
            "value": 1
        },
        "location": "ancestry-1",
        "prerequisites": {
            "value": []
        },
        "rules": [
            {
                "key": "GrantItem",
                "uuid": "Compendium.pf2e.equipment-srd.Clan Pistol"
            },
            {
                "key": "FlatModifier",
                "predicate": {
                    "all": [
                        "dongun-ally"
                    ],
                    "any": [
                        "action:gather-information",
                        "action:make-an-impression"
                    ]
                },
                "selector": "diplomacy",
                "type": "circumstance",
                "value": 1
            },
            {
                "key": "ActiveEffectLike",
                "mode": "upgrade",
                "path": "data.martial.weapon-base-clan-pistol.rank",
                "value": 1
            }
        ],
        "source": {
            "value": ""
        },
        "traits": {
            "custom": "",
            "rarity": "uncommon",
            "value": [
                "dwarf"
            ]
        }
    },
    "flags": {},
    "img": "systems/pf2e/icons/default-icons/feats.webp",
    "name": "Clan Pistol",
    "type": "feat"
}
