{
    "_id": "RL4GrJ2vTrdJuzW1",
    "data": {
        "actionCategory": {
            "value": ""
        },
        "actionType": {
            "value": "passive"
        },
        "actions": {
            "value": null
        },
        "description": {
            "value": "<p>You climb like a spider. You gain a climb Speed of 15 feet.</p>"
        },
        "featType": {
            "value": "archetype"
        },
        "level": {
            "value": 4
        },
        "location": null,
        "prerequisites": {
            "value": [
                {
                    "value": "Vampire Dedication"
                },
                {
                    "value": "trained in Athletics"
                }
            ]
        },
        "rules": [
            {
                "key": "BaseSpeed",
                "selector": "climb",
                "value": 15
            }
        ],
        "source": {
            "value": "Pathfinder Book of the Dead"
        },
        "traits": {
            "custom": "",
            "rarity": "common",
            "value": [
                "archetype"
            ]
        }
    },
    "flags": {},
    "img": "systems/pf2e/icons/default-icons/feats.webp",
    "name": "Clinging Climber",
    "type": "feat"
}
