{
    "_id": "8JMOgtB3XG7o6ffW",
    "data": {
        "actionCategory": {
            "value": ""
        },
        "actionType": {
            "value": "passive"
        },
        "actions": {
            "value": null
        },
        "description": {
            "value": "<p>Your Inspire Courage lets loose a discordant shriek that imbues your allies' attacks with powerful sonic reverberations.</p>\n<p>While your allies are affected by your <em>@Compendium[pf2e.spells-srd.Inspire Courage]{Inspire Courage}</em>, their weapon strikes and unarmed attacks deal an additional [[/r {1d6}[sonic]]]{1d6 sonic damage}.</p>\n<p>@Compendium[pf2e.feat-effects.Effect: Discordant Voice]{Effect: Discordant Voice}</p>"
        },
        "featType": {
            "value": "class"
        },
        "level": {
            "value": 18
        },
        "location": "",
        "prerequisites": {
            "value": [
                {
                    "value": "inspire courage"
                }
            ]
        },
        "rules": [],
        "source": {
            "value": "Pathfinder Advanced Player's Guide"
        },
        "traits": {
            "custom": "",
            "rarity": "common",
            "value": [
                "bard",
                "evocation",
                "sonic"
            ]
        }
    },
    "flags": {},
    "img": "systems/pf2e/icons/features/feats/feats.webp",
    "name": "Discordant Voice",
    "type": "feat"
}
