{
    "_id": "DLE2rr5I1TBAk0I3",
    "data": {
        "actionCategory": {
            "value": "offensive"
        },
        "actionType": {
            "value": "passive"
        },
        "actions": {
            "value": null
        },
        "description": {
            "value": "<p>The venom injected by your fangs disorients your foes. A creature damaged by your @Compendium[pf2e.actionspf2e.Anadi Venom]{Anadi Venom} must attempt a @Check[type:fortitude|dc:resolve(@actor.attributes.classOrSpellDC.value)|traits:poison] save against your class or spell DC, whichever is higher, or become @Compendium[pf2e.conditionitems.Flat-Footed]{Flat-Footed} for 1 round.</p>"
        },
        "featType": {
            "value": "ancestry"
        },
        "level": {
            "value": 9
        },
        "location": null,
        "prerequisites": {
            "value": [
                {
                    "value": "Venomous Anadi"
                }
            ]
        },
        "rules": [],
        "source": {
            "value": "Pathfinder Lost Omens: The Mwangi Expanse"
        },
        "traits": {
            "custom": "",
            "rarity": "common",
            "value": [
                "anadi"
            ]
        }
    },
    "flags": {},
    "img": "systems/pf2e/icons/default-icons/feats.webp",
    "name": "Disorienting Venom",
    "type": "feat"
}
