{
    "_id": "8EbIznFgkG7PHqlE",
    "data": {
        "actionCategory": {
            "value": ""
        },
        "actionType": {
            "value": "passive"
        },
        "actions": {
            "value": null
        },
        "description": {
            "value": "<p>Your ability to tap into divine magic surpasses the spells traditionally available to you (the divine spell list).</p>\n<p>Choose one deity who grants one of your mystery's granted domains. Add up to three cleric spells of your choice granted by that deity to your spell list. You can select from these spells when you add or swap spells in your spell repertoire.</p>\n<p><strong>Special</strong> You can select this feat more than once. You can't choose the same spells more than once, but you can choose a different domain or a different deity with the same domain you've previously selected with this feat.</p>"
        },
        "featType": {
            "value": "class"
        },
        "level": {
            "value": 4
        },
        "prerequisites": {
            "value": []
        },
        "rules": [],
        "source": {
            "value": "Pathfinder Advanced Player's Guide"
        },
        "traits": {
            "custom": "",
            "rarity": "common",
            "value": [
                "oracle"
            ]
        }
    },
    "flags": {},
    "img": "systems/pf2e/icons/features/feats/feats.webp",
    "name": "Divine Access",
    "type": "feat"
}
