{
    "_id": "n3CbbtK4fgBznIMf",
    "data": {
        "actionCategory": {
            "value": ""
        },
        "actionType": {
            "value": "passive"
        },
        "actions": {
            "value": null
        },
        "description": {
            "value": "<p>You can call forth a benediction upon your allies, whether you pray to a deity of the celestial realms or just find the power within yourself. You can cast <em>@Compendium[pf2e.spells-srd.Bless]{Bless}</em> once per day as a 1st-level divine innate spell.</p>"
        },
        "featType": {
            "value": "ancestry"
        },
        "level": {
            "value": 5
        },
        "prerequisites": {
            "value": []
        },
        "rules": [],
        "source": {
            "value": "Pathfinder Advanced Player's Guide"
        },
        "traits": {
            "custom": "",
            "rarity": "common",
            "selected": {
                "aasimar": "Aasimar"
            },
            "value": [
                "aasimar"
            ]
        }
    },
    "flags": {},
    "img": "systems/pf2e/icons/features/feats/feats.webp",
    "name": "Empyreal Blessing",
    "type": "feat"
}
