{
    "_id": "dUnT3HWMFD3d2eBJ",
    "data": {
        "actionCategory": {
            "value": ""
        },
        "actionType": {
            "value": "action"
        },
        "actions": {
            "value": 1
        },
        "description": {
            "value": "<p><strong>Requirements</strong> The target ally lost Stamina Points within the last round.</p>\n<hr />\n<p>You give an ally within 30 feet a quick pep talk, helping them recover. Attempt a Diplomacy check. The DC is usually 15, though the GM might adjust it based on the circumstances. If you have expert proficiency in Diplomacy, you can instead attempt a DC 20 check to increase the Stamina Points recovered by 5; if you have master proficiency, you can attempt a DC 30 check to increase the Stamina Points by 15; if you have legendary proficiency, you can attempt a DC 40 check to increase the Stamina Points by 25. No matter the result, the ally is temporarily immune to Encouraging Words until they either @Compendium[pf2e.actionspf2e.Take a Breather]{Take a Breather} or rest for the day.</p>\n<hr />\n<p><strong>Critical Success</strong> The ally recovers 2d8 Stamina Points.</p>\n<p><strong>Success</strong> The ally recovers 1d8 Stamina Points.</p>\n<p><strong>Critical Failure</strong> The ally takes 1d8 mental damage, but this can reduce only Stamina Points, never Hit Points.</p>"
        },
        "featType": {
            "value": "skill"
        },
        "level": {
            "value": 2
        },
        "prerequisites": {
            "value": [
                {
                    "value": "trained in Diplomacy"
                }
            ]
        },
        "rules": [],
        "source": {
            "value": "Pathfinder Gamemastery Guide"
        },
        "traits": {
            "custom": "",
            "rarity": "common",
            "value": [
                "auditory",
                "general",
                "linguistic",
                "mental",
                "skill",
                "stamina"
            ]
        }
    },
    "flags": {},
    "img": "systems/pf2e/icons/features/feats/feats.webp",
    "name": "Encouraging Words",
    "type": "feat"
}
