{
    "_id": "WWCZef1PBliiot9Q",
    "data": {
        "actionCategory": {
            "value": ""
        },
        "actionType": {
            "value": "passive"
        },
        "actions": {
            "value": null
        },
        "description": {
            "value": "<p>You've empowered your core to support a larger body, granting you size and additional reach. You gain the effects of <em>@Compendium[pf2e.spells-srd.Enlarge]{Enlarge}</em> constantly.</p>\n<p><strong>Enhancement</strong> Your core's empowerment has stabilized, allowing for greater support. You are no longer @Compendium[pf2e.conditionitems.Clumsy]{Clumsy} due to the effects of enlarge.</p>"
        },
        "featType": {
            "value": "ancestry"
        },
        "level": {
            "value": 13
        },
        "location": "",
        "prerequisites": {
            "value": [
                {
                    "value": "Medium or Small size"
                }
            ]
        },
        "rules": [],
        "source": {
            "value": "Pathfinder Guns & Gears"
        },
        "traits": {
            "custom": "",
            "rarity": "common",
            "value": [
                "automaton"
            ]
        }
    },
    "flags": {},
    "img": "systems/pf2e/icons/default-icons/feats.webp",
    "name": "Enlarged Chassis",
    "type": "feat"
}
