{
    "_id": "45F4nNN8gxoBdSnk",
    "data": {
        "actionCategory": {
            "value": ""
        },
        "actionType": {
            "value": "passive"
        },
        "actions": {
            "value": null
        },
        "description": {
            "value": "<p>You wreathe your soul cage in an ever-growing collection of obfuscating illusions and protective abjurations to hide it from your enemies. You disguise the soul cage as any non-magical object of the same Bulk, and it gains the effects of the <em>@Compendium[pf2e.spells-srd.Magic Aura]{Magic Aura}</em> and <em>@Compendium[pf2e.spells-srd.Nondetection]{Nondetection}</em> spells. The effects have unlimited durations, are heightened to half your level rounded up, and use your spell DC against any attempt to counteract them. The magic aura makes your soul cage appear non-magical. You can ignore the effects of any of these spells when dealing with your own soul cage. You are mentally alerted whenever your soul cage is damaged.</p>"
        },
        "featType": {
            "value": "archetype"
        },
        "level": {
            "value": 14
        },
        "location": null,
        "prerequisites": {
            "value": [
                {
                    "value": "Lich Dedication"
                }
            ]
        },
        "rules": [],
        "source": {
            "value": "Pathfinder Book of the Dead"
        },
        "traits": {
            "custom": "",
            "rarity": "common",
            "value": [
                "archetype"
            ]
        }
    },
    "flags": {},
    "img": "systems/pf2e/icons/default-icons/feats.webp",
    "name": "Enshroud Soul Cage",
    "type": "feat"
}
