{
    "_id": "Le30algCdKIsxmeK",
    "data": {
        "actionCategory": {
            "value": ""
        },
        "actionType": {
            "value": "passive"
        },
        "actions": {
            "value": null
        },
        "description": {
            "value": "<p>You have mastered the shape of ferocious dinosaurs.</p>\n<p>Add the forms listed in <em>@Compendium[pf2e.spells-srd.Dinosaur Form]{Dinosaur Form}</em> to your <em>wild shape</em> list.</p>\n<p>Whenever you use <em>wild shape</em> to take a form that grants you a specific Athletics modifier, you gain a +1 status bonus to your Athletics checks.</p>"
        },
        "featType": {
            "value": "class"
        },
        "level": {
            "value": 8
        },
        "location": "",
        "prerequisites": {
            "value": [
                {
                    "value": "Wild Shape"
                }
            ]
        },
        "rules": [
            {
                "key": "FlatModifier",
                "predicate": {
                    "all": [
                        "battle-form:athletics"
                    ]
                },
                "selector": "athletics",
                "type": "status",
                "value": 1
            }
        ],
        "source": {
            "value": "Pathfinder Core Rulebook"
        },
        "traits": {
            "custom": "",
            "rarity": "common",
            "value": [
                "druid"
            ]
        }
    },
    "flags": {},
    "img": "systems/pf2e/icons/features/feats/feats.webp",
    "name": "Ferocious Shape",
    "type": "feat"
}
