{
    "_id": "GmQ7py1U7QAIONzL",
    "data": {
        "actionCategory": {
            "value": ""
        },
        "actionType": {
            "value": "passive"
        },
        "actions": {
            "value": null
        },
        "description": {
            "value": "<p>You gain your mystery's initial revelation spell (<em>@Compendium[pf2e.spells-srd.Tempest Touch]{Tempest Touch}</em>). Casting this spell progresses your @Compendium[pf2e.classfeatures.Oracular Curse]{Oracular Curse}. Use the minor curse from your mystery, but when you progress it again, instead of your mystery's moderate curse effect, you become @Compendium[pf2e.conditionitems.Flat-Footed]{Flat-Footed} in addition to the effects of the minor curse.</p>\n<p>If you don't have one, you gain a focus pool of 1 Focus Point. You can @Compendium[pf2e.actionspf2e.Refocus]{Refocus} by reconciling the conflicting nature of your mystery, which also reduces your curse to minor.</p>\n<h4>Minor Curse of Tempests</h4>\n<p>An aura of a whirling storm whips up in a @Template[type:emanation|distance:5] around you and in your space. The aura puts out small non-magical fires 1 round after they're lit or brought into your aura.</p>\n<p>Electrical energy builds up within your storm, turning you into a lightning rod; you gain weakness 2 to electricity, and electricity spells or effects that have additional effects for a creature wearing or holding metal treat you as though you were wearing metal.</p>\n<p>@Compendium[pf2e.feature-effects.Effect: Minor Tempest Curse]{Effect: Minor Tempest Curse}</p>"
        },
        "featType": {
            "value": "archetype"
        },
        "level": {
            "value": 4
        },
        "location": "",
        "prerequisites": {
            "value": [
                {
                    "value": "Oracle Dedication"
                }
            ]
        },
        "rules": [
            {
                "key": "ActiveEffectLike",
                "mode": "add",
                "path": "data.resources.focus.max",
                "value": 1
            }
        ],
        "source": {
            "value": ""
        },
        "traits": {
            "custom": "",
            "rarity": "common",
            "value": [
                "archetype"
            ]
        }
    },
    "flags": {},
    "img": "systems/pf2e/icons/features/feats/feats.webp",
    "name": "First Revelation (Tempest Mystery)",
    "type": "feat"
}
