{
    "_id": "UJafwv306v75Syy7",
    "data": {
        "actionCategory": {
            "value": ""
        },
        "actionType": {
            "value": "action"
        },
        "actions": {
            "value": 1
        },
        "description": {
            "value": "<p>You perform complex manipulations to make the energy from your spells so powerful that your enemies remain vulnerable to it afterward.</p>\n<p>If your next action is to @Compendium[pf2e.actionspf2e.Cast a Spell]{Cast a Spell} that deals acid, electricity, fire, or sonic damage, you can select one target that was damaged to gain weakness 5 to that damage type until the end of your next turn. If a spell deals multiple types of energy damage, choose one that the target gains weakness to.</p>\n<p>This has no effect on creatures with resistance or immunity to the energy type you choose.</p>"
        },
        "featType": {
            "value": "class"
        },
        "level": {
            "value": 12
        },
        "prerequisites": {
            "value": []
        },
        "rules": [],
        "source": {
            "value": "Pathfinder Advanced Player's Guide"
        },
        "traits": {
            "custom": "",
            "rarity": "common",
            "value": [
                "manipulate",
                "metamagic",
                "wizard"
            ]
        }
    },
    "flags": {},
    "img": "systems/pf2e/icons/features/feats/feats.webp",
    "name": "Forcible Energy",
    "type": "feat"
}
