{
    "_id": "pVDgiaqu1RbCOhuv",
    "data": {
        "actionCategory": {
            "value": ""
        },
        "actionType": {
            "value": "reaction"
        },
        "actions": {
            "value": null
        },
        "description": {
            "value": "<p><strong>Trigger</strong> A creature targets you with an attack and you can see the attacker.</p>\n<hr />\n<p>You perceive every possible way your foe's attack could land and attempt to avoid them all.</p>\n<p>The triggering attack roll targets your Perception DC instead of your AC. Though this allows you to avoid taking penalties to your AC, it doesn't remove any conditions or other effects causing such penalties.</p>\n<p>For example, an enemy with sneak attack would still deal extra damage to you for being @Compendium[pf2e.conditionitems.Flat-Footed]{Flat-Footed}, even though you wouldn't take the -2 circumstance penalty when defending against the attack.</p>"
        },
        "featType": {
            "value": "class"
        },
        "level": {
            "value": 12
        },
        "prerequisites": {
            "value": []
        },
        "rules": [],
        "source": {
            "value": "Pathfinder Advanced Player's Guide"
        },
        "traits": {
            "custom": "",
            "rarity": "common",
            "value": [
                "concentrate",
                "investigator"
            ]
        }
    },
    "flags": {},
    "img": "systems/pf2e/icons/features/feats/feats.webp",
    "name": "Foresee Danger",
    "type": "feat"
}
