{
    "_id": "FayzcoNaiIdyPS2j",
    "data": {
        "actionCategory": {
            "value": ""
        },
        "actionType": {
            "value": "passive"
        },
        "actions": {
            "value": null
        },
        "description": {
            "value": "<p>Your senses advance to match those of your animal aspect. You gain one of the following senses available to your inherent animal: echolocation (imprecise) 30 feet or tremorsense (imprecise) 30 feet. If your inherent animal doesn't typically have a specific type of sense, you can't gain the sense with this feat.</p>\n<hr />\n<p><strong>Special</strong> You can select this feat multiple times, either choosing a different sense or improving an imprecise sense granted by this feat to a precise sense.</p>"
        },
        "featType": {
            "value": "ancestry"
        },
        "level": {
            "value": 5
        },
        "location": null,
        "maxTakable": null,
        "prerequisites": {
            "value": []
        },
        "rules": [
            {
                "acuity": "imprecise",
                "key": "Sense",
                "predicate": {
                    "all": [
                        "beastkin-greater-senses:echo-imprecise"
                    ]
                },
                "range": 30,
                "selector": "echolocation"
            },
            {
                "acuity": "imprecise",
                "key": "Sense",
                "predicate": {
                    "all": [
                        "beastkin-greater-senses:tremor-imprecise"
                    ]
                },
                "range": 30,
                "selector": "tremorsense"
            },
            {
                "acuity": "precise",
                "key": "Sense",
                "predicate": {
                    "all": [
                        "beastkin-greater-senses:tremor-precise"
                    ]
                },
                "range": 30,
                "selector": "tremorsense"
            },
            {
                "acuity": "precise",
                "key": "Sense",
                "predicate": {
                    "all": [
                        "beastkin-greater-senses:echo-precise"
                    ]
                },
                "range": 30,
                "selector": "echolocation"
            },
            {
                "choices": [
                    {
                        "label": "PF2E.SpecificRule.Beastkin.Senses.EcholocationImprecise",
                        "predicate": {
                            "not": [
                                "beastkin-greater-senses:echo-imprecise"
                            ]
                        },
                        "value": "echo-imprecise"
                    },
                    {
                        "label": "PF2E.SpecificRule.Beastkin.Senses.EcholocationPrecise",
                        "predicate": {
                            "all": [
                                "beastkin-greater-senses:echo-imprecise"
                            ]
                        },
                        "value": "echo-precise"
                    },
                    {
                        "label": "PF2E.SpecificRule.Beastkin.Senses.TremorsenseImprecise",
                        "predicate": {
                            "not": [
                                "beastkin-greater-senses:tremor-imprecise"
                            ]
                        },
                        "value": "tremor-imprecise"
                    },
                    {
                        "label": "PF2E.SpecificRule.Beastkin.Senses.TremorsensePrecise",
                        "predicate": {
                            "all": [
                                "beastkin-greater-senses:tremor-imprecise"
                            ]
                        },
                        "value": "tremor-precise"
                    }
                ],
                "key": "ChoiceSet",
                "prompt": "PF2E.SpecificRule.Beastkin.GreaterAnimalSenses.Prompt",
                "rollOption": "beastkin-greater-senses"
            }
        ],
        "source": {
            "value": "Pathfinder Lost Omens: Ancestry Guide"
        },
        "traits": {
            "custom": "",
            "rarity": "common",
            "value": [
                "beastkin"
            ]
        }
    },
    "flags": {},
    "img": "systems/pf2e/icons/features/feats/feats.webp",
    "name": "Greater Animal Senses",
    "type": "feat"
}
