{
    "_id": "QHh442n2CEtJr23B",
    "data": {
        "actionCategory": {
            "value": ""
        },
        "actionType": {
            "value": "passive"
        },
        "actions": {
            "value": null
        },
        "description": {
            "value": "<p>Your undead secrets grow stronger still. You learn either the @Compendium[pf2e.spells-srd.Malignant Sustenance]{Malignant Sustenance} or @Compendium[pf2e.spells-srd.Grasping Grave]{Grasping Grave} focus spell. Your focus pool increases by 1 point.</p>\n<p><strong>Special</strong> You can select this feat more than once. Each time, you learn a different spell and your focus pool increases by 1 Focus Point.</p>"
        },
        "featType": {
            "value": "archetype"
        },
        "level": {
            "value": 10
        },
        "location": null,
        "maxTakable": 2,
        "prerequisites": {
            "value": [
                {
                    "value": "Deathly Secrets"
                }
            ]
        },
        "rules": [
            {
                "key": "ActiveEffectLike",
                "mode": "add",
                "path": "data.resources.focus.max",
                "value": 1
            }
        ],
        "source": {
            "value": "Pathfinder Book of the Dead"
        },
        "traits": {
            "custom": "",
            "rarity": "common",
            "value": [
                "archetype"
            ]
        }
    },
    "flags": {},
    "img": "systems/pf2e/icons/default-icons/feats.webp",
    "name": "Greater Deathly Secrets",
    "type": "feat"
}
