{
    "_id": "FNW66GfWXaiBSexb",
    "data": {
        "actionCategory": {
            "value": ""
        },
        "actionType": {
            "value": "passive"
        },
        "actions": {
            "value": null
        },
        "description": {
            "value": "<p>From armor plating and flexible components, to reinforced materials and backup redundant functionality, you have built safeguards to protect your vehicle from the rigors of combat. Your signature vehicle gains a +1 circumstance bonus to AC and Fortitude saves, and increases its Hit Points by an amount equal to twice your level.</p>"
        },
        "featType": {
            "value": "archetype"
        },
        "level": {
            "value": 8
        },
        "location": "",
        "prerequisites": {
            "value": [
                {
                    "value": "Vehicle Mechanic Dedication"
                }
            ]
        },
        "rules": [],
        "source": {
            "value": ""
        },
        "traits": {
            "custom": "",
            "rarity": "common",
            "value": [
                "archetype"
            ]
        }
    },
    "flags": {},
    "img": "systems/pf2e/icons/default-icons/feats.webp",
    "name": "Impervious Vehicle",
    "type": "feat"
}
