{
    "_id": "JIpjpZ8VneQomkZw",
    "data": {
        "actionCategory": {
            "value": ""
        },
        "actionType": {
            "value": "passive"
        },
        "actions": {
            "value": null
        },
        "description": {
            "value": "<p>You become trained in Crafting and inventor class DC. You gain the @Compendium[pf2e.feats-srd.Inventor]{Inventor} skill feat, even if you don't meet the skill feat's requirements. Choose an innovation. You gain that @Compendium[pf2e.classfeatures.Innovation]{Innovation}, though you don't gain any other abilities that modify or use that innovation, such as modifications or Explode.</p>\n<p><strong>Special</strong> You cannot select another dedication feat until you have first gained two other feats from the inventor archetype.</p>"
        },
        "featType": {
            "value": "archetype"
        },
        "level": {
            "value": 2
        },
        "location": "",
        "prerequisites": {
            "value": [
                {
                    "value": "Intelligence 14"
                }
            ]
        },
        "rules": [
            {
                "key": "ActiveEffectLike",
                "mode": "upgrade",
                "path": "data.skills.cra.rank",
                "value": 1
            },
            {
                "key": "GrantItem",
                "uuid": "Compendium.pf2e.feats-srd.Inventor"
            },
            {
                "key": "GrantItem",
                "uuid": "Compendium.pf2e.classfeatures.Innovation"
            }
        ],
        "source": {
            "value": ""
        },
        "traits": {
            "custom": "",
            "rarity": "uncommon",
            "value": [
                "archetype",
                "dedication",
                "multiclass"
            ]
        }
    },
    "flags": {},
    "img": "systems/pf2e/icons/default-icons/feats.webp",
    "name": "Inventor Dedication",
    "type": "feat"
}
