{
    "_id": "VSyuTWRuxdmgq2HS",
    "data": {
        "actionCategory": {
            "value": ""
        },
        "actionType": {
            "value": "passive"
        },
        "actions": {
            "value": null
        },
        "description": {
            "value": "<p>You are unstoppable, able to shrug off mortal wounds with ease. You gain resistance equal to 3 + your Constitution modifier to all damage, and your resistance from raging resistance increases to 8 + your Constitution modifier.</p>\n<p>In addition, if you are reduced to 0 Hit Points, you can end your rage as a reaction to stay at 1 Hit Point. If you do, you become @Compendium[pf2e.conditionitems.Wounded]{Wounded 2} (or increase your wounded condition by 2 if you are already wounded).</p>"
        },
        "featType": {
            "value": "class"
        },
        "level": {
            "value": 20
        },
        "location": "",
        "prerequisites": {
            "value": []
        },
        "rules": [],
        "source": {
            "value": ""
        },
        "traits": {
            "custom": "",
            "rarity": "uncommon",
            "value": [
                "barbarian"
            ]
        }
    },
    "flags": {},
    "img": "systems/pf2e/icons/features/feats/feats.webp",
    "name": "Invulnerable Juggernaut",
    "type": "feat"
}
