{
    "_id": "lF5B49zbDG61sxXa",
    "data": {
        "actionCategory": {
            "value": ""
        },
        "actionType": {
            "value": "passive"
        },
        "actions": {
            "value": null
        },
        "description": {
            "value": "<p>You catch yourself as you make a mistake. You can trigger @Compendium[pf2e.feats-srd.Cat's Luck]{Cat's Luck} when you fail or critically fail on an Athletics or Acrobatics skill check, in addition to its normal trigger. When you do, you reroll the triggering skill check and use the better result.</p>\n<p>This still counts against Cat's Luck's frequency, as normal.</p>"
        },
        "featType": {
            "value": "ancestry"
        },
        "level": {
            "value": 5
        },
        "location": "",
        "prerequisites": {
            "value": [
                {
                    "value": "Cat's Luck"
                }
            ]
        },
        "rules": [],
        "source": {
            "value": "Pathfinder Lost Omens: Ancestry Guide"
        },
        "traits": {
            "custom": "",
            "rarity": "common",
            "value": [
                "catfolk"
            ]
        }
    },
    "flags": {},
    "img": "systems/pf2e/icons/features/feats/feats.webp",
    "name": "Lucky Break",
    "type": "feat"
}
