{
    "_id": "cayKGa2yK7Gwvk6m",
    "data": {
        "actionCategory": {
            "value": ""
        },
        "actionType": {
            "value": "action"
        },
        "actions": {
            "value": 1
        },
        "description": {
            "value": "<p><strong>Frequency</strong> once per day</p>\n<hr />\n<p>You have a connection to olethroses, the enigmatic psychopomps who successfully swayed the yamaraj to permit the creation of the first duskwalkers. You place a finger on fate's scales by wrapping silk around your bow.</p>\n<p>The first time this turn that you hit a creature with a Strike using a weapon in the bow group you've modified in this way, that creature takes an additional [[/r 60]] damage (@Check[type:fortitude|dc:resolve(@actor.attributes.classOrSpellDC.value)|basic:true] save using your class or spell DC, whichever is higher) as the arrow works to cut short their very destiny. This additional damage is of the same type as the initial attack dealt. If you hit more than one creature at the same time, choose one to suffer the effect of your decree.</p>"
        },
        "featType": {
            "value": "ancestry"
        },
        "level": {
            "value": 17
        },
        "location": null,
        "prerequisites": {
            "value": []
        },
        "rules": [],
        "source": {
            "value": "Pathfinder Lost Omens: Ancestry Guide"
        },
        "traits": {
            "custom": "",
            "rarity": "common",
            "value": [
                "death",
                "divine",
                "duskwalker",
                "necromancy"
            ]
        }
    },
    "flags": {},
    "img": "systems/pf2e/icons/features/feats/feats.webp",
    "name": "Olethros's Decree",
    "type": "feat"
}
