{
    "_id": "bCizH4ByTwbLcYA1",
    "data": {
        "actionCategory": {
            "value": ""
        },
        "actionType": {
            "value": "action"
        },
        "actions": {
            "value": 1
        },
        "description": {
            "value": "<p>With precisely the right words of encouragement, you bolster an ally's efforts.</p>\n<p>Designate an ally within 30 feet; this action counts as sufficient preparation to @Compendium[pf2e.actionspf2e.Aid]{Aid} that ally. When you use the Aid reaction to help that ally, you can roll Diplomacy in place of the usual check.</p>\n<p>If your swashbuckler's style is wit and your @Check[type:diplomacy|dc:@self.level|adjustment:5|traits:action:aid] check to Aid meets or exceeds the very hard DC for your level, you gain @Compendium[pf2e.classfeatures.Panache]{Panache}.</p>"
        },
        "featType": {
            "value": "class"
        },
        "level": {
            "value": 1
        },
        "location": "",
        "prerequisites": {
            "value": [
                {
                    "value": "trained in Diplomacy"
                }
            ]
        },
        "rules": [],
        "source": {
            "value": "Pathfinder Advanced Player's Guide"
        },
        "traits": {
            "custom": "",
            "rarity": "common",
            "value": [
                "auditory",
                "concentrate",
                "emotion",
                "linguistic",
                "mental",
                "swashbuckler"
            ]
        }
    },
    "flags": {},
    "img": "systems/pf2e/icons/features/feats/feats.webp",
    "name": "One For All",
    "type": "feat"
}
