{
    "_id": "vzKvihYNModB7sJ7",
    "data": {
        "actionCategory": {
            "value": "defensive"
        },
        "actionType": {
            "value": "action"
        },
        "actions": {
            "value": 1
        },
        "description": {
            "value": "<p>You lie @Compendium[pf2e.conditionitems.Prone]{Prone} and pretend to be an ordinary skeleton. As long as you don't move or take any actions requiring anything other than your mind, you appear dead. To see through your ruse, another creature must succeed at a check against your Deception DC, either by Seeking or Recalling Knowledge (typically using Religion or an appropriate Lore skill). This ability doesn't work against creatures that already know you're an animate undead unless you have changed your appearance.</p>"
        },
        "featType": {
            "value": "ancestry"
        },
        "level": {
            "value": 1
        },
        "location": null,
        "prerequisites": {
            "value": []
        },
        "rules": [],
        "source": {
            "value": "Pathfinder Book of the Dead"
        },
        "traits": {
            "custom": "",
            "rarity": "common",
            "value": []
        }
    },
    "flags": {},
    "img": "systems/pf2e/icons/default-icons/feats.webp",
    "name": "Play Dead",
    "type": "feat"
}
