{
    "_id": "3EtlXNK4vc44R3Gm",
    "data": {
        "actionCategory": {
            "value": "defensive"
        },
        "actionType": {
            "value": "reaction"
        },
        "actions": {
            "value": null
        },
        "description": {
            "value": "<p><strong>Trigger</strong> Your eidolon would take damage.</p>\n<p>You abruptly dismiss your eidolon to reduce the damage it takes, though this makes summoning it again more difficult. Reduce the triggering damage to your eidolon by double your level, and your eidolon unmanifests. You can't Manifest your Eidolon again until after the end of your next turn.</p>"
        },
        "featType": {
            "value": "class"
        },
        "level": {
            "value": 4
        },
        "location": "",
        "prerequisites": {
            "value": []
        },
        "rules": [],
        "source": {
            "value": ""
        },
        "traits": {
            "custom": "",
            "rarity": "common",
            "value": [
                "summoner"
            ]
        }
    },
    "flags": {},
    "img": "systems/pf2e/icons/features/feats/feats.webp",
    "name": "Reactive Dismissal",
    "type": "feat"
}
