{
    "_id": "1fVKWWYjlVtOECku",
    "data": {
        "actionCategory": {
            "value": ""
        },
        "actionType": {
            "value": "passive"
        },
        "actions": {
            "value": null
        },
        "description": {
            "value": "<p>You've discovered how to transform yourself into a cloud dragon. Once per day, you can cast 7th-level <em>@Compendium[pf2e.spells-srd.Dragon Form]{Dragon Form}</em> as an innate arcane spell, transforming into a cloud dragon. The spell automatically heightens to 8th level if you're 16th level and 9th level if you're 18th level.</p>\n<p>On a critical hit with an unarmed Strike gained from dragon form, you recharge the spell's breath weapon immediately.</p>\n<p>While in this form, you gain the following cloud dragon-specific abilities:</p>\n<ul>\n<li><strong>Cloud</strong> cloud walk (you can walk on clouds or fog);\n<ul>\n<li><strong>Melee</strong> <span class=\"pf2-icon\">1</span> jaws, <strong>Damage</strong> 2d10 piercing plus 1d12 electricity;</li>\n<li><strong>Melee</strong> <span class=\"pf2-icon\">1</span> claw (agile), <strong>Damage</strong> 3d10 slashing;</li>\n<li><strong>Melee</strong> <span class=\"pf2-icon\">1</span> tail (reach 10 feet), <strong>Damage</strong> 3d10 bludgeoning;</li>\n<li><strong>Melee</strong> <span class=\"pf2-icon\">1</span> horn (reach 10 feet), <strong>Damage</strong> 3d8 piercing;</li>\n<li>Breath Weapon @Template[type:cone|distance:30], 6d12 electricity.</li>\n</ul>\n</li>\n</ul>\n<hr />\n<p><strong>Special</strong> You can use this feat in place of @Compendium[pf2e.feats-srd.Shape Of The Dragon]{Shape Of The Dragon} to fulfill feat requirements.</p>"
        },
        "featType": {
            "value": "archetype"
        },
        "level": {
            "value": 14
        },
        "location": "",
        "prerequisites": {
            "value": [
                {
                    "value": "Dragon Disciple Dedication"
                }
            ]
        },
        "rules": [],
        "source": {
            "value": "Pathfinder #171: Hurricane's Howl"
        },
        "traits": {
            "custom": "",
            "rarity": "uncommon",
            "value": []
        }
    },
    "flags": {},
    "img": "systems/pf2e/icons/default-icons/feats.webp",
    "name": "Shape of the Cloud Dragon",
    "type": "feat"
}
