{
    "_id": "xTe8lNBp76jsrhYh",
    "data": {
        "actionCategory": {
            "value": ""
        },
        "actionType": {
            "value": "passive"
        },
        "actions": {
            "value": null
        },
        "description": {
            "value": "<p>Your mother was an annis hag, known for physical prowess, and you have one violet or steel-gray eye. You have thick, sturdy claws made of cold iron that grow naturally from your body. You gain a claw unarmed attack that deals [[/r {1d6}[slashing]]]{1d6 slashing damage}. Your claws are in the brawling group, have the unarmed and grapple traits, and are cold iron.</p>"
        },
        "featType": {
            "value": "ancestry"
        },
        "level": {
            "value": 1
        },
        "location": "",
        "onlyLevel1": true,
        "prerequisites": {
            "value": []
        },
        "rules": [
            {
                "category": "unarmed",
                "damage": {
                    "base": {
                        "damageType": "slashing",
                        "dice": 1,
                        "die": "d6"
                    }
                },
                "group": "brawling",
                "key": "Strike",
                "label": "PF2E.Weapon.Base.claw",
                "range": null,
                "traits": [
                    "cold-iron",
                    "grapple",
                    "unarmed"
                ]
            }
        ],
        "source": {
            "value": "Pathfinder Advanced Player's Guide"
        },
        "traits": {
            "custom": "",
            "rarity": "common",
            "value": [
                "changeling",
                "lineage"
            ]
        }
    },
    "flags": {},
    "img": "systems/pf2e/icons/features/feats/feats.webp",
    "name": "Slag May",
    "type": "feat"
}
