{
    "_id": "velPTcpjLXPnaYrm",
    "data": {
        "actionCategory": {
            "value": ""
        },
        "actionType": {
            "value": "passive"
        },
        "actions": {
            "value": null
        },
        "description": {
            "value": "<p>If you rest outdoors for 10 minutes during the day, you regain Hit Points equal to your Constitution modifier × half your level. You gain this benefit in addition to any healing from @Compendium[pf2e.actionspf2e.Treat Wounds]{Treat Wounds}. Leshies whose plant nourishment does not rely on photosynthesis require a similarly suitable environment. For example, fungus leshies need dark, damp environments and a pile of decaying plant matter.</p>"
        },
        "featType": {
            "value": "ancestry"
        },
        "level": {
            "value": 9
        },
        "prerequisites": {
            "value": []
        },
        "rules": [],
        "source": {
            "value": "Pathfinder Lost Omens: Character Guide"
        },
        "traits": {
            "custom": "",
            "rarity": "common",
            "value": [
                "leshy"
            ]
        }
    },
    "flags": {},
    "img": "systems/pf2e/icons/features/feats/feats.webp",
    "name": "Solar Rejuvenation",
    "type": "feat"
}
