{
    "_id": "waZzVgfyr1Vcxfqk",
    "data": {
        "actionCategory": {
            "value": "offensive"
        },
        "actionType": {
            "value": "action"
        },
        "actions": {
            "value": 2
        },
        "description": {
            "value": "<p><strong>Requirements</strong> You're riding a megafauna companion that has a melee Strike.</p>\n<hr />\n<p>You've trained your megafauna companion to stagger its enemies, impeding their ability to fight back. You @Compendium[pf2e.actionspf2e.Command an Animal]{Command an Animal} to order your megafauna companion to spend both its actions making a single, powerful Strike. The attack deals an extra die of weapon damage, and if the attack hits and deals damage, the target is @Compendium[pf2e.conditionitems.Slowed]{Slowed 1} until the end of its next turn.</p>"
        },
        "featType": {
            "value": "archetype"
        },
        "level": {
            "value": 10
        },
        "location": null,
        "prerequisites": {
            "value": [
                {
                    "value": "Mammoth Lord Dedication"
                }
            ]
        },
        "rules": [],
        "source": {
            "value": "Pathfinder #177: Burning Tundra"
        },
        "traits": {
            "custom": "",
            "rarity": "common",
            "value": [
                "archetype"
            ]
        }
    },
    "flags": {},
    "img": "systems/pf2e/icons/features/feats/feats.webp",
    "name": "Staggering Blow",
    "type": "feat"
}
