{
    "_id": "rmO7FP410nvCjFBB",
    "data": {
        "actionCategory": {
            "value": ""
        },
        "actionType": {
            "value": "passive"
        },
        "actions": {
            "value": null
        },
        "description": {
            "value": "<p>You fully protect your allies from the worst blows. When you use the Shoulder Catastrophe reaction, you can choose to take the full critical damage and effects from the attack, including effects that apply on a critical hit, and have your ally take no damage and avoid the attack's effects.</p>"
        },
        "featType": {
            "value": "archetype"
        },
        "level": {
            "value": 18
        },
        "prerequisites": {
            "value": [
                {
                    "value": "Shoulder Catastrophe"
                }
            ]
        },
        "rules": [],
        "source": {
            "value": "Pathfinder Lost Omens: Pathfinder Society Guide"
        },
        "traits": {
            "custom": "",
            "rarity": "common",
            "value": [
                "archetype"
            ]
        }
    },
    "flags": {},
    "img": "systems/pf2e/icons/features/feats/feats.webp",
    "name": "Stave off Catastrophe",
    "type": "feat"
}
