{
    "_id": "xjwlP306nuda2z03",
    "data": {
        "actionCategory": {
            "value": ""
        },
        "actionType": {
            "value": "passive"
        },
        "actions": {
            "value": null
        },
        "description": {
            "value": "<p>When you use @Compendium[pf2e.feats-srd.Legendary Thief]{Legendary Thief} to steal the impossible, you can steal a prepared spell or spontaneous spell from a foe. The spell is randomly selected from the highest-level spells the foe knows that have a target or area, to a maximum of 8th-level spells; the target loses the appropriate spell slot as if they had cast it themself.</p>\n<p>You can Cast the Spell once within the next [[/br 1d4 #rounds]]{1d4 rounds}, after which the fleeting magic fades; this otherwise works the same as casting a @Compendium[pf2e.feats-srd.Loaner Spell]{Loaner Spell}.</p>"
        },
        "featType": {
            "value": "class"
        },
        "level": {
            "value": 16
        },
        "location": "",
        "prerequisites": {
            "value": [
                {
                    "value": "Legendary Thief"
                },
                {
                    "value": "Loaner Spell"
                }
            ]
        },
        "rules": [],
        "source": {
            "value": "Pathfinder Advanced Player's Guide"
        },
        "traits": {
            "custom": "",
            "rarity": "common",
            "selected": {
                "magical": "Magical",
                "rogue": "Rogue"
            },
            "value": [
                "magical",
                "rogue"
            ]
        }
    },
    "flags": {},
    "img": "systems/pf2e/icons/features/feats/feats.webp",
    "name": "Steal Spell",
    "type": "feat"
}
