{
    "_id": "uxwHHjWs3ehqtG4b",
    "data": {
        "actionCategory": {
            "value": ""
        },
        "actionType": {
            "value": "passive"
        },
        "actions": {
            "value": null
        },
        "description": {
            "value": "<p>You wear your armor like a second skin. You can rest normally while wearing medium armor. If you are a master in heavy armor, you can also rest normally while wearing heavy armor.</p>"
        },
        "featType": {
            "value": "skill"
        },
        "level": {
            "value": 4
        },
        "prerequisites": {
            "value": [
                {
                    "value": "trained in Survival"
                },
                {
                    "value": "Sentinel Dedication"
                }
            ]
        },
        "rules": [],
        "source": {
            "value": "Pathfinder Advanced Player's Guide"
        },
        "traits": {
            "custom": "",
            "rarity": "common",
            "value": [
                "archetype",
                "skill"
            ]
        }
    },
    "flags": {},
    "img": "systems/pf2e/icons/features/feats/feats.webp",
    "name": "Steel Skin",
    "type": "feat"
}
