{
    "_id": "nAVLB5MLYWUu8N71",
    "data": {
        "actionCategory": {
            "value": "offensive"
        },
        "actionType": {
            "value": "action"
        },
        "actions": {
            "value": 2
        },
        "description": {
            "value": "<p><strong>Frequency</strong> once per hour</p>\n<hr />\n<p>You become surrounded by a swirling storm of rain, sand, snow, or clouds, whichever of those suits your bound terrain. This activity has traits appropriate to the storm you create-typically earth for sand and water for rain, snow, or clouds. You become @Compendium[pf2e.conditionitems.Concealed]{Concealed} for 1 minute. You can't use this concealment to Hide or @Compendium[pf2e.actionspf2e.Sneak]{Sneak}, as normal for concealment that makes your position obvious.</p>"
        },
        "featType": {
            "value": "archetype"
        },
        "level": {
            "value": 8
        },
        "location": null,
        "prerequisites": {
            "value": [
                {
                    "value": "Mummy Dedication"
                }
            ]
        },
        "rules": [],
        "source": {
            "value": "Pathfinder Book of the Dead"
        },
        "traits": {
            "custom": "",
            "rarity": "common",
            "value": [
                "archetype",
                "concentrate",
                "conjuration",
                "divine"
            ]
        }
    },
    "flags": {},
    "img": "systems/pf2e/icons/default-icons/feats.webp",
    "name": "Storm Shroud",
    "type": "feat"
}
