{
    "_id": "RU86cGTryRAdaEqx",
    "data": {
        "actionCategory": {
            "value": ""
        },
        "actionType": {
            "value": "passive"
        },
        "actions": {
            "value": null
        },
        "description": {
            "value": "<p>You move faster, with or without @Compendium[pf2e.classfeatures.Panache]{Panache}. Increase the status bonus to your Speeds when you have panache to a +10-foot status bonus; you also gain a +5-foot status bonus to your Speeds when you don't have panache.</p>"
        },
        "featType": {
            "value": "archetype"
        },
        "level": {
            "value": 8
        },
        "location": "",
        "prerequisites": {
            "value": [
                {
                    "value": "Swashbuckler Dedication"
                }
            ]
        },
        "rules": [
            {
                "key": "FlatModifier",
                "predicate": {
                    "all": [
                        "panache"
                    ]
                },
                "selector": "speed",
                "type": "status",
                "value": 10
            },
            {
                "key": "FlatModifier",
                "label": "Swashbuckler's Speed (Half)",
                "predicate": {
                    "not": [
                        "panache"
                    ]
                },
                "selector": "speed",
                "type": "status",
                "value": 5
            }
        ],
        "source": {
            "value": "Pathfinder Advanced Player's Guide"
        },
        "traits": {
            "custom": "",
            "rarity": "common",
            "value": [
                "archetype"
            ]
        }
    },
    "flags": {},
    "img": "systems/pf2e/icons/features/feats/feats.webp",
    "name": "Swashbuckler's Speed",
    "type": "feat"
}
