{
    "_id": "ADDOwO0QWOXAV85x",
    "data": {
        "actionCategory": {
            "value": ""
        },
        "actionType": {
            "value": "passive"
        },
        "actions": {
            "value": null
        },
        "description": {
            "value": "<p>You channel strength from the earth beneath your feet to pummel your enemies. When making a melee Strike against a target who is standing on the same earth or stone surface as you are, you gain a circumstance bonus to the damage roll equal to the number of weapon damage dice.</p>"
        },
        "featType": {
            "value": "ancestry"
        },
        "level": {
            "value": 13
        },
        "location": null,
        "prerequisites": {
            "value": []
        },
        "rules": [
            {
                "key": "FlatModifier",
                "predicate": {
                    "all": [
                        "telluric-power",
                        "melee"
                    ]
                },
                "selector": "strike-damage",
                "type": "circumstance",
                "value": "1+@weapon.data.data.runes.striking"
            },
            {
                "domain": "all",
                "key": "RollOption",
                "option": "telluric-power",
                "toggleable": true
            }
        ],
        "source": {
            "value": "Pathfinder Advanced Player's Guide"
        },
        "traits": {
            "custom": "",
            "rarity": "common",
            "value": [
                "dwarf"
            ]
        }
    },
    "flags": {},
    "img": "systems/pf2e/icons/features/feats/feats.webp",
    "name": "Telluric Power",
    "type": "feat"
}
