{
    "_id": "J06CgMzMDGOahXjf",
    "data": {
        "actionCategory": {
            "value": ""
        },
        "actionType": {
            "value": "passive"
        },
        "actions": {
            "value": null
        },
        "description": {
            "value": "<p>When you cast sleep, you can modify the spell to add the following to its standard effects: Subjects of your spell experience troubled dreams. When a target that failed or critically failed its saving throw wakes up, it is @Compendium[pf2e.conditionitems.Frightened]{Frightened 1}.</p>"
        },
        "featType": {
            "value": "archetype"
        },
        "level": {
            "value": 6
        },
        "location": "",
        "prerequisites": {
            "value": [
                {
                    "value": "Spell Trickster Dedication"
                },
                {
                    "value": "ability to cast sleep"
                }
            ]
        },
        "rules": [],
        "source": {
            "value": ""
        },
        "traits": {
            "custom": "",
            "rarity": "common",
            "value": [
                "archetype"
            ]
        }
    },
    "flags": {},
    "img": "systems/pf2e/icons/default-icons/feats.webp",
    "name": "Uneasy Rest",
    "type": "feat"
}
