{
    "_id": "NFsQOa3ynthYLVj6",
    "data": {
        "actionCategory": {
            "value": ""
        },
        "actionType": {
            "value": "passive"
        },
        "actions": {
            "value": null
        },
        "description": {
            "value": "<p>Your soul is warded against the power of undeath and plague, as well as that of the evil former psychopomps known as sahkils. You gain a +1 circumstance bonus to saving throws against death effects, disease, and all effects from undead or sahkils. This bonus increases to +2 against an undead or sahkil's death effect or disease.</p>"
        },
        "featType": {
            "value": "ancestry"
        },
        "level": {
            "value": 5
        },
        "location": null,
        "prerequisites": {
            "value": []
        },
        "rules": [
            {
                "key": "FlatModifier",
                "predicate": {
                    "any": [
                        "death",
                        "disease",
                        "origin:trait:undead",
                        "origin:trait:sakhil"
                    ]
                },
                "selector": "saving-throw",
                "slug": "ward-plus-one",
                "type": "circumstance",
                "value": 1
            },
            {
                "key": "FlatModifier",
                "predicate": {
                    "all": [
                        {
                            "or": [
                                "disease",
                                "death"
                            ]
                        },
                        {
                            "or": [
                                "origin:trait:undead",
                                "origin:trait:sakhil"
                            ]
                        }
                    ]
                },
                "selector": "saving-throw",
                "slug": "ward-plus-two",
                "type": "circumstance",
                "value": 2
            }
        ],
        "source": {
            "value": "Pathfinder Advanced Player's Guide"
        },
        "traits": {
            "custom": "",
            "rarity": "common",
            "value": [
                "duskwalker"
            ]
        }
    },
    "flags": {},
    "img": "systems/pf2e/icons/features/feats/feats.webp",
    "name": "Ward Against Corruption",
    "type": "feat"
}
