{
    "_id": "oHra9QanDFpAZ4hh",
    "data": {
        "actionCategory": {
            "value": ""
        },
        "actionType": {
            "value": "action"
        },
        "actions": {
            "value": 1
        },
        "description": {
            "value": "<p>By pointing out vulnerabilities, you grant the benefits listed in @Compendium[pf2e.actionspf2e.Hunt Prey]{Hunt Prey} and your@Compendium[pf2e.classfeatures.Hunter's Edge]{Hunter's Edge} benefit to an ally until the end of their next turn. Depending on whether you call out or use gestures, this action gains either the auditory or visual trait.</p>\n<ul>\n<li>@Compendium[pf2e.feat-effects.Effect: Hunter's Edge, Flurry]{Effect: Hunter's Edge, Flurry}</li>\n<li>@Compendium[pf2e.feat-effects.Effect: Hunter's Edge, Outwit]{Effect: Hunter's Edge, Outwit}</li>\n<li>@Compendium[pf2e.feat-effects.Effect: Hunter's Edge, Precision]{Effect: Hunter's Edge, Precision}</li>\n</ul>"
        },
        "featType": {
            "value": "class"
        },
        "level": {
            "value": 8
        },
        "location": "",
        "prerequisites": {
            "value": []
        },
        "rules": [],
        "source": {
            "value": "Pathfinder Core Rulebook"
        },
        "traits": {
            "custom": "",
            "rarity": "common",
            "value": [
                "ranger"
            ]
        }
    },
    "flags": {},
    "img": "systems/pf2e/icons/features/feats/feats.webp",
    "name": "Warden's Boon",
    "type": "feat"
}
