{
    "_id": "fV0t8xagcbqwvTpQ",
    "data": {
        "actionCategory": {
            "value": ""
        },
        "actionType": {
            "value": "passive"
        },
        "actions": {
            "value": null
        },
        "description": {
            "value": "<p><strong>Minor Boon (Single Use)</strong> Pleased by your talent for manipulation, Asmodeus amplifies your skills. Once, when you fail at the Diplomacy check to make a significant or consequential @Compendium[pf2e.actionspf2e.Request]{Request}, you can cast <em>@Compendium[pf2e.spells-srd.Suggestion]{Suggestion}</em> on the target of your @Compendium[pf2e.actionspf2e.Request]{Request}, suggesting the same course of action. This is a divine innate spell.</p>"
        },
        "featType": {
            "value": "deityboon"
        },
        "level": {
            "value": 0
        },
        "prerequisites": {
            "value": []
        },
        "rules": [],
        "source": {
            "value": ""
        },
        "traits": {
            "custom": "",
            "rarity": "common",
            "value": []
        }
    },
    "flags": {},
    "img": "systems/pf2e/icons/deity/Asmodeus.webp",
    "name": "Asmodeus - Minor Boon",
    "type": "feat"
}
