{
    "_id": "FeCcooyIb1JDQhd7",
    "data": {
        "actionCategory": {
            "value": ""
        },
        "actionType": {
            "value": "passive"
        },
        "actions": {
            "value": null
        },
        "description": {
            "value": "<p><strong>Major Boon</strong> Calistria guides you towards vengeance. You always know the direction and distance towards the nearest creature that has wronged you and thus far gone unpunished.</p>"
        },
        "featType": {
            "value": "deityboon"
        },
        "level": {
            "value": 0
        },
        "prerequisites": {
            "value": []
        },
        "rules": [],
        "source": {
            "value": ""
        },
        "traits": {
            "custom": "",
            "rarity": "common",
            "value": []
        }
    },
    "flags": {},
    "img": "systems/pf2e/icons/deity/Calistria.webp",
    "name": "Calistria - Major Boon",
    "type": "feat"
}
