{
    "_id": "CmHQGVyNZ7aOmMcd",
    "data": {
        "actionCategory": {
            "value": ""
        },
        "actionType": {
            "value": "passive"
        },
        "actions": {
            "value": null
        },
        "description": {
            "value": "<p><strong>Moderate Curse</strong> Your magic wars against itself like Nethys's dueling halves. Whenever you cast a spell, attempt a DC 11 flat check.</p>\n<p>On a failure, if your spell was harmful, you instead cast a beneficial spell of the same level on your intended targets, and if it was beneficial, you instead cast a harmful spell of the same level on your intended targets.</p>\n<p>If the spell benefited some targets and harmed others, you cast a spell of the same level that switches who benefited (for instance, changing a heal spell that harmed undead and healed the living to a harm spell that healed undead and harmed the living).</p>\n<p>You still lose the spell slot for the spell you were trying to cast.</p>"
        },
        "featType": {
            "value": "curse"
        },
        "level": {
            "value": 0
        },
        "prerequisites": {
            "value": []
        },
        "rules": [],
        "source": {
            "value": ""
        },
        "traits": {
            "custom": "",
            "rarity": "common",
            "value": []
        }
    },
    "flags": {},
    "img": "systems/pf2e/icons/deity/Nethys.webp",
    "name": "Nethys - Moderate Curse",
    "type": "feat"
}
