{
    "_id": "dZU3HdI2oO8LFjGq",
    "data": {
        "actionCategory": {
            "value": ""
        },
        "actionType": {
            "value": "passive"
        },
        "actions": {
            "value": null
        },
        "description": {
            "value": "<p><strong>Major Boon</strong> When you contract contagions, you experience fever dreams filled with insight.</p>\n<p>Once afflicted with a disease, you gain the effects of <em>@Compendium[pf2e.spells-srd.Foresight]{Foresight}</em> with yourself as the target until no longer afflicted with any disease.</p>"
        },
        "featType": {
            "value": "deityboon"
        },
        "level": {
            "value": 0
        },
        "prerequisites": {
            "value": []
        },
        "rules": [],
        "source": {
            "value": ""
        },
        "traits": {
            "custom": "",
            "rarity": "common",
            "value": []
        }
    },
    "flags": {},
    "img": "systems/pf2e/icons/deity/Urgathoa.webp",
    "name": "Urgathoa - Major Boon",
    "type": "feat"
}
