{
    "_id": "n6NK7wqhTxWr3ij8",
    "data": {
        "description": {
            "value": "<p>Warding aggression ends if the foe you attacked dies or at the end of any turn in which you didn't hit that foe with a melee Strike.</p>\n<hr />\n<p>You gain a +2 status bonus to AC against the foe for the remaining duration.</p>"
        },
        "duration": {
            "expiry": "turn-start",
            "sustained": false,
            "unit": "minutes",
            "value": 1
        },
        "level": {
            "value": 1
        },
        "rules": [
            {
                "key": "FlatModifier",
                "predicate": {
                    "all": [
                        "wardingAggression"
                    ]
                },
                "selector": "ac",
                "type": "status",
                "value": 2
            },
            {
                "domain": "ac",
                "key": "RollOption",
                "label": "Attacked by Warded Foe",
                "option": "wardingAggression",
                "toggleable": true
            }
        ],
        "source": {
            "value": ""
        },
        "start": {
            "initiative": null,
            "value": 0
        },
        "target": null,
        "tokenIcon": {
            "show": true
        },
        "traits": {
            "custom": "",
            "rarity": "common",
            "value": []
        }
    },
    "flags": {},
    "img": "systems/pf2e/icons/spells/warding-aggression.webp",
    "name": "Spell Effect: Warding Aggression (+2)",
    "type": "effect"
}
