{
    "_id": "j9l4LDnAwg9xzYsy",
    "data": {
        "badge": null,
        "description": {
            "value": "<p>Granted by @Compendium[pf2e.spells-srd.Life Connection]{Life Connection}.</p>\n<p>You gain the @Compendium[pf2e.actionspf2e.Defend Life]{Defend Life} reaction; once you use the reaction, the spell ends.</p>"
        },
        "duration": {
            "expiry": "turn-start",
            "sustained": false,
            "unit": "hours",
            "value": 24
        },
        "level": {
            "value": 3
        },
        "rules": [
            {
                "key": "GrantItem",
                "uuid": "Compendium.pf2e.actionspf2e.Defend Life"
            }
        ],
        "source": {
            "value": ""
        },
        "start": {
            "initiative": null,
            "value": 0
        },
        "target": null,
        "tokenIcon": {
            "show": true
        },
        "traits": {
            "custom": "",
            "rarity": "common",
            "value": []
        }
    },
    "flags": {},
    "img": "systems/pf2e/icons/spells/life-connection.webp",
    "name": "Spell Effect: Life Connection",
    "type": "effect"
}
