{
    "_id": "XT3AyRfx4xeXfAjP",
    "data": {
        "description": {
            "value": "<p>Granted by casting <em>@Compendium[pf2e.spells-srd.Physical Boost]{Physical Boost}</em></p>"
        },
        "duration": {
            "expiry": "turn-end",
            "sustained": false,
            "unit": "rounds",
            "value": 1
        },
        "level": {
            "value": 1
        },
        "rules": [
            {
                "key": "FlatModifier",
                "selector": "athletics",
                "type": "status",
                "value": 2
            },
            {
                "key": "FlatModifier",
                "selector": "acrobatics",
                "type": "status",
                "value": 2
            },
            {
                "key": "FlatModifier",
                "selector": "fortitude",
                "type": "status",
                "value": 2
            },
            {
                "key": "FlatModifier",
                "selector": "reflex",
                "type": "status",
                "value": 2
            }
        ],
        "source": {
            "value": ""
        },
        "start": {
            "initiative": null,
            "value": 0
        },
        "target": null,
        "tokenIcon": {
            "show": true
        },
        "traits": {
            "custom": "",
            "rarity": "common",
            "value": []
        }
    },
    "flags": {},
    "img": "systems/pf2e/icons/spells/physical-boost.webp",
    "name": "Spell Effect: Physical Boost",
    "type": "effect"
}
