{
    "_id": "DliizYpHcmBG130w",
    "data": {
        "description": {
            "value": "<p>Granted by <em>@Compendium[pf2e.spells-srd.Elemental Form]{Elemental Form}</em></p>\n<p>You call upon the power of the planes to transform into a Medium elemental battle form. While in this form, you gain the air trait and the elemental trait. You have hands in this battle form and can take manipulate actions. You can Dismiss the spell.</p>\n<p>You gain the following statistics and abilities regardless of which battle form you choose:</p>\n<ul>\n<li>AC = 19 + your level. Ignore your armor's check penalty and Speed reduction.</li>\n<li>10 temporary Hit Points.</li>\n<li>Darkvision.</li>\n<li>One or more unarmed melee attacks specific to the battle form you choose, which are the only attacks you can use. You're trained with them. Your attack modifier is +18, and your damage bonus is +9. These are Dexterity based. If your corresponding unarmed attack modifier is higher, you can use it instead.</li>\n<li>Acrobatics modifier of +20; ignore this change if your own modifier is higher.</li>\n</ul>\n<p>You also gain specific abilities based on the type of elemental you choose:</p>\n<ul>\n<li><strong>Air</strong>\n<ul>\n<li>fly Speed 80 feet, movement doesn't trigger reactions;</li>\n<li><strong>Melee</strong> <span class=\"pf2-icon\">1</span> gust, <strong>Damage</strong> 1d4 bludgeoning.</li>\n</ul>\n</li>\n</ul>\n<hr />\n<p><strong>Heightened (6th)</strong> Your battle form is Large and your attacks have 10-foot reach. You must have space to expand or the spell is lost. You instead gain AC = 22 + your level, 15 temporary HP, an attack modifier of +23, a damage bonus of +13, and Acrobatics or Athletics +23.</p>\n<p><strong>Heightened (7th)</strong> Your battle form is Huge and your attacks have 15-foot reach. You must have space to expand or the spell is lost. You instead gain AC = 22 + your level, 20 temporary HP, an attack modifier of +25, a damage bonus of +11, double the number of damage dice (including @Compendium[pf2e.conditionitems.Persistent Damage]{Persistent Damage}), and Acrobatics or Athletics +25.</p>"
        },
        "duration": {
            "expiry": "turn-start",
            "sustained": false,
            "unit": "minutes",
            "value": 1
        },
        "level": {
            "value": 5
        },
        "rules": [
            {
                "hasHands": true,
                "key": "BattleForm",
                "overrides": {
                    "senses": {
                        "darkvision": {}
                    },
                    "speeds": {
                        "fly": 80
                    },
                    "strikes": {
                        "gust": {
                            "ability": "dex",
                            "category": "unarmed",
                            "damage": {
                                "damageType": "bludgeoning",
                                "dice": 1,
                                "die": "d4"
                            },
                            "group": "brawling",
                            "traits": [
                                "unarmed"
                            ]
                        }
                    },
                    "traits": [
                        "elemental",
                        "air"
                    ]
                },
                "value": {
                    "brackets": [
                        {
                            "end": 5,
                            "start": 5,
                            "value": {
                                "armorClass": {
                                    "modifier": "19 + @actor.level"
                                },
                                "skills": {
                                    "acr": {
                                        "modifier": 20
                                    }
                                },
                                "strikes": {
                                    "gust": {
                                        "damage": {
                                            "modifier": 9
                                        },
                                        "modifier": 18
                                    }
                                },
                                "tempHP": 10
                            }
                        },
                        {
                            "end": 6,
                            "start": 6,
                            "value": {
                                "armorClass": {
                                    "modifier": "22 + @actor.level"
                                },
                                "size": "lg",
                                "skills": {
                                    "acr": {
                                        "modifier": 23
                                    }
                                },
                                "strikes": {
                                    "gust": {
                                        "damage": {
                                            "modifier": 13
                                        },
                                        "modifier": 23,
                                        "traits": [
                                            "unarmed",
                                            "reach-10"
                                        ]
                                    }
                                },
                                "tempHP": 15
                            }
                        },
                        {
                            "start": 7,
                            "value": {
                                "armorClass": {
                                    "modifier": "22 + @actor.level"
                                },
                                "size": "huge",
                                "skills": {
                                    "acr": {
                                        "modifier": 25
                                    }
                                },
                                "strikes": {
                                    "gust": {
                                        "damage": {
                                            "dice": 2,
                                            "modifier": 11
                                        },
                                        "modifier": 25,
                                        "traits": [
                                            "unarmed",
                                            "reach-15"
                                        ]
                                    }
                                },
                                "tempHP": 20
                            }
                        }
                    ],
                    "field": "item|data.level.value"
                }
            },
            {
                "key": "ActiveEffectLike",
                "mode": "override",
                "path": "flags.pf2e.disableABP",
                "priority": 10,
                "value": true
            }
        ],
        "source": {
            "value": ""
        },
        "start": {
            "initiative": null,
            "value": 0
        },
        "target": null,
        "tokenIcon": {
            "show": true
        },
        "traits": {
            "custom": "",
            "rarity": "common",
            "value": []
        }
    },
    "flags": {},
    "img": "systems/pf2e/icons/spells/elemental-form-air.webp",
    "name": "Spell Effect: Elemental Form (Air)",
    "type": "effect"
}
