{
    "_id": "57lnrCzGUcNUBP2O",
    "data": {
        "description": {
            "value": "<p>Granted by <em>@Compendium[pf2e.spells-srd.Athletic Rush]{Athletic Rush}</em>.</p>\n<p>You gain a +10-foot status bonus to Speed and a +2 status bonus to Athletics checks.</p>"
        },
        "duration": {
            "expiry": "turn-start",
            "sustained": false,
            "unit": "rounds",
            "value": 1
        },
        "level": {
            "value": 1
        },
        "rules": [
            {
                "key": "FlatModifier",
                "selector": "land-speed",
                "type": "status",
                "value": 10
            },
            {
                "key": "FlatModifier",
                "selector": "athletics",
                "type": "status",
                "value": 2
            }
        ],
        "source": {
            "value": ""
        },
        "start": {
            "initiative": null,
            "value": 0
        },
        "target": null,
        "tokenIcon": {
            "show": true
        },
        "traits": {
            "custom": "",
            "rarity": "common",
            "value": []
        }
    },
    "flags": {},
    "img": "systems/pf2e/icons/spells/athletic-rush.webp",
    "name": "Spell Effect: Athletic Rush",
    "type": "effect"
}
