{
    "_id": "Qr5rgoZvI4KmFY0N",
    "data": {
        "badge": null,
        "description": {
            "value": "<p>Granted by @Compendium[pf2e.spells-srd.Calm Emotions]{Calm Emotions}</p>\n<hr />\n<p>Calming urges impose a -1 status penalty to the creatures attack rolls.</p>"
        },
        "duration": {
            "expiry": "turn-start",
            "sustained": false,
            "unit": "unlimited",
            "value": -1
        },
        "level": {
            "value": 1
        },
        "rules": [
            {
                "key": "FlatModifier",
                "label": "Calm Emotions",
                "selector": "attack",
                "type": "status",
                "value": -1
            }
        ],
        "source": {
            "value": "Pathfinder Core Rulebook"
        },
        "start": {
            "initiative": null,
            "value": 0
        },
        "target": null,
        "tokenIcon": {
            "show": true
        },
        "traits": {
            "custom": "",
            "rarity": "common",
            "value": []
        }
    },
    "flags": {},
    "img": "systems/pf2e/icons/spells/calm-emotions.webp",
    "name": "Spell Effect: Calm Emotions",
    "type": "effect"
}
