{
    "_id": "XTHcALqbg5kgxtPw",
    "data": {
        "attributes": {
            "ac": {
                "value": 10
            },
            "hardness": 0,
            "hasHealth": false,
            "hp": {
                "details": "",
                "max": 0,
                "temp": 0,
                "tempmax": 0,
                "value": 0
            },
            "stealth": {
                "details": "<p>(expert)</p>",
                "value": 25
            }
        },
        "creatureType": "",
        "details": {
            "description": "<p>A spike of stone bursts from the south wall and quickly retracts.</p>",
            "disable": "<p>DC 33 Arcana (master) to quell the rippling stone or <i>dispel magic</i> (7th level, counteract DC 31) to dispel the magical feedback.</p>",
            "isComplex": false,
            "level": {
                "value": 13
            },
            "reset": "",
            "routine": ""
        },
        "saves": {
            "fortitude": {
                "saveDetail": "",
                "value": 0
            },
            "reflex": {
                "saveDetail": "",
                "value": 0
            },
            "will": {
                "saveDetail": "",
                "value": 0
            }
        },
        "source": {
            "value": "Pathfinder #160: Assault on Hunting Lodge Seven"
        },
        "statusEffects": [],
        "traits": {
            "ci": [],
            "di": {
                "custom": "",
                "selected": {},
                "value": []
            },
            "dr": [],
            "dv": [],
            "rarity": "common",
            "size": {
                "value": "med"
            },
            "traits": {
                "custom": "",
                "value": [
                    "arcane",
                    "magical"
                ]
            }
        }
    },
    "flags": {},
    "img": "systems/pf2e/icons/default-icons/hazard.svg",
    "items": [
        {
            "_id": "aSzrKKXR7hl8ZVhX",
            "data": {
                "actionCategory": {
                    "value": "offensive"
                },
                "actionType": {
                    "value": "reaction"
                },
                "actions": {
                    "value": null
                },
                "description": {
                    "value": "<p><strong>Trigger</strong> A creature in area <strong>E1</strong> casts an arcane spell or uses an arcane ability</p>\n<p><strong>Effect</strong> The trap makes a stone spike attack against the triggering creature. For the next 1 minute thereafter, the ripples are stronger, giving the trap a +2 circumstance bonus on stone spike Strikes during this time.</p>"
                },
                "requirements": {
                    "value": ""
                },
                "rules": [],
                "slug": null,
                "source": {
                    "value": ""
                },
                "traits": {
                    "custom": "",
                    "rarity": "common",
                    "value": [
                        "arcane",
                        "earth",
                        "evocation"
                    ]
                },
                "trigger": {
                    "value": ""
                },
                "weapon": {
                    "value": ""
                }
            },
            "flags": {},
            "img": "systems/pf2e/icons/actions/Reaction.webp",
            "name": "Stone Spike",
            "sort": 100000,
            "type": "action"
        },
        {
            "_id": "ELoLmxNU0ywpt3HM",
            "data": {
                "attack": {
                    "value": ""
                },
                "attackEffects": {
                    "custom": "",
                    "value": []
                },
                "bonus": {
                    "value": 31
                },
                "damageRolls": {
                    "vv9vibg2hergwu0s99vvd6": {
                        "damage": "6d12+24",
                        "damageType": "piercing"
                    }
                },
                "description": {
                    "value": ""
                },
                "rules": [],
                "slug": null,
                "source": {
                    "value": ""
                },
                "traits": {
                    "custom": "",
                    "rarity": "common",
                    "value": []
                },
                "weaponType": {
                    "value": "melee"
                }
            },
            "flags": {},
            "img": "systems/pf2e/icons/default-icons/melee.svg",
            "name": "stone spike",
            "sort": 200000,
            "type": "melee"
        }
    ],
    "name": "Arcane Feedback Trap",
    "token": {
        "disposition": 0,
        "height": 1,
        "img": "systems/pf2e/icons/default-icons/hazard.svg",
        "name": "Arcane Feedback Trap",
        "width": 1
    },
    "type": "hazard"
}
