{
    "_id": "xw7S8108irh2D1Uw",
    "data": {
        "attributes": {
            "ac": {
                "value": 22
            },
            "hardness": 10,
            "hasHealth": true,
            "hp": {
                "details": "(BT 30) to destroy the seal and disable the trap",
                "max": 60,
                "temp": 0,
                "tempmax": 0,
                "value": 60
            },
            "stealth": {
                "details": "<p>(trained) or DC 23 (trained) to notice scratches around the musical pipes and a slight give to the seal</p>",
                "value": 11
            }
        },
        "creatureType": "",
        "details": {
            "description": "<p>Four dart-loaded pipes hidden in the diagonal walls are connected to a pressure plate under the brass seal in the room's center.</p>",
            "disable": "<p>Thievery DC 22 (trained) to disable the pressure plate, or four Thievery DC 18 (trained) checks to plug the dart launchers</p>",
            "isComplex": true,
            "level": {
                "value": 3
            },
            "reset": "<p>The trap runs out of darts after 4 rounds of firing and must be reset manually by dismantling the walls to reload the launchers. If at any point there are no longer more than two creatures placing weight on the floor, the trap ceases firing but remains armed, ready to resume firing its remaining darts once triggered again.</p>",
            "routine": "<p>(4 actions) The trap loses 1 action for each disabled launcher. On each of the trap's actions, it fires one dart at a creature in the center of the room.</p>"
        },
        "saves": {
            "fortitude": {
                "saveDetail": "",
                "value": 13
            },
            "reflex": {
                "saveDetail": "",
                "value": 7
            },
            "will": {
                "saveDetail": "",
                "value": 0
            }
        },
        "source": {
            "value": "Pathfinder #157: Devil at the Dreaming Palace"
        },
        "statusEffects": [],
        "traits": {
            "ci": [],
            "di": {
                "custom": "",
                "selected": {},
                "value": [
                    "precision",
                    "critical-hits",
                    "object-immunities"
                ]
            },
            "dr": [],
            "dv": [],
            "rarity": "common",
            "size": {
                "value": "med"
            },
            "traits": {
                "custom": "",
                "value": [
                    "mechanical",
                    "trap"
                ]
            }
        }
    },
    "flags": {},
    "img": "systems/pf2e/icons/default-icons/hazard.svg",
    "items": [
        {
            "_id": "HIbGLn4unRGk8EZL",
            "data": {
                "actionCategory": {
                    "value": ""
                },
                "actionType": {
                    "value": "reaction"
                },
                "actions": {
                    "value": null
                },
                "description": {
                    "value": "<p><strong>Trigger</strong> More than two Small or larger creatures step on the brass seal.</p>\n<p><strong>Effect</strong> The trap makes up to four dart Strikes against creatures standing on the seal, then rolls initiative.</p>"
                },
                "requirements": {
                    "value": ""
                },
                "rules": [],
                "slug": null,
                "source": {
                    "value": ""
                },
                "traits": {
                    "custom": "",
                    "rarity": "common",
                    "value": []
                },
                "trigger": {
                    "value": ""
                },
                "weapon": {
                    "value": ""
                }
            },
            "flags": {},
            "img": "systems/pf2e/icons/actions/Reaction.webp",
            "name": "Dart Volley",
            "sort": 100000,
            "type": "action"
        },
        {
            "_id": "7UeREmeUuipS0pKu",
            "data": {
                "attack": {
                    "value": ""
                },
                "attackEffects": {
                    "custom": "",
                    "value": []
                },
                "bonus": {
                    "value": 12
                },
                "damageRolls": {
                    "0": {
                        "damage": "3d6",
                        "damageType": "piercing"
                    }
                },
                "description": {
                    "value": ""
                },
                "rules": [],
                "slug": null,
                "source": {
                    "value": ""
                },
                "traits": {
                    "custom": "no multiple attack penalty",
                    "rarity": "common",
                    "value": [
                        "no multiple attack penalty"
                    ]
                },
                "weaponType": {
                    "value": "ranged"
                }
            },
            "flags": {},
            "img": "systems/pf2e/icons/default-icons/melee.svg",
            "name": "Dart",
            "sort": 200000,
            "type": "melee"
        }
    ],
    "name": "Dart Barrage",
    "token": {
        "disposition": 0,
        "height": 1,
        "img": "systems/pf2e/icons/default-icons/hazard.svg",
        "name": "Dart Barrage",
        "width": 1
    },
    "type": "hazard"
}
