{
    "_id": "k1s8syi5E2FoR3Q3",
    "data": {
        "attributes": {
            "ac": {
                "value": 0
            },
            "hardness": 0,
            "hasHealth": true,
            "hp": {
                "details": "",
                "max": 10,
                "temp": 0,
                "value": 10
            },
            "stealth": {
                "details": "<p>(master)</p>",
                "value": 33
            }
        },
        "creatureType": "",
        "details": {
            "description": "<p>Miniature snowflake-shaped glyphs on the ground cause a layer of ice to ripple over the floor of the room and sound a silent alarm.</p>",
            "disable": "<p>@Check[type:arcana|dc:53|name:Disable Arcana] (legendary) to draw a fiery counteracting glyph over each snowflake, or <em>@Compendium[pf2e.spells-srd.Dispel Magic]{Dispel Magic}</em> (9th level, counteract DC 48)</p>",
            "isComplex": false,
            "level": {
                "value": 20
            },
            "reset": "<p>1 day</p>",
            "routine": ""
        },
        "saves": {
            "fortitude": {
                "saveDetail": "",
                "value": 0
            },
            "reflex": {
                "saveDetail": "",
                "value": 0
            },
            "will": {
                "saveDetail": "",
                "value": 0
            }
        },
        "source": {
            "value": "Pathfinder #162: Ruins of the Radiant Siege"
        },
        "statusEffects": [],
        "traits": {
            "ci": [],
            "di": {
                "custom": "",
                "selected": {},
                "value": []
            },
            "dr": [],
            "dv": [],
            "rarity": "common",
            "size": {
                "value": "med"
            },
            "traits": {
                "custom": "",
                "value": [
                    "magical",
                    "trap"
                ]
            }
        }
    },
    "flags": {},
    "img": "systems/pf2e/icons/default-icons/hazard.svg",
    "items": [
        {
            "_id": "DdFilDnuHDObT81V",
            "data": {
                "actionCategory": {
                    "value": "offensive"
                },
                "actionType": {
                    "value": "reaction"
                },
                "actions": {
                    "value": null
                },
                "description": {
                    "value": "<p><strong>Trigger</strong> A creature enters one of the three squares marked with a T on the map</p>\n<p><strong>Effect</strong> The floor of the entire 10-foot-by-15-foot antechamber freezes over, sending deadly magical frost creeping up the legs of the intruders. Any creatures standing in the room must roll a @Check[type:reflex|dc:45] save.</p>\n<hr />\n<p><strong>Critical Success</strong> The creature is unaffected.</p>\n<p><strong>Success</strong> The creature takes [[/r {3d10+5}[cold]]]{3d10+5 cold damage}.</p>\n<p><strong>Failure</strong> The creature takes [[/r {6d10+10}[cold]]]{6d10 cold damage} and is @Compendium[pf2e.conditionitems.Slowed]{Slowed 1} for [[/br 1d4 #rounds]]{1d4 rounds}.</p>\n<p><strong>Critical Failure</strong> The creature takes [[/r {12d10+20}[cold]]]{12d10+20 cold damage} and is @Compendium[pf2e.conditionitems.Slowed]{Slowed 1} for 1 minute.</p>\n<p>Additionally, the golems in area B10 become aware of the intruders. The golems activate and come to this room to attack, if they haven't been destroyed already.</p>"
                },
                "requirements": {
                    "value": ""
                },
                "rules": [],
                "slug": null,
                "source": {
                    "value": ""
                },
                "traits": {
                    "custom": "",
                    "rarity": "common",
                    "value": [
                        "cold",
                        "abjuration",
                        "arcane"
                    ]
                },
                "trigger": {
                    "value": ""
                },
                "weapon": {
                    "value": ""
                }
            },
            "flags": {},
            "img": "systems/pf2e/icons/actions/Reaction.webp",
            "name": "Freeze Floor",
            "sort": 100000,
            "type": "action"
        }
    ],
    "name": "Freezing Alarm",
    "token": {
        "disposition": 0,
        "height": 1,
        "img": "systems/pf2e/icons/default-icons/hazard.svg",
        "name": "Freezing Alarm",
        "width": 1
    },
    "type": "hazard"
}
