{
    "_id": "b7AnzEzoMGFpM33z",
    "data": {
        "attributes": {
            "ac": {
                "value": 39
            },
            "hardness": 22,
            "hasHealth": true,
            "hp": {
                "details": "",
                "max": 112,
                "temp": 0,
                "tempmax": 0,
                "value": 112
            },
            "stealth": {
                "details": "<p>(master)</p>",
                "value": 36
            }
        },
        "creatureType": "",
        "details": {
            "description": "<p>Steel hatch doors automatically lock shut in each of the four vats labeled <strong>J2</strong>. Four ink spouts (one per vat) jut through a narrow aperture in the ceiling of each vat, 20 feet above.</p>",
            "disable": "<p>DC 40 Thievery (master) to seal an ink spout, DC 48 Thievery (master) to unlock a steel hatch door, or DC 45 Athletics (master) to Force Open a steel hatch door</p>",
            "isComplex": true,
            "level": {
                "value": 18
            },
            "reset": "<p>The trap can be reset by refilling the ink storage tanks above the vats.</p>",
            "routine": "<p>(4 actions) The trap loses 1 action for each disabled ink spout. On each of the trap's actions, a spout pours ink, increasing the depth of the ink in that vat by 2 feet. Creatures standing in the ink are exposed to a dose of poison ink. Once the vat is full of ink, the trap stops using actions, but creatures in the vat might start drowning.</p>"
        },
        "saves": {
            "fortitude": {
                "saveDetail": "",
                "value": 30
            },
            "reflex": {
                "saveDetail": "",
                "value": 27
            },
            "will": {
                "saveDetail": "",
                "value": 0
            }
        },
        "source": {
            "value": "Pathfinder #161: Belly of the Black Whale"
        },
        "statusEffects": [],
        "traits": {
            "ci": [],
            "di": {
                "custom": "",
                "selected": {},
                "value": [
                    "critical-hits",
                    "object-immunities",
                    "precision"
                ]
            },
            "dr": [],
            "dv": [],
            "rarity": "common",
            "size": {
                "value": "med"
            },
            "traits": {
                "custom": "",
                "value": [
                    "mechanical"
                ]
            }
        }
    },
    "flags": {},
    "img": "systems/pf2e/icons/default-icons/hazard.svg",
    "items": [
        {
            "_id": "6cFodLsS9nMte5ts",
            "data": {
                "actionCategory": {
                    "value": "offensive"
                },
                "actionType": {
                    "value": "reaction"
                },
                "actions": {
                    "value": null
                },
                "description": {
                    "value": "<p><strong>Trigger</strong> The switch outside the vats is pulled</p>\n<p><strong>Effect</strong> The trap rolls initiative.</p>"
                },
                "requirements": {
                    "value": ""
                },
                "rules": [],
                "slug": null,
                "source": {
                    "value": ""
                },
                "traits": {
                    "custom": "",
                    "rarity": "common",
                    "value": []
                },
                "trigger": {
                    "value": ""
                },
                "weapon": {
                    "value": ""
                }
            },
            "flags": {},
            "img": "systems/pf2e/icons/actions/Reaction.webp",
            "name": "Fill Tank",
            "sort": 100000,
            "type": "action"
        },
        {
            "_id": "09M4q5fVCuvOwcWk",
            "data": {
                "actionCategory": {
                    "value": "offensive"
                },
                "actionType": {
                    "value": "passive"
                },
                "actions": {
                    "value": null
                },
                "description": {
                    "value": "<p><strong>Saving Throw</strong> @Check[type:fortitude|dc:38]</p>\n<p><strong>Maximum Duration</strong> 10 rounds</p>\n<p><strong>Stage 1</strong> 3d6 poison damage and sickened 1 (1 round)</p>\n<p><strong>Stage 2</strong> 4d6 poison damage and sickened 2 (1 round)</p>"
                },
                "requirements": {
                    "value": ""
                },
                "rules": [],
                "slug": null,
                "source": {
                    "value": ""
                },
                "traits": {
                    "custom": "",
                    "rarity": "common",
                    "value": [
                        "poison"
                    ]
                },
                "trigger": {
                    "value": ""
                },
                "weapon": {
                    "value": ""
                }
            },
            "flags": {},
            "img": "systems/pf2e/icons/actions/Passive.webp",
            "name": "Poison Ink",
            "sort": 200000,
            "type": "action"
        }
    ],
    "name": "Ink Drowning Vats",
    "token": {
        "disposition": 0,
        "height": 1,
        "img": "systems/pf2e/icons/default-icons/hazard.svg",
        "name": "Ink Drowning Vats",
        "width": 1
    },
    "type": "hazard"
}
