{
    "_id": "pda6iUaU9waXId5Q",
    "data": {
        "actionCategory": {
            "value": ""
        },
        "actionType": {
            "value": "passive"
        },
        "actions": {
            "value": null
        },
        "description": {
            "value": "<p>Your eidolon becomes more capable of using its unarmed attacks. Its proficiency rank for unarmed attacks increases to expert.</p>"
        },
        "featType": {
            "value": "classfeature"
        },
        "level": {
            "value": 5
        },
        "location": "",
        "prerequisites": {
            "value": []
        },
        "rules": [],
        "source": {
            "value": ""
        },
        "traits": {
            "custom": "",
            "rarity": "common",
            "value": [
                "summoner"
            ]
        }
    },
    "flags": {},
    "img": "systems/pf2e/icons/features/classes/eidolon-unarmed-expertise.webp",
    "name": "Eidolon Unarmed Expertise",
    "type": "feat"
}
