{
    "_id": "Jgid6Ja6Y879COlN",
    "data": {
        "actionCategory": {
            "value": ""
        },
        "actionType": {
            "value": "passive"
        },
        "actions": {
            "value": null
        },
        "description": {
            "value": "<p>You move carefully, feinting and creating false openings to lead your foes into inopportune attacks.</p>\n<p>You are trained in Deception. You gain @Compendium[pf2e.classfeatures.Panache]{Panache} during an encounter whenever you successfully @Compendium[pf2e.actionspf2e.Feint]{Feint} or @Compendium[pf2e.actionspf2e.Create a Diversion]{Create a Diversion} against a foe.</p>"
        },
        "featType": {
            "value": "classfeature"
        },
        "level": {
            "value": 1
        },
        "location": "",
        "prerequisites": {
            "value": []
        },
        "rules": [
            {
                "key": "FlatModifier",
                "predicate": {
                    "all": [
                        "panache"
                    ],
                    "any": [
                        "action:feint",
                        "action:create-a-diversion"
                    ]
                },
                "selector": "deception",
                "type": "circumstance",
                "value": 1
            },
            {
                "key": "ActiveEffectLike",
                "mode": "upgrade",
                "path": "data.skills.dec.rank",
                "predicate": {
                    "all": [
                        "class:swashbuckler"
                    ]
                },
                "value": 1
            }
        ],
        "source": {
            "value": "Pathfinder Advanced Player's Guide"
        },
        "traits": {
            "custom": "",
            "rarity": "common",
            "value": [
                "swashbuckler"
            ]
        }
    },
    "flags": {},
    "img": "systems/pf2e/icons/features/classes/fencer-style.webp",
    "name": "Fencer",
    "type": "feat"
}
