{
    "_id": "px3gVYp7zlEQIpcl",
    "data": {
        "actionCategory": {
            "value": ""
        },
        "actionType": {
            "value": "passive"
        },
        "actions": {
            "value": null
        },
        "description": {
            "value": "<p>Your proficiency ranks for divine spell attack rolls and spell DCs increase to expert.</p>"
        },
        "featType": {
            "value": "classfeature"
        },
        "level": {
            "value": 11
        },
        "location": "",
        "prerequisites": {
            "value": []
        },
        "rules": [
            {
                "key": "ActiveEffectLike",
                "mode": "upgrade",
                "path": "data.proficiencies.traditions.divine.rank",
                "value": 2
            },
            {
                "key": "ActiveEffectLike",
                "mode": "upgrade",
                "path": "flags.pf2e.favoredWeaponRank",
                "value": 2
            }
        ],
        "source": {
            "value": ""
        },
        "traits": {
            "custom": "",
            "rarity": "common",
            "value": [
                "cleric"
            ]
        }
    },
    "flags": {},
    "img": "systems/pf2e/icons/features/classes/warpriest.webp",
    "name": "Fourth Doctrine (Warpriest)",
    "type": "feat"
}
