{
    "_id": "LzB6X9vOaq3wq1FZ",
    "data": {
        "actionCategory": {
            "value": ""
        },
        "actionType": {
            "value": "passive"
        },
        "actions": {
            "value": null
        },
        "description": {
            "value": "<p>You can defy fate and continue fighting as long as you have divine energy. You gain the <em>@Compendium[pf2e.spells-srd.Hero's Defiance]{Hero's Defiance}</em> devotion spell.</p>"
        },
        "featType": {
            "value": "classfeature"
        },
        "level": {
            "value": 19
        },
        "location": "",
        "prerequisites": {
            "value": []
        },
        "rules": [],
        "source": {
            "value": ""
        },
        "traits": {
            "custom": "",
            "rarity": "common",
            "value": [
                "champion"
            ]
        }
    },
    "flags": {},
    "img": "systems/pf2e/icons/features/classes/heros-defiance.webp",
    "name": "Hero's Defiance",
    "type": "feat"
}
