{
    "_id": "mJpPaoVlNmTK47x1",
    "data": {
        "actionCategory": {
            "value": ""
        },
        "actionType": {
            "value": "passive"
        },
        "actions": {
            "value": null
        },
        "description": {
            "value": "<p>You fully understand your weapons. Your proficiency ranks for simple and martial weapons and unarmed attacks increase to master.</p>"
        },
        "featType": {
            "value": "classfeature"
        },
        "level": {
            "value": 13
        },
        "location": "",
        "prerequisites": {
            "value": []
        },
        "rules": [],
        "source": {
            "value": ""
        },
        "traits": {
            "custom": "",
            "rarity": "common",
            "value": [
                "inventor"
            ]
        }
    },
    "flags": {},
    "img": "systems/pf2e/icons/features/classes/weapon-mastery.webp",
    "name": "Inventor Weapon Mastery",
    "type": "feat"
}
