{
    "_id": "evKUM58ymuuypRn9",
    "data": {
        "actionCategory": {
            "value": ""
        },
        "actionType": {
            "value": "passive"
        },
        "actions": {
            "value": null
        },
        "description": {
            "value": "<p>You gain the <em>@Compendium[pf2e.spells-srd.Veil of Dreams]{Veil of Dreams}</em> hex, and your familiar learns <em>@Compendium[pf2e.spells-srd.Sleep]{Sleep}</em>.</p>"
        },
        "featType": {
            "value": "classfeature"
        },
        "level": {
            "value": 2
        },
        "location": "",
        "prerequisites": {
            "value": []
        },
        "rules": [],
        "source": {
            "value": "Pathfinder Advanced Player's Guide"
        },
        "traits": {
            "custom": "",
            "rarity": "common",
            "value": [
                "witch"
            ]
        }
    },
    "flags": {},
    "img": "systems/pf2e/icons/spells/veil-of-dreams.webp",
    "name": "Lesson of Dreams",
    "type": "feat"
}
