{
    "_id": "29ynmOCdtIFDzrWx",
    "data": {
        "actionCategory": {
            "value": ""
        },
        "actionType": {
            "value": "passive"
        },
        "actions": {
            "value": null
        },
        "description": {
            "value": "<p>You gain the <em>@Compendium[pf2e.spells-srd.Glacial Heart]{Glacial Heart}</em> hex, and your familiar learns <em>@Compendium[pf2e.spells-srd.Wall of Ice]{Wall of Ice}</em>.</p>"
        },
        "featType": {
            "value": "classfeature"
        },
        "level": {
            "value": 10
        },
        "location": "",
        "prerequisites": {
            "value": []
        },
        "rules": [],
        "source": {
            "value": "Pathfinder Lost Omens Legends"
        },
        "traits": {
            "custom": "",
            "rarity": "rare",
            "value": [
                "witch"
            ]
        }
    },
    "flags": {},
    "img": "systems/pf2e/icons/spells/glacial-heart.webp",
    "name": "Lesson of the Frozen Queen",
    "type": "feat"
}
