{
    "_id": "11nGqrSJOoGRlDjO",
    "data": {
        "actionCategory": {
            "value": ""
        },
        "actionType": {
            "value": "passive"
        },
        "actions": {
            "value": null
        },
        "description": {
            "value": "<p>You have perfected your perpetual infusions, allowing you to use @Compendium[pf2e.classfeatures.Quick Alchemy]{Quick Alchemy} to create even more powerful items at no cost. The items you can select depend on your research field and must be in your formula book.</p>"
        },
        "featType": {
            "value": "classfeature"
        },
        "level": {
            "value": 17
        },
        "location": "",
        "prerequisites": {
            "value": []
        },
        "rules": [
            {
                "key": "GrantItem",
                "predicate": {
                    "all": [
                        "feature:bomber"
                    ]
                },
                "uuid": "Compendium.pf2e.classfeatures.Perpetual Perfection (Bomber)"
            },
            {
                "key": "GrantItem",
                "predicate": {
                    "all": [
                        "feature:chirurgeon"
                    ]
                },
                "uuid": "Compendium.pf2e.classfeatures.Perpetual Perfection (Chirurgeon)"
            },
            {
                "key": "GrantItem",
                "predicate": {
                    "all": [
                        "feature:mutagenist"
                    ]
                },
                "uuid": "Compendium.pf2e.classfeatures.Perpetual Perfection (Mutagenist)"
            },
            {
                "key": "GrantItem",
                "predicate": {
                    "all": [
                        "feature:toxicologist"
                    ]
                },
                "uuid": "Compendium.pf2e.classfeatures.Perpetual Perfection (Toxicologist)"
            }
        ],
        "source": {
            "value": "Pathfinder Core Rulebook"
        },
        "traits": {
            "custom": "",
            "rarity": "common",
            "value": [
                "alchemist"
            ]
        }
    },
    "flags": {},
    "img": "systems/pf2e/icons/features/classes/choice-feature.webp",
    "name": "Perpetual Perfection",
    "type": "feat"
}
