{
    "_id": "dmK1wya8GBi9MmCB",
    "data": {
        "actionCategory": {
            "value": ""
        },
        "actionType": {
            "value": "passive"
        },
        "actions": {
            "value": null
        },
        "description": {
            "value": "<p>At 3rd level and every odd-numbered level thereafter, you gain a skill feat. This feat must be for an Intelligence-, Wisdom-, or Charisma-based skill, or for the skill you gained from your methodology.</p>"
        },
        "featType": {
            "value": "classfeature"
        },
        "level": {
            "value": 3
        },
        "location": "",
        "prerequisites": {
            "value": []
        },
        "rules": [],
        "source": {
            "value": ""
        },
        "traits": {
            "custom": "",
            "rarity": "common",
            "value": [
                "investigator"
            ]
        }
    },
    "flags": {},
    "img": "systems/pf2e/icons/features/classes/skillful-lessons.webp",
    "name": "Skillful Lessons",
    "type": "feat"
}
