{
    "_id": "FyT7VwMCJjjHDSgO",
    "data": {
        "actionCategory": {
            "value": "interaction"
        },
        "actionType": {
            "value": "passive"
        },
        "actions": {
            "value": null
        },
        "description": {
            "value": "<p><strong>Overcome</strong> @Check[type:andoran-lore|dc:32], @Check[type:diplomacy|dc:36], @Check[type:society|dc:34]</p>\n<hr />\n<p>The PC surreptitiously tries to contact the Steel Falcons in Katapesh.</p>\n<hr />\n<p><strong>Success</strong> The PC arranges a meeting with the Steel Falcons. They're eager to combine forces with powerful operatives like the PCs in the name of liberating the oppressed, and they can provide information about the upcoming auction equivalent to a Gather Information success. In addition, the Steel Falcons grant the PCs 1 Edge Point.</p>\n<p><strong>Failure</strong> The PC fails to make contact.</p>\n<p><strong>Critical Failure</strong> The PC's clumsy attempt spooks the Steel Falcons. Future attempts at this activity take a -2 circumstance penalty.</p>\n<hr />\n<p><strong>Special</strong> If the PCs don't succeed at this Opportunity, the Steel Falcons independently decide to launch their own heist that overlaps with-and potentially interferes with-the PCs' heist.</p>"
        },
        "requirements": {
            "value": ""
        },
        "rules": [],
        "source": {
            "value": "Pathfinder #149: Against the Scarlet Triad"
        },
        "traits": {
            "custom": "",
            "rarity": "common",
            "value": [
                "downtime"
            ]
        },
        "trigger": {
            "value": ""
        }
    },
    "flags": {},
    "img": "systems/pf2e/icons/actions/Passive.webp",
    "name": "Contact Steel Falcons",
    "type": "action"
}
