{
    "_id": "nLLgAxo4IHebsyg1",
    "data": {
        "actionCategory": {
            "value": "interaction"
        },
        "actionType": {
            "value": "passive"
        },
        "actions": {
            "value": null
        },
        "description": {
            "value": "<p><strong>Overcome</strong> 2 successes; @Check[type:arcana|dc:34] or @Check[type:thievery|dc:34]</p>\n<hr />\n<p>The PCs suppress or disable dangerous traps set to kill would-be thieves and make an explosive ruckus.</p>\n<p><strong>Special</strong> If a PC fails a check to overcome this scene, they trigger a trap that deals [[/r {16d6}[damage]]]{16d6 damage} to that PC (@Check[type:reflex|dc:36|basic:true]). If the PC critically fails, it deals this damage to all PCs in the scene.</p>"
        },
        "requirements": {
            "value": ""
        },
        "rules": [],
        "source": {
            "value": "Pathfinder #149: Against the Scarlet Triad"
        },
        "traits": {
            "custom": "",
            "rarity": "common",
            "value": [
                "exploration"
            ]
        },
        "trigger": {
            "value": ""
        }
    },
    "flags": {},
    "img": "systems/pf2e/icons/actions/Passive.webp",
    "name": "Deadly Traps",
    "type": "action"
}
