{
    "_id": "G8xZPhzoLF1SGyV9",
    "data": {
        "actionCategory": {
            "value": "interaction"
        },
        "actionType": {
            "value": "passive"
        },
        "actions": {
            "value": null
        },
        "description": {
            "value": "<p><strong>Trigger</strong> A PC uses magic to aid in overcoming an Obstacle during infiltration.</p>\n<p><strong>Overcome</strong> 3 successes: @Check[type:arcana|dc:35], @Check[type:deception|dc:37], @Check[type:nature|dc:35], @Check[type:occultism|dc:35], @Check[type:religion|dc:35]</p>\n<hr />\n<p>Among the Scarlet Triad's security is a highly competent diviner! With spells such as @Compendium[pf2e.spells-srd.Discern Lies]{Discern Lies}, @Compendium[pf2e.spells-srd.Mind Reading]{Mind Reading}, @Compendium[pf2e.spells-srd.See Invisibility]{See Invisibility}, and @Compendium[pf2e.spells-srd.True Seeing]{True Seeing}, this diviner can see through most magical schemes the PCs might use.</p>\n<p>The diviner is watching for magical threats, not poison. With a successful @Check[type:deception|dc:33], @Check[type:thievery|dc:33], or food-related Lore check, a PC can trick her into consuming something laden with an ingested poison. Her Fortitude save bonus is [[/r {1d20+23}[fortitude]]]{+23}, and she withdraws if successfully poisoned. If not successfully poisoned, increase the PCs' Awareness Points by 2.</p>"
        },
        "requirements": {
            "value": ""
        },
        "rules": [],
        "source": {
            "value": "Pathfinder #149: Against the Scarlet Triad"
        },
        "traits": {
            "custom": "",
            "rarity": "common",
            "value": [
                "exploration"
            ]
        },
        "trigger": {
            "value": ""
        }
    },
    "flags": {},
    "img": "systems/pf2e/icons/actions/Passive.webp",
    "name": "Diviner on Duty",
    "type": "action"
}
