{
    "_id": "fUNCyoyLgpIYFLe1",
    "data": {
        "actionCategory": {
            "value": "interaction"
        },
        "actionType": {
            "value": "passive"
        },
        "actions": {
            "value": null
        },
        "description": {
            "value": "<p>You dedicate a day to befriending members of a particular guild, assisting the organization, and convincing the guild members not to support the Scarlet Triad. Attempt a DC 34 skill check tied to one of the organization's favored skills.</p>\n<hr />\n<p><strong>Critical Success</strong> Reduce that organization's Support Points by 3.</p>\n<p><strong>Success</strong> Reduce that organization's Support Points by 1.</p>\n<p><strong>Critical Failure</strong> Increase that organization's Support Points by 1.</p>"
        },
        "requirements": {
            "value": ""
        },
        "rules": [],
        "source": {
            "value": "Pathfinder #149: Against the Scarlet Triad"
        },
        "traits": {
            "custom": "",
            "rarity": "common",
            "value": [
                "downtime"
            ]
        },
        "trigger": {
            "value": ""
        }
    },
    "flags": {},
    "img": "systems/pf2e/icons/actions/Passive.webp",
    "name": "Influence Guild",
    "type": "action"
}
