{
    "_id": "5QQqv1A3aG6G2Sui",
    "data": {
        "actionCategory": {
            "value": "interaction"
        },
        "actionType": {
            "value": "passive"
        },
        "actions": {
            "value": null
        },
        "description": {
            "value": "<p><strong>Requirements</strong> Crafting (expert), Specialty Crafting (stonemasonry), or hired stonemason; organized workers</p>\n<hr />\n<p>You work to clear rubble and rebuild the stairs connecting citadel floors, requiring a @Check[type:crafting|dc:20] check. Repairing the stairs from the courtyard to the battlement (connecting areas A12 and A22) takes 4 days. Repairing the stairs from the courtyard to the vault (connecting areas A12 and B1) takes 4 days. Digging out the long flight of stairs down to Alseta's Ring (connecting areas B1 and D7) takes 8 days.</p>"
        },
        "requirements": {
            "value": ""
        },
        "rules": [],
        "source": {
            "value": "Pathfinder #146: Cult of Cinders"
        },
        "traits": {
            "custom": "",
            "rarity": "common",
            "value": [
                "downtime",
                "manipulate"
            ]
        },
        "trigger": {
            "value": ""
        }
    },
    "flags": {},
    "img": "systems/pf2e/icons/actions/Passive.webp",
    "name": "Rebuild Collapsed Stairs",
    "type": "action"
}
