{
    "_id": "IQewgylxmkmBYcoY",
    "data": {
        "actionCategory": {
            "value": "interaction"
        },
        "actionType": {
            "value": "passive"
        },
        "actions": {
            "value": null
        },
        "description": {
            "value": "<p><strong>Overcome</strong> @Check[type:diplomacy|dc:35], @Check[type:society|dc:35]</p>\n<hr />\n<p>The PC seeks out someone with an invitation they're willing to sell.</p>\n<hr />\n<p><strong>Critical Success</strong> The PC finds an invitation-holder and convinces them to give away the invitation for free. The PCs gain 1 Edge Point.</p>\n<p><strong>Success</strong> The PC finds someone willing to sell their invitation for 250 gp. If they pay, the group gets 1 Edge Point. They can attempt to steal it instead (@Check[type:thievery|dc:34]), but if they do, increase Awareness at the beginning of Phase 2: Infiltration by 2.</p>\n<p><strong>Failure</strong> The PC is unable to find an invitation.</p>"
        },
        "requirements": {
            "value": ""
        },
        "rules": [],
        "source": {
            "value": "Pathfinder #149: Against the Scarlet Triad"
        },
        "traits": {
            "custom": "",
            "rarity": "common",
            "value": [
                "downtime"
            ]
        },
        "trigger": {
            "value": ""
        }
    },
    "flags": {},
    "img": "systems/pf2e/icons/actions/Passive.webp",
    "name": "Secure Invitation",
    "type": "action"
}
