{
    "_id": "o3u4snDwjBDcNlG3",
    "data": {
        "actionCategory": {
            "value": "interaction"
        },
        "actionType": {
            "value": "action"
        },
        "actions": {
            "value": 3
        },
        "description": {
            "value": "<p><strong>Requirements</strong> You are adjacent to a column of crates.</p>\n<hr />\n<p>You attempt to topple a stack of heavy crates onto a foe. Attempt a DC 22 Athletics check.</p>\n<hr />\n<p><strong>Success</strong> You topple the crates toward a target within a @Template[type:line|distance:15]{15-foot line} from the column. The falling crates deal [[/r {3d10+6}[bludgeoning]]]{3d10+6 bludgeoning damage} with a @Check[type:reflex|dc:26|basic:true] save. A creature that critically fails is also knocked @Compendium[pf2e.conditionitems.Prone]{Prone}. Any squares where crates crashed down become difficult terrain.</p>\n<p><strong>Failure</strong> You are unable to topple the crates.</p>\n<p><strong>Critical Failure</strong> The crates topple onto you instead, with the same effects as a success but affecting only you and your square.</p>"
        },
        "requirements": {
            "value": ""
        },
        "rules": [],
        "source": {
            "value": "Pathfinder #147: Tomorrow Must Burn"
        },
        "traits": {
            "custom": "",
            "rarity": "common",
            "value": [
                "manipulate"
            ]
        },
        "trigger": {
            "value": ""
        }
    },
    "flags": {},
    "img": "systems/pf2e/icons/actions/ThreeActions.webp",
    "name": "Topple Crates",
    "type": "action"
}
