{
    "_id": "gISYsBFby1TiXfBt",
    "data": {
        "ability": {
            "value": ""
        },
        "area": {
            "areaType": "",
            "value": ""
        },
        "areasize": {
            "value": ""
        },
        "category": {
            "value": "spell"
        },
        "components": {
            "focus": false,
            "material": false,
            "somatic": true,
            "verbal": true
        },
        "cost": {
            "value": ""
        },
        "damage": {
            "value": {
                "0": {
                    "applyMod": false,
                    "type": {
                        "categories": [],
                        "subtype": "",
                        "value": "acid"
                    },
                    "value": "1d6+1"
                },
                "gcovwqxwitqchoin": {
                    "applyMod": false,
                    "type": {
                        "categories": [],
                        "subtype": "splash",
                        "value": "acid"
                    },
                    "value": "1"
                }
            }
        },
        "description": {
            "value": "<p>You splash a glob of acid that splatters your target and nearby creatures. Make a spell attack. If you hit, you deal 1d6 acid damage plus [[/r {1}[splash,acid]]]{1 splash acid damage}. On a critical success, the target also takes [[/r {1}[persistent,acid]]] @Compendium[pf2e.conditionitems.Persistent Damage]{Persistent Acid Damage}.</p>\n<hr />\n<p><strong>Heightened (3rd)</strong> The initial damage increases to 1d6 + your spellcasting ability modifier, and the @Compendium[pf2e.conditionitems.Persistent Damage]{Persistent Damage} increases to [[/r {2}[persistent,acid]]].</p>\n<p><strong>Heightened (5th)</strong> The initial damage increases to 2d6 + your spellcasting ability modifier, the Persistent Damage increases to [[/r {3}[persistent,acid]]], and the splash damage increases to [[/r {2}[splash,acid]]].</p>\n<p><strong>Heightened (7th)</strong> The initial damage increases to 3d6 + your spellcasting ability modifier, the Persistent Damage increases to [[/r {4}[persistent,acid]]], and the splash damage increases to [[/r {3}[splash,acid]]].</p>\n<p><strong>Heightened (9th)</strong> The initial damage increases to 4d6 + your spellcasting ability modifier, the Persistent Damage increases to [[/r {5}[persistent,acid]]], and the splash damage increases to [[/r {4}[splash,acid]]].</p>"
        },
        "duration": {
            "value": ""
        },
        "hasCounteractCheck": {
            "value": false
        },
        "heightening": {
            "levels": {
                "3": {
                    "damage": {
                        "value": {
                            "0": {
                                "applyMod": true,
                                "type": {
                                    "categories": [],
                                    "subtype": "",
                                    "value": "acid"
                                },
                                "value": "1d6+1"
                            },
                            "gcovwqxwitqchoin": {
                                "applyMod": false,
                                "type": {
                                    "categories": [],
                                    "subtype": "splash",
                                    "value": "acid"
                                },
                                "value": "1"
                            }
                        }
                    }
                },
                "5": {
                    "damage": {
                        "value": {
                            "0": {
                                "applyMod": true,
                                "type": {
                                    "categories": [],
                                    "subtype": "",
                                    "value": "acid"
                                },
                                "value": "2d6+1"
                            },
                            "gcovwqxwitqchoin": {
                                "applyMod": false,
                                "type": {
                                    "categories": [],
                                    "subtype": "splash",
                                    "value": "acid"
                                },
                                "value": "2"
                            }
                        }
                    }
                },
                "7": {
                    "damage": {
                        "value": {
                            "0": {
                                "applyMod": true,
                                "type": {
                                    "categories": [],
                                    "subtype": "",
                                    "value": "acid"
                                },
                                "value": "3d6+1"
                            },
                            "gcovwqxwitqchoin": {
                                "applyMod": false,
                                "type": {
                                    "categories": [],
                                    "subtype": "splash",
                                    "value": "acid"
                                },
                                "value": "3"
                            }
                        }
                    }
                },
                "9": {
                    "damage": {
                        "value": {
                            "0": {
                                "applyMod": true,
                                "type": {
                                    "categories": [],
                                    "subtype": "",
                                    "value": "acid"
                                },
                                "value": "4d6+1"
                            },
                            "gcovwqxwitqchoin": {
                                "applyMod": false,
                                "type": {
                                    "categories": [],
                                    "subtype": "splash",
                                    "value": "acid"
                                },
                                "value": "4"
                            }
                        }
                    }
                }
            },
            "type": "fixed"
        },
        "level": {
            "value": 1
        },
        "location": {
            "value": ""
        },
        "materials": {
            "value": ""
        },
        "prepared": {
            "value": ""
        },
        "primarycheck": {
            "value": ""
        },
        "range": {
            "value": "30 feet"
        },
        "rules": [],
        "save": {
            "basic": "",
            "value": ""
        },
        "school": {
            "value": "evocation"
        },
        "secondarycasters": {
            "value": ""
        },
        "secondarycheck": {
            "value": ""
        },
        "source": {
            "value": "Pathfinder Core Rulebook"
        },
        "spellType": {
            "value": "attack"
        },
        "sustained": {
            "value": false
        },
        "target": {
            "value": "1 creature"
        },
        "time": {
            "value": "2"
        },
        "traditions": {
            "custom": "",
            "value": [
                "arcane",
                "primal"
            ]
        },
        "traits": {
            "custom": "",
            "rarity": "common",
            "value": [
                "attack",
                "acid",
                "cantrip"
            ]
        }
    },
    "flags": {},
    "img": "systems/pf2e/icons/spells/acid-splash.webp",
    "name": "Acid Splash",
    "type": "spell"
}
