{
    "_id": "qlxM7Ik3uUeUIOcv",
    "data": {
        "ability": {
            "value": ""
        },
        "area": {
            "areaType": "",
            "value": ""
        },
        "category": {
            "value": "spell"
        },
        "components": {
            "focus": false,
            "material": false,
            "somatic": true,
            "verbal": true
        },
        "cost": {
            "value": ""
        },
        "damage": {
            "value": {}
        },
        "description": {
            "value": "<p>You create a melody distilled from pure grief, conveying the inevitable loss of everything your target cherishes, audible only to them. The target must attempt a Will save.</p>\n<hr />\n<p><strong>Critical Success</strong> The target is unaffected.</p>\n<p><strong>Success</strong> The target takes [[/r {5d6}[mental]]]{5d6 mental damage}, is @Compendium[pf2e.conditionitems.Frightened]{Frightened 1}, and can't benefit from circumstance or status bonuses for 1 round.</p>\n<p><strong>Failure</strong> The target takes [[/r {10d6}[mental]]]{10d6 mental damage}, is @Compendium[pf2e.conditionitems.Frightened]{Frightened 3}, and can't benefit from circumstance or status bonuses for 1 week.</p>\n<p><strong>Critical Failure</strong> The target takes [[/r {20d6}[mental]]]{20d6 mental damage} and is @Compendium[pf2e.conditionitems.Frightened]{Frightened 4}. It can't benefit from circumstance or status bonuses until the curse is broken. While the curse remains, the target's allies are also unable to benefit from circumstance or status bonuses while within 15 feet of it.</p>"
        },
        "duration": {
            "value": "varies"
        },
        "hasCounteractCheck": {
            "value": false
        },
        "level": {
            "value": 8
        },
        "location": {
            "value": ""
        },
        "materials": {
            "value": ""
        },
        "prepared": {
            "value": ""
        },
        "range": {
            "value": "120 feet"
        },
        "rules": [],
        "save": {
            "basic": "",
            "value": "will"
        },
        "school": {
            "value": "enchantment"
        },
        "source": {
            "value": "Pathfinder Secrets of Magic"
        },
        "spellType": {
            "value": "save"
        },
        "sustained": {
            "value": false
        },
        "target": {
            "value": "1 creature"
        },
        "time": {
            "value": "2"
        },
        "traditions": {
            "custom": "",
            "value": [
                "divine",
                "occult"
            ]
        },
        "traits": {
            "custom": "",
            "rarity": "common",
            "value": [
                "auditory",
                "curse",
                "emotion",
                "fear",
                "mental"
            ]
        }
    },
    "flags": {},
    "img": "systems/pf2e/icons/spells/canticle-of-everlasting-grief.webp",
    "name": "Canticle of Everlasting Grief",
    "type": "spell"
}
