{
    "_id": "Hb8GdAhP0zBCv3zU",
    "data": {
        "ability": {
            "value": ""
        },
        "area": {
            "areaType": "",
            "value": ""
        },
        "category": {
            "value": "spell"
        },
        "components": {
            "focus": false,
            "material": false,
            "somatic": true,
            "verbal": true
        },
        "cost": {
            "value": ""
        },
        "damage": {
            "value": {}
        },
        "description": {
            "value": "<p>You send out a ray of colored light streaming toward your enemy, with a magical effect depending on the ray's color. Make a spell attack roll. If you hit, roll [[/r 1d4]]{1d4} to see which beam you cast. If the ray deals damage, that damage is doubled on a critical hit. Any additional traits that apply to a ray are listed in parentheses just after the name of the color.</p>\n<ol>\n<li><strong>Red</strong> (fire) The ray deals [[/r {30}[fire]]]{30 fire damage} to the target.</li>\n<li><strong>Orange</strong> (acid) The ray deals [[/r {40}[acid]]]{40 acid damage} to the target.</li>\n<li><strong>Yellow</strong> (electricity) The ray deals [[/r {50}[electricity]]]{50 electricity damage} to the target.</li>\n<li><strong>Green</strong> (poison) The ray deals [[/r 25 #poison]]{25 poison damage} to the target, and the target must succeed at a Fortitude save or be @Compendium[pf2e.conditionitems.Enfeebled]{Enfeebled 1} for 1 minute (@Compendium[pf2e.conditionitems.Enfeebled]{Enfeebled 2} on a critical failure).</li>\n</ol>\n<hr />\n<p><strong>Heightened (6th)</strong> The damage for [[/r {40}[fire]]]{Red}, [[/r {50}[acid]]]{Orange}, [[/r {60}[electricity]]]{Yellow}, and [[/r 35 #poison]]{Green} each increase by 10. Roll [[/r 1d8]]{1d8} to determine the ray's color, using the results for 1-4 above and the results for 5-8 below.</p>\n<ol start=\"5\">\n<li><strong>Blue</strong> The ray has the effect of the <em>@Compendium[pf2e.spells-srd.Flesh to Stone]{Flesh to Stone}</em> spell. On a critical hit, the target is @Compendium[pf2e.conditionitems.Clumsy]{Clumsy 1} as long as it's @Compendium[pf2e.conditionitems.Slowed]{Slowed} by the <em>flesh to stone</em> effect.</li>\n<li><strong>Indigo</strong> (emotion, incapacitation, mental) The ray has the effect of the <em>@Compendium[pf2e.spells-srd.Confusion]{Confusion}</em> spell. On a critical hit, it has the effect of <em>@Compendium[pf2e.spells-srd.Warp Mind]{Warp Mind}</em> instead.</li>\n<li><strong>Violet</strong> The target is @Compendium[pf2e.conditionitems.Slowed]{Slowed} for 1 minute. It must also succeed at a will save or be teleported 120 feet directly away from you (if there isn't room for it to appear there, it appears in the nearest open space); this is a teleportation effect.</li>\n<li><strong>Intense Color</strong> The target is @Compendium[pf2e.conditionitems.Dazzled]{Dazzled} until the end of your next turn, or @Compendium[pf2e.conditionitems.Blinded]{Blinded} if your attack roll was a critical hit. Roll again and add the effects of another color (rerolling results of 8).</li>\n</ol>"
        },
        "duration": {
            "value": ""
        },
        "hasCounteractCheck": {
            "value": false
        },
        "level": {
            "value": 4
        },
        "location": {
            "value": ""
        },
        "materials": {
            "value": ""
        },
        "prepared": {
            "value": ""
        },
        "range": {
            "value": "30 feet"
        },
        "rules": [],
        "save": {
            "basic": "",
            "value": "fortitude"
        },
        "school": {
            "value": "evocation"
        },
        "source": {
            "value": "Pathfinder Secrets of Magic"
        },
        "spellType": {
            "value": "attack"
        },
        "sustained": {
            "value": false
        },
        "target": {
            "value": "1 creature"
        },
        "time": {
            "value": "2"
        },
        "traditions": {
            "custom": "",
            "value": [
                "arcane",
                "occult"
            ]
        },
        "traits": {
            "custom": "",
            "rarity": "common",
            "value": [
                "attack",
                "light"
            ]
        }
    },
    "flags": {},
    "img": "systems/pf2e/icons/spells/chromatic-ray.webp",
    "name": "Chromatic Ray",
    "type": "spell"
}
