{
    "_id": "S7ylpCJyq0CYkux9",
    "data": {
        "ability": {
            "value": ""
        },
        "area": {
            "areaType": "",
            "value": null
        },
        "areasize": {
            "value": ""
        },
        "category": {
            "value": "spell"
        },
        "components": {
            "material": false,
            "somatic": true,
            "verbal": true
        },
        "cost": {
            "value": ""
        },
        "damage": {
            "value": {}
        },
        "description": {
            "value": "<p>You afflict the target with a curse that causes it to emit ridiculous noises as it moves. Furthermore, the target's hands and feet become awkward and uncoordinated, as though it were wearing oversized gloves and shoes.</p>\n<hr />\n<p><strong>Critical Success</strong> The target is unaffected.</p>\n<p><strong>Success</strong> For 1 round, the target must roll twice and use the worse result whenever attempting an Acrobatics, Stealth, or Thievery check. If the target rolls a failure at an Acrobatics, Stealth, or Thievery check, it gets a critical failure instead.</p>\n<p><strong>Failure</strong> As success, but the effect is 1 hour.</p>\n<p><strong>Critical Failure</strong> As success, except the effect is permanent.</p>"
        },
        "duration": {
            "value": "varies"
        },
        "hasCounteractCheck": {
            "value": false
        },
        "level": {
            "value": 4
        },
        "location": {
            "value": ""
        },
        "materials": {
            "value": ""
        },
        "prepared": {
            "value": ""
        },
        "primarycheck": {
            "value": ""
        },
        "range": {
            "value": "touch"
        },
        "rules": [],
        "save": {
            "basic": "",
            "value": "will"
        },
        "school": {
            "value": "enchantment"
        },
        "secondarycasters": {
            "value": ""
        },
        "secondarycheck": {
            "value": ""
        },
        "source": {
            "value": "Pathfinder #152: Legacy of the Lost God"
        },
        "spellType": {
            "value": "save"
        },
        "sustained": {
            "value": false
        },
        "target": {
            "value": "1 creature"
        },
        "time": {
            "value": "2"
        },
        "traditions": {
            "custom": "",
            "value": [
                "arcane",
                "occult"
            ]
        },
        "traits": {
            "custom": "",
            "rarity": "uncommon",
            "value": [
                "attack",
                "curse",
                "mental",
                "misfortune"
            ]
        }
    },
    "flags": {},
    "img": "systems/pf2e/icons/spells/clownish-curse.webp",
    "name": "Clownish Curse",
    "type": "spell"
}
