{
    "_id": "lOZhcvtej10TqlQm",
    "data": {
        "ability": {
            "value": ""
        },
        "area": {
            "areaType": "",
            "value": ""
        },
        "category": {
            "value": "focus"
        },
        "components": {
            "focus": false,
            "material": false,
            "somatic": true,
            "verbal": false
        },
        "cost": {
            "value": ""
        },
        "damage": {
            "value": {}
        },
        "description": {
            "value": "<p>You make a quick gesture, tracing the link between yourself and your eidolon and drawing on your connection to slowly strengthen your shared life force. Your eidolon gains Fast Healing 4 for 4 rounds.</p>\n<p>@Compendium[pf2e.spell-effects.Spell Effect: Lifelink Surge]{Spell Effect: Lifelink Surge}</p>\n<hr />\n<p><strong>Heightened (+1)</strong> The fast healing increases by 2.</p>"
        },
        "duration": {
            "value": "4 rounds"
        },
        "hasCounteractCheck": {
            "value": false
        },
        "level": {
            "value": 2
        },
        "location": {
            "value": ""
        },
        "materials": {
            "value": ""
        },
        "range": {
            "value": ""
        },
        "rules": [],
        "save": {
            "basic": "",
            "value": ""
        },
        "school": {
            "value": "necromancy"
        },
        "source": {
            "value": "Pathfinder Secrets of Magic"
        },
        "spellType": {
            "value": "utility"
        },
        "sustained": {
            "value": false
        },
        "target": {
            "value": ""
        },
        "time": {
            "value": "1"
        },
        "traditions": {
            "value": []
        },
        "traits": {
            "custom": "",
            "rarity": "uncommon",
            "value": [
                "healing",
                "positive",
                "summoner"
            ]
        }
    },
    "flags": {},
    "img": "systems/pf2e/icons/spells/lifelink-surge.webp",
    "name": "Lifelink Surge",
    "type": "spell"
}
