{
    "_id": "rDDYGY2ekZ1yVv7q",
    "data": {
        "ability": {
            "value": ""
        },
        "area": {
            "areaType": "",
            "value": ""
        },
        "category": {
            "value": "spell"
        },
        "components": {
            "focus": false,
            "material": true,
            "somatic": true,
            "verbal": true
        },
        "cost": {
            "value": ""
        },
        "damage": {
            "value": {}
        },
        "description": {
            "value": "<p>When you Cast this Spell, roll [[/r 1d20]] and make a note of the result. You gain the @Compendium[pf2e.actionspf2e.That's My Number]{That's My Number} reaction; once you use the reaction, the spell ends, and you become temporarily immune to <em>lucky number</em> until the next time you make your daily preparations.</p>\n<p>@Compendium[pf2e.spell-effects.Spell Effect: Lucky Number]{Spell Effect: Lucky Number}</p>"
        },
        "duration": {
            "value": "until the next time you make your daily preparations"
        },
        "hasCounteractCheck": {
            "value": false
        },
        "level": {
            "value": 2
        },
        "location": {
            "value": ""
        },
        "materials": {
            "value": ""
        },
        "range": {
            "value": ""
        },
        "rules": [],
        "save": {
            "basic": "",
            "value": ""
        },
        "school": {
            "value": "divination"
        },
        "source": {
            "value": "Pathfinder Secrets of Magic"
        },
        "spellType": {
            "value": "utility"
        },
        "sustained": {
            "value": false
        },
        "target": {
            "value": ""
        },
        "time": {
            "value": "10 minutes"
        },
        "traditions": {
            "custom": "",
            "value": [
                "arcane",
                "divine",
                "occult"
            ]
        },
        "traits": {
            "custom": "",
            "rarity": "common",
            "value": [
                "contingency"
            ]
        }
    },
    "flags": {},
    "img": "systems/pf2e/icons/spells/lucky-number.webp",
    "name": "Lucky Number",
    "type": "spell"
}
