{
    "_id": "9u6X9ykhzG11NK1n",
    "data": {
        "ability": {
            "value": ""
        },
        "area": {
            "value": ""
        },
        "areasize": {
            "value": ""
        },
        "category": {
            "value": "spell"
        },
        "components": {
            "material": false,
            "somatic": true,
            "verbal": true
        },
        "cost": {
            "value": ""
        },
        "damage": {
            "value": {}
        },
        "description": {
            "value": "<p>You pour positive energy into ordinary stones, granting them temporary magical properties. You can target 1 non-magical stone or sling bullet for every action you use @Compendium[pf2e.actionspf2e.Cast a Spell]{Casting this Spell}. The stones must be unattended or carried by you or a willing ally. The stones become <em>+1 striking disrupting @Compendium[pf2e.equipment-srd.Sling Bullets]{Sling Bullets}</em>. Each stone can be used only once, after which it crumbles to dust.</p>"
        },
        "duration": {
            "value": "1 minute"
        },
        "hasCounteractCheck": {
            "value": false
        },
        "level": {
            "value": 1
        },
        "location": {
            "value": ""
        },
        "materials": {
            "value": ""
        },
        "prepared": {
            "value": false
        },
        "primarycheck": {
            "value": ""
        },
        "range": {
            "value": "touch"
        },
        "rules": [],
        "save": {
            "basic": "",
            "value": ""
        },
        "school": {
            "value": "necromancy"
        },
        "secondarycasters": {
            "value": ""
        },
        "secondarycheck": {
            "value": ""
        },
        "source": {
            "value": "Pathfinder Advanced Player's Guide"
        },
        "spellType": {
            "value": "utility"
        },
        "sustained": {
            "value": false
        },
        "target": {
            "value": "1 to 3 non-magical stones or sling bullets"
        },
        "time": {
            "value": "1 to 3"
        },
        "traditions": {
            "value": [
                "divine",
                "primal"
            ]
        },
        "traits": {
            "custom": "",
            "rarity": "common",
            "value": [
                "positive"
            ]
        }
    },
    "flags": {},
    "img": "systems/pf2e/icons/spells/magic-stone.webp",
    "name": "Magic Stone",
    "type": "spell"
}
