{
    "_id": "Tx8OqkBFA2QlaldW",
    "data": {
        "ability": {
            "value": ""
        },
        "area": {
            "areaType": "",
            "value": ""
        },
        "category": {
            "value": "spell"
        },
        "components": {
            "focus": false,
            "material": false,
            "somatic": true,
            "verbal": true
        },
        "cost": {
            "value": ""
        },
        "damage": {
            "applyMod": false,
            "value": {
                "0": {
                    "applyMod": false,
                    "type": {
                        "subtype": "",
                        "value": "bludgeoning"
                    },
                    "value": "3d6"
                },
                "1": {
                    "applyMod": false,
                    "type": {
                        "categories": [],
                        "subtype": "",
                        "value": "piercing"
                    },
                    "value": "3d6"
                }
            }
        },
        "description": {
            "value": "<p>You magnetize a small metal object, such as a nail or coin, and launch it away from you at massive speed. Make a ranged spell attack roll; if the target is wearing metal armor or is made of metal, you gain a +1 circumstance bonus to your attack roll with <em>magnetic acceleration</em>. On a hit, the target takes 3d6 bludgeoning damage and 3d6 piercing damage, or double damage on a critical hit.</p>\n<hr />\n<p><strong>Heightened (+1)</strong> The bludgeoning and piercing damage each increase by 1d6.</p>"
        },
        "duration": {
            "value": ""
        },
        "hasCounteractCheck": {
            "value": false
        },
        "heightening": {
            "damage": {
                "0": "1d6",
                "1": "1d6"
            },
            "interval": 1,
            "type": "interval"
        },
        "level": {
            "value": 3
        },
        "location": {
            "value": ""
        },
        "materials": {
            "value": ""
        },
        "range": {
            "value": "120 feet"
        },
        "rules": [],
        "save": {
            "basic": "",
            "value": ""
        },
        "school": {
            "value": "evocation"
        },
        "source": {
            "value": "Pathfinder Secrets of Magic"
        },
        "spellType": {
            "value": "attack"
        },
        "sustained": {
            "value": false
        },
        "target": {
            "value": "1 creature or object"
        },
        "time": {
            "value": "2"
        },
        "traditions": {
            "custom": "",
            "value": [
                "arcane",
                "primal"
            ]
        },
        "traits": {
            "custom": "",
            "rarity": "common",
            "value": [
                "attack"
            ]
        }
    },
    "flags": {},
    "img": "systems/pf2e/icons/spells/magnetic-acceleration.webp",
    "name": "Magnetic Acceleration",
    "type": "spell"
}
