{
    "_id": "24U1b9K4Lj94cgaj",
    "data": {
        "ability": {
            "value": ""
        },
        "area": {
            "areaType": "",
            "value": ""
        },
        "category": {
            "value": "spell"
        },
        "components": {
            "focus": false,
            "material": false,
            "somatic": true,
            "verbal": true
        },
        "cost": {
            "value": ""
        },
        "damage": {
            "value": {}
        },
        "description": {
            "value": "<p>You adjust your magnetic polarity, causing metal objects to jump and shudder away from you. Attacks made with metal objects against you take a -1 status penalty, and the squares adjacent to you are difficult terrain for creatures wearing metal armor. For creatures made entirely of metal, the penalty to their attack rolls is -2 and the squares adjacent to you are greater difficult terrain.</p>\n<p>While this spell is active, you require an additional Interact action before using a metal object (including to Strike with a metal weapon), and if you're wearing metal armor, you're @Compendium[pf2e.conditionitems.Slowed]{Slowed 1}.</p>\n<hr />\n<p><strong>Heightened (+3)</strong> The status penalty to attack rolls increases by 1.</p>"
        },
        "duration": {
            "value": "1 minute"
        },
        "hasCounteractCheck": {
            "value": false
        },
        "level": {
            "value": 2
        },
        "location": {
            "value": ""
        },
        "materials": {
            "value": ""
        },
        "range": {
            "value": ""
        },
        "rules": [],
        "save": {
            "basic": "",
            "value": ""
        },
        "school": {
            "value": "abjuration"
        },
        "source": {
            "value": "Pathfinder Secrets of Magic"
        },
        "spellType": {
            "value": "utility"
        },
        "sustained": {
            "value": false
        },
        "target": {
            "value": ""
        },
        "time": {
            "value": "2"
        },
        "traditions": {
            "custom": "",
            "value": [
                "arcane",
                "primal"
            ]
        },
        "traits": {
            "custom": "",
            "rarity": "common",
            "value": []
        }
    },
    "flags": {},
    "img": "systems/pf2e/icons/spells/magnetic-repulsion.webp",
    "name": "Magnetic Repulsion",
    "type": "spell"
}
