{
    "_id": "Wi2HcreCfujKiCvW",
    "data": {
        "ability": {
            "value": ""
        },
        "area": {
            "areaType": "burst",
            "value": "5"
        },
        "areasize": {
            "value": "up to two 5-foot bursts that don't overlap"
        },
        "category": {
            "value": "focus"
        },
        "components": {
            "focus": false,
            "material": false,
            "somatic": true,
            "verbal": true
        },
        "cost": {
            "value": ""
        },
        "damage": {
            "value": {
                "0": {
                    "applyMod": false,
                    "type": {
                        "categories": [],
                        "subtype": "",
                        "value": "fire"
                    },
                    "value": "5d6"
                }
            }
        },
        "description": {
            "value": "<p>You call forth a storm of whirling flames, engulfing all creatures in that area and dealing 5d6 fire damage with a basic Reflex save.</p>\n<hr />\n<p><strong>Heightened (+2)</strong> The damage increases by 3d6, and you can add another non-overlapping 5-foot burst to the area.</p>"
        },
        "duration": {
            "value": ""
        },
        "hasCounteractCheck": {
            "value": false
        },
        "heightening": {
            "damage": {
                "0": "3d6"
            },
            "interval": 2,
            "type": "interval"
        },
        "level": {
            "value": 3
        },
        "location": {
            "value": ""
        },
        "materials": {
            "value": ""
        },
        "prepared": {
            "value": ""
        },
        "primarycheck": {
            "value": ""
        },
        "range": {
            "value": "30 feet"
        },
        "rules": [],
        "save": {
            "basic": "basic",
            "value": "reflex"
        },
        "school": {
            "value": "evocation"
        },
        "secondarycasters": {
            "value": ""
        },
        "secondarycheck": {
            "value": ""
        },
        "source": {
            "value": "Pathfinder Advanced Player's Guide"
        },
        "spellType": {
            "value": "save"
        },
        "sustained": {
            "value": false
        },
        "target": {
            "value": ""
        },
        "time": {
            "value": "2"
        },
        "traditions": {
            "custom": "",
            "value": []
        },
        "traits": {
            "custom": "",
            "rarity": "uncommon",
            "value": [
                "cursebound",
                "fire",
                "oracle"
            ]
        }
    },
    "flags": {},
    "img": "systems/pf2e/icons/spells/whirling-flames.webp",
    "name": "Whirling Flames",
    "type": "spell"
}
