{
    "_id": "Yrek2Yd4k3DPC2zV",
    "data": {
        "ability": {
            "value": ""
        },
        "area": {
            "areaType": "",
            "value": null
        },
        "areasize": {
            "value": ""
        },
        "category": {
            "value": "focus"
        },
        "components": {
            "material": false,
            "somatic": true,
            "verbal": true
        },
        "cost": {
            "value": ""
        },
        "damage": {
            "value": {}
        },
        "description": {
            "value": "<p>You call a tiny star to orbit a creature in a sparkling halo before shooting up into the heavens, where it marks the creature's rough location. The target must attempt a Fortitude save.</p>\n<hr />\n<p><strong>Critical Success</strong> The target is unaffected.</p>\n<p><strong>Success</strong> The target is @Compendium[pf2e.conditionitems.Dazzled]{Dazzled} for 1 round.</p>\n<p><strong>Failure</strong> The target is Dazzled for 1 round. While the spell persists, as long as you can see the night sky and the target is visible from the same night sky, you can sense the approximate direction and distance to the creature by using a single action, which has the concentrate trait. This is exact enough to track the creature, but not pinpoint their exact square (for instance, to make an attack). You can set a number of <em>zenith stars</em> equal to your Wisdom modifier; if you exceed this number, your oldest <em>zenith star</em> is automatically Dismissed.</p>\n<p><strong>Critical Failure</strong> As failure, but the target is @Compendium[pf2e.conditionitems.Blinded]{Blinded} for 1 round.</p>\n<hr />\n<p><strong>Heightened (+1)</strong> The duration increases by 1 day.</p>\n<p><strong>Heightened (4th)</strong> You ignore the @Compendium[pf2e.conditionitems.Concealed]{Concealed} against targets marked by <em>zenith star</em>.</p>"
        },
        "duration": {
            "value": "1 day"
        },
        "hasCounteractCheck": {
            "value": false
        },
        "level": {
            "value": 1
        },
        "location": {
            "value": ""
        },
        "materials": {
            "value": ""
        },
        "prepared": {
            "value": ""
        },
        "primarycheck": {
            "value": ""
        },
        "range": {
            "value": "60 feet"
        },
        "rules": [],
        "save": {
            "basic": "",
            "value": "fortitude"
        },
        "school": {
            "value": "divination"
        },
        "secondarycasters": {
            "value": ""
        },
        "secondarycheck": {
            "value": ""
        },
        "source": {
            "value": "Pathfinder Lost Omens: Gods & Magic"
        },
        "spellType": {
            "value": "save"
        },
        "sustained": {
            "value": false
        },
        "target": {
            "value": "1 creature"
        },
        "time": {
            "value": "2"
        },
        "traditions": {
            "custom": "",
            "value": []
        },
        "traits": {
            "custom": "",
            "rarity": "common",
            "value": [
                "cleric",
                "light"
            ]
        }
    },
    "flags": {},
    "img": "systems/pf2e/icons/spells/zenith-star.webp",
    "name": "Zenith Star",
    "type": "spell"
}
