{
    "_id": "Ymg6WqeJqOyLJLEr",
    "data": {
        "actionCategory": {
            "value": ""
        },
        "actionType": {
            "value": "passive"
        },
        "actions": {
            "value": null
        },
        "description": {
            "value": "<p>As a kitsune, you gain the @Compendium[pf2e.actionspf2e.Change Shape (Kitsune)]{Change Shape (Kitsune)} ability.</p>"
        },
        "featType": {
            "value": "ancestryfeature"
        },
        "level": {
            "value": 0
        },
        "location": "",
        "prerequisites": {
            "value": []
        },
        "rules": [
            {
                "key": "GrantItem",
                "uuid": "Compendium.pf2e.actionspf2e.Change Shape (Kitsune)"
            }
        ],
        "source": {
            "value": ""
        },
        "traits": {
            "custom": "",
            "rarity": "common",
            "value": [
                "kitsune"
            ]
        }
    },
    "flags": {},
    "img": "systems/pf2e/icons/spells/fey-disapperance.webp",
    "name": "Change Shape",
    "type": "feat"
}
