{
    "_id": "y8sk7Q4uAtacYdR2",
    "data": {
        "actionCategory": {
            "value": ""
        },
        "actionType": {
            "value": "passive"
        },
        "actions": {
            "value": null
        },
        "description": {
            "value": "<p><strong>[Slotless][Generic]</strong></p>\n<p><strong>Effect</strong> Having Read the ancient scrolls from which Meleeka created the Unforgiving Fire style, you have gained access to the following feat for all of your characters (include a copy of this Chronicle sheet with any character who selects this feat).</p>\n<p>@Compendium[pf2e.feats-srd.Rain of Embers Stance]{Rain of Embers Stance}</p>"
        },
        "featType": {
            "value": "pfsboon"
        },
        "level": {
            "value": 0
        },
        "prerequisites": {
            "value": []
        },
        "rules": [],
        "source": {
            "value": ""
        },
        "traits": {
            "custom": "",
            "rarity": "common",
            "value": []
        }
    },
    "flags": {},
    "img": "systems/pf2e/icons/default-icons/mystery-man.webp",
    "name": "S1-Q02 - Student of the Unforgiving Fire",
    "type": "feat"
}
