{
    "_id": "8E5SCmFndGAvgkTw",
    "data": {
        "badge": null,
        "description": {
            "value": "<p>You gain a fly Speed of 30 feet.</p>"
        },
        "duration": {
            "expiry": "turn-end",
            "sustained": false,
            "unit": "minutes",
            "value": 1
        },
        "level": {
            "value": 5
        },
        "rules": [
            {
                "key": "BaseSpeed",
                "selector": "fly-speed",
                "value": 30
            }
        ],
        "source": {
            "value": "Pathfinder Lost Omens: Ancestry Guide"
        },
        "start": {
            "initiative": null,
            "value": 0
        },
        "target": null,
        "tokenIcon": {
            "show": false
        },
        "traits": {
            "custom": "",
            "rarity": "common",
            "value": []
        }
    },
    "flags": {},
    "img": "systems/pf2e/icons/spells/angelic-wings.webp",
    "name": "Effect: Energize Wings",
    "type": "effect"
}
