{
    "_id": "OhLcaJeQy4Nf5Mwo",
    "data": {
        "badge": null,
        "description": {
            "value": "<p>Granted by @Compendium[pf2e.feats-srd.Favored Terrain]{Favored Terrain (Aquatic)} if you have the @Compendium[pf2e.classfeatures.Wild Stride]{Wild Stride} class feature, and are in aquatic terrain and do not already have a swim Speed.</p>\n<p>You gain a swim Speed equal to your Speed.</p>"
        },
        "duration": {
            "expiry": "turn-start",
            "sustained": false,
            "unit": "unlimited",
            "value": -1
        },
        "level": {
            "value": 11
        },
        "rules": [
            {
                "key": "BaseSpeed",
                "selector": "swim",
                "value": "@actor.attributes.speed.value"
            }
        ],
        "source": {
            "value": ""
        },
        "start": {
            "initiative": null,
            "value": 0
        },
        "target": null,
        "tokenIcon": {
            "show": true
        },
        "traits": {
            "custom": "",
            "rarity": "common",
            "value": []
        }
    },
    "flags": {},
    "img": "systems/pf2e/icons/spells/elemental-form-water.webp",
    "name": "Favored Terrain (Gain Swim Speed)",
    "type": "effect"
}
