{
    "_id": "oiXbo1VSfDrHpIQm",
    "data": {
        "abilities": {
            "cha": {
                "mod": 0
            },
            "con": {
                "mod": 2
            },
            "dex": {
                "mod": 4
            },
            "int": {
                "mod": -1
            },
            "str": {
                "mod": 2
            },
            "wis": {
                "mod": 2
            }
        },
        "attributes": {
            "ac": {
                "details": "",
                "value": 19
            },
            "allSaves": {
                "value": ""
            },
            "hp": {
                "details": "",
                "max": 30,
                "temp": 0,
                "value": 30
            },
            "initiative": {
                "ability": "perception"
            },
            "perception": {
                "value": 6
            },
            "speed": {
                "otherSpeeds": [],
                "value": "25"
            }
        },
        "details": {
            "alignment": {
                "value": "N"
            },
            "blurb": "",
            "creatureType": "Fungus",
            "level": {
                "value": 2
            },
            "privateNotes": "",
            "publicNotes": "<p>Fungus leshys guard caves, bogs, and damp, dark places. Their fungus gardens are bizarre by most standards, but fungus leshys are extremely proud of their works.</p>\n<hr />\n<p>Leshys are intelligent plant creatures that guard areas of primeval wilderness or earthly power. Originally created by powerful fey, they manifest when a skilled practitioner of primal magic-typically a druid-combines a nature spirit with a body carefully grown from local vegetation. The rites and materials required to create a leshy vary depending on the type of leshy. They are typically given life in an area of great natural significance, such as an arboreal's grove, a druidic circle, a fairy ring, or a great natural wonder.</p>",
            "source": {
                "value": "Pathfinder Bestiary"
            }
        },
        "resources": {
            "focus": {
                "max": 1,
                "value": 1
            }
        },
        "saves": {
            "fortitude": {
                "saveDetail": "",
                "value": 8
            },
            "reflex": {
                "saveDetail": "",
                "value": 10
            },
            "will": {
                "saveDetail": "",
                "value": 6
            }
        },
        "traits": {
            "ci": [],
            "di": {
                "custom": "",
                "value": []
            },
            "dr": [],
            "dv": [],
            "languages": {
                "custom": "Speak With Plants (Fungi Only)",
                "selected": [],
                "value": [
                    "common",
                    "druidic",
                    "sylvan"
                ]
            },
            "rarity": "common",
            "senses": {
                "value": "darkvision"
            },
            "size": {
                "value": "sm"
            },
            "traits": {
                "custom": "",
                "value": [
                    "fungus",
                    "leshy"
                ]
            }
        }
    },
    "flags": {},
    "img": "systems/pf2e/icons/default-icons/npc.svg",
    "items": [
        {
            "_id": "TziDQnLmJx7Ty2df",
            "data": {
                "autoHeightenLevel": {
                    "value": null
                },
                "description": {
                    "value": ""
                },
                "displayLevels": {},
                "prepared": {
                    "flexible": false,
                    "value": "innate"
                },
                "proficiency": {
                    "value": 0
                },
                "rules": [],
                "showSlotlessLevels": {
                    "value": false
                },
                "showUnpreparedSpells": {
                    "value": true
                },
                "slots": {
                    "slot0": {
                        "max": 0,
                        "prepared": [],
                        "value": 0
                    },
                    "slot1": {
                        "max": 0,
                        "prepared": [],
                        "value": 0
                    },
                    "slot10": {
                        "max": 0,
                        "prepared": [],
                        "value": 0
                    },
                    "slot11": {
                        "max": 0,
                        "prepared": [],
                        "value": 0
                    },
                    "slot2": {
                        "max": 0,
                        "prepared": [],
                        "value": 0
                    },
                    "slot3": {
                        "max": 0,
                        "prepared": [],
                        "value": 0
                    },
                    "slot4": {
                        "max": 0,
                        "prepared": [],
                        "value": 0
                    },
                    "slot5": {
                        "max": 0,
                        "prepared": [],
                        "value": 0
                    },
                    "slot6": {
                        "max": 0,
                        "prepared": [],
                        "value": 0
                    },
                    "slot7": {
                        "max": 0,
                        "prepared": [],
                        "value": 0
                    },
                    "slot8": {
                        "max": 0,
                        "prepared": [],
                        "value": 0
                    },
                    "slot9": {
                        "max": 0,
                        "prepared": [],
                        "value": 0
                    }
                },
                "slug": null,
                "source": {
                    "value": ""
                },
                "spelldc": {
                    "dc": 16,
                    "mod": 0,
                    "value": 8
                },
                "tradition": {
                    "value": "primal"
                },
                "traits": {
                    "custom": "",
                    "rarity": "common",
                    "value": []
                }
            },
            "flags": {},
            "img": "systems/pf2e/icons/default-icons/spellcastingEntry.svg",
            "name": "Primal Innate Spells",
            "sort": 100000,
            "type": "spellcastingEntry"
        },
        {
            "_id": "amSvuFJZrW9kA3mr",
            "data": {
                "ability": {
                    "value": ""
                },
                "area": {
                    "areaType": "",
                    "value": null
                },
                "areasize": {
                    "value": ""
                },
                "category": {
                    "value": "spell"
                },
                "components": {
                    "focus": false,
                    "material": false,
                    "somatic": true,
                    "verbal": true
                },
                "cost": {
                    "value": ""
                },
                "damage": {
                    "value": {}
                },
                "description": {
                    "value": "<p>You can ask questions of and receive answers from plants, but the spell doesn't make them more friendly or intelligent than normal. Most normal plants have a distinctive view of the world around them, so they don't recognize details about creatures or know anything about the world beyond their immediate vicinity. Cunning plant monsters are likely to be terse and evasive, while less intelligent ones often make inane comments.</p>"
                },
                "duration": {
                    "value": "10 minutes"
                },
                "hasCounteractCheck": {
                    "value": false
                },
                "level": {
                    "value": 4
                },
                "location": {
                    "heightenedLevel": 4,
                    "value": "TziDQnLmJx7Ty2df"
                },
                "materials": {
                    "value": ""
                },
                "prepared": {
                    "value": ""
                },
                "primarycheck": {
                    "value": ""
                },
                "range": {
                    "value": ""
                },
                "rules": [],
                "save": {
                    "basic": "",
                    "value": ""
                },
                "school": {
                    "value": "divination"
                },
                "secondarycasters": {
                    "value": ""
                },
                "secondarycheck": {
                    "value": ""
                },
                "slug": "speak-with-plants",
                "source": {
                    "value": "Pathfinder Core Rulebook"
                },
                "spellType": {
                    "value": "utility"
                },
                "sustained": {
                    "value": false
                },
                "target": {
                    "value": ""
                },
                "time": {
                    "value": "2"
                },
                "traditions": {
                    "value": [
                        "primal"
                    ]
                },
                "traits": {
                    "custom": "",
                    "rarity": "common",
                    "value": [
                        "plant"
                    ]
                }
            },
            "flags": {
                "core": {
                    "sourceId": "Compendium.pf2e.spells-srd.qvwIwJ9QBihy8R0t"
                }
            },
            "img": "systems/pf2e/icons/spells/speak-with-plants.webp",
            "name": "Speak with Plants",
            "sort": 200000,
            "type": "spell"
        },
        {
            "_id": "tMZ3S5BdHrl0iX7R",
            "data": {
                "attack": {
                    "value": ""
                },
                "attackEffects": {
                    "custom": "",
                    "value": []
                },
                "bonus": {
                    "value": 10
                },
                "damageRolls": {
                    "fs9yf1bsxhp2qieca3bo": {
                        "damage": "1d6+2",
                        "damageType": "bludgeoning"
                    }
                },
                "description": {
                    "value": ""
                },
                "rules": [],
                "slug": null,
                "source": {
                    "value": ""
                },
                "traits": {
                    "custom": "",
                    "rarity": "common",
                    "value": [
                        "agile",
                        "finesse"
                    ]
                },
                "weaponType": {
                    "value": "melee"
                }
            },
            "flags": {},
            "img": "systems/pf2e/icons/default-icons/melee.svg",
            "name": "Fist",
            "sort": 300000,
            "type": "melee"
        },
        {
            "_id": "0vN6RMlNxCUWYSPj",
            "data": {
                "attack": {
                    "value": ""
                },
                "attackEffects": {
                    "custom": "",
                    "value": [
                        "spores"
                    ]
                },
                "bonus": {
                    "value": 10
                },
                "damageRolls": {
                    "oi2aaphxeqdd464k592r": {
                        "damage": "1d6+2",
                        "damageType": "bludgeoning"
                    }
                },
                "description": {
                    "value": ""
                },
                "rules": [],
                "slug": null,
                "source": {
                    "value": ""
                },
                "traits": {
                    "custom": "",
                    "rarity": "common",
                    "value": [
                        "range-increment-30"
                    ]
                },
                "weaponType": {
                    "value": "ranged"
                }
            },
            "flags": {},
            "img": "systems/pf2e/icons/default-icons/melee.svg",
            "name": "Spore Pod",
            "sort": 400000,
            "type": "melee"
        },
        {
            "_id": "d0rdYMltT1ZmbABn",
            "data": {
                "actionCategory": {
                    "value": "interaction"
                },
                "actionType": {
                    "value": "passive"
                },
                "actions": {
                    "value": null
                },
                "description": {
                    "value": "<p>@Localize[PF2E.NPC.Abilities.Glossary.Darkvision]</p>"
                },
                "requirements": {
                    "value": ""
                },
                "rules": [],
                "slug": "darkvision",
                "source": {
                    "value": ""
                },
                "traits": {
                    "custom": "",
                    "rarity": "common",
                    "value": []
                },
                "trigger": {
                    "value": ""
                },
                "weapon": {
                    "value": ""
                }
            },
            "flags": {
                "core": {
                    "sourceId": "Compendium.pf2e.bestiary-ability-glossary-srd.qCCLZhnp2HhP3Ex6"
                }
            },
            "img": "systems/pf2e/icons/actions/Passive.webp",
            "name": "Darkvision",
            "sort": 500000,
            "type": "action"
        },
        {
            "_id": "Y2DikEsO4R95MHFo",
            "data": {
                "actionCategory": {
                    "value": "defensive"
                },
                "actionType": {
                    "value": "passive"
                },
                "actions": {
                    "value": null
                },
                "deathNote": true,
                "description": {
                    "value": "<p>When a fungus leshy dies, a burst of primal energy explodes from its body, restoring [[/r {2d8}[healing]]]{2d8 Hit Points} to each fungi creature in a @Template[type:emanation|distance:30]. This area is filled with fungi, becoming difficult terrain. If the terrain is not a viable environment for this fungi, they wither after 24 hours.</p>"
                },
                "requirements": {
                    "value": ""
                },
                "rules": [],
                "slug": null,
                "source": {
                    "value": ""
                },
                "traits": {
                    "custom": "",
                    "rarity": "common",
                    "value": [
                        "healing"
                    ]
                },
                "trigger": {
                    "value": ""
                },
                "weapon": {
                    "value": ""
                }
            },
            "flags": {},
            "img": "systems/pf2e/icons/actions/Passive.webp",
            "name": "Verdant Burst",
            "sort": 600000,
            "type": "action"
        },
        {
            "_id": "ki3C4xNREH5G9Knv",
            "data": {
                "actionCategory": {
                    "value": "offensive"
                },
                "actionType": {
                    "value": "action"
                },
                "actions": {
                    "value": 1
                },
                "description": {
                    "value": "<p>The fungus leshy transforms into a Small giant mushroom or patch of fungi. This ability otherwise uses the effects of <em>@Compendium[pf2e.spells-srd.Tree Shape]{Tree Shape}</em>.</p>\n<hr />\n<p>@Localize[PF2E.NPC.Abilities.Glossary.ChangeShape]</p>"
                },
                "requirements": {
                    "value": ""
                },
                "rules": [],
                "slug": "change-shape",
                "source": {
                    "value": ""
                },
                "traits": {
                    "custom": "",
                    "rarity": "common",
                    "value": [
                        "concentrate",
                        "polymorph",
                        "primal",
                        "transmutation"
                    ]
                },
                "trigger": {
                    "value": ""
                },
                "weapon": {
                    "value": ""
                }
            },
            "flags": {
                "core": {
                    "sourceId": "Compendium.pf2e.bestiary-ability-glossary-srd.eQM5hQ1W3d1uen97"
                }
            },
            "img": "systems/pf2e/icons/actions/OneAction.webp",
            "name": "Change Shape",
            "sort": 700000,
            "type": "action"
        },
        {
            "_id": "LCFMKpxw0iDxWGXu",
            "data": {
                "actionCategory": {
                    "value": "offensive"
                },
                "actionType": {
                    "value": "action"
                },
                "actions": {
                    "value": 2
                },
                "description": {
                    "value": "<p>A fungus leshy can unleash a cloud of spores that irritates the eyes and throats of non-fungi creatures in a @Template[type:emanation|distance:15]. Each creature must succeed at a @Check[type:fortitude|dc:16|traits:damaging-effect] save or take [[/r {1}[persistent,poison]]] @Compendium[pf2e.conditionitems.Persistent Damage]{Persistent Poison Damage}. A creature has its vision reduced as long as the persistent damage continues and can see only within 20 feet (or 10 feet, on a critical failure).</p>"
                },
                "requirements": {
                    "value": ""
                },
                "rules": [],
                "slug": null,
                "source": {
                    "value": ""
                },
                "traits": {
                    "custom": "",
                    "rarity": "common",
                    "value": [
                        "poison"
                    ]
                },
                "trigger": {
                    "value": ""
                },
                "weapon": {
                    "value": ""
                }
            },
            "flags": {},
            "img": "systems/pf2e/icons/actions/TwoActions.webp",
            "name": "Spore Cloud",
            "sort": 800000,
            "type": "action"
        },
        {
            "_id": "ARWbmjbxbCd0JMUv",
            "data": {
                "actionCategory": {
                    "value": "offensive"
                },
                "actionType": {
                    "value": "passive"
                },
                "actions": {
                    "value": null
                },
                "description": {
                    "value": "<p>A creature that takes damage from a fungus leshy's spore pod Strike must attempt a saving throw with the same DC and effect as its Spore Cloud ability.</p>"
                },
                "requirements": {
                    "value": ""
                },
                "rules": [],
                "slug": null,
                "source": {
                    "value": ""
                },
                "traits": {
                    "custom": "",
                    "rarity": "common",
                    "value": []
                },
                "trigger": {
                    "value": ""
                },
                "weapon": {
                    "value": ""
                }
            },
            "flags": {},
            "img": "systems/pf2e/icons/actions/Passive.webp",
            "name": "Spores",
            "sort": 900000,
            "type": "action"
        },
        {
            "_id": "icylpIvbD58ps7nI",
            "data": {
                "description": {
                    "value": ""
                },
                "mod": {
                    "value": 6
                },
                "proficient": {
                    "value": 0
                },
                "rules": [],
                "slug": null,
                "source": {
                    "value": ""
                },
                "traits": {
                    "custom": "",
                    "rarity": "common",
                    "value": []
                }
            },
            "flags": {},
            "img": "systems/pf2e/icons/default-icons/lore.svg",
            "name": "Athletics",
            "sort": 1000000,
            "type": "lore"
        },
        {
            "_id": "6LaWG4IDsnxGRYOt",
            "data": {
                "description": {
                    "value": ""
                },
                "mod": {
                    "value": 6
                },
                "proficient": {
                    "value": 0
                },
                "rules": [],
                "slug": null,
                "source": {
                    "value": ""
                },
                "traits": {
                    "custom": "",
                    "rarity": "common",
                    "value": []
                }
            },
            "flags": {},
            "img": "systems/pf2e/icons/default-icons/lore.svg",
            "name": "Nature",
            "sort": 1100000,
            "type": "lore"
        },
        {
            "_id": "Thppax1RZGjOC87q",
            "data": {
                "description": {
                    "value": ""
                },
                "mod": {
                    "value": 8
                },
                "proficient": {
                    "value": 0
                },
                "rules": [],
                "slug": null,
                "source": {
                    "value": ""
                },
                "traits": {
                    "custom": "",
                    "rarity": "common",
                    "value": []
                }
            },
            "flags": {},
            "img": "systems/pf2e/icons/default-icons/lore.svg",
            "name": "Stealth",
            "sort": 1200000,
            "type": "lore"
        }
    ],
    "name": "Fungus Leshy",
    "token": {
        "disposition": -1,
        "height": 1,
        "img": "systems/pf2e/icons/default-icons/npc.svg",
        "name": "Fungus Leshy",
        "width": 1
    },
    "type": "npc"
}
