{
    "_id": "XaYM6Td0yhx2POau",
    "data": {
        "badge": null,
        "description": {
            "value": "<p>The creature takes a -1 circumstance penalty to Strikes but deals an additional [[/r {1d6}[bludgeoning]]]{1d6 bludgeoning damage} plus @Compendium[pf2e.bestiary-ability-glossary-srd.Knockdown]{Knockdown}.</p>"
        },
        "duration": {
            "expiry": "turn-end",
            "sustained": false,
            "unit": "minutes",
            "value": 10
        },
        "level": {
            "value": 2
        },
        "rules": [
            {
                "key": "FlatModifier",
                "selector": "attack-roll",
                "type": "circumstance",
                "value": -1
            },
            {
                "damageType": "bludgeoning",
                "diceNumber": 1,
                "dieSize": "d6",
                "key": "DamageDice",
                "selector": "strike-damage"
            },
            {
                "key": "Note",
                "selector": "attack",
                "text": "<div data-visibility='gm'><p><strong><span class='pf2-icon'>1</span> @Localize[PF2E.AttackEffectKnockdown]</strong> ({item|name})</p><p>@Localize[PF2E.NPC.Abilities.Glossary.Knockdown]</p></div>"
            }
        ],
        "source": {
            "value": "Pathfinder #151: The Show Must Go On"
        },
        "start": {
            "initiative": null,
            "value": 0
        },
        "target": null,
        "tokenIcon": {
            "show": true
        },
        "traits": {
            "custom": "",
            "rarity": "common",
            "value": []
        }
    },
    "flags": {},
    "img": "systems/pf2e/icons/spells/electric-arc.webp",
    "name": "Effect: Haywire",
    "type": "effect"
}
