{
    "_id": "pvA97TXnq7wCbXp6",
    "data": {
        "badge": null,
        "description": {
            "value": "<p>The target takes a -10-foot penalty to all its Speeds for 1 minute.</p>"
        },
        "duration": {
            "expiry": "turn-end",
            "sustained": false,
            "unit": "minutes",
            "value": 1
        },
        "level": {
            "value": 10
        },
        "rules": [
            {
                "key": "FlatModifier",
                "selector": "speed",
                "type": "status",
                "value": -10
            }
        ],
        "source": {
            "value": "Pathfinder #152: Legacy of the Lost God"
        },
        "start": {
            "initiative": null,
            "value": 0
        },
        "target": null,
        "tokenIcon": {
            "show": true
        },
        "traits": {
            "custom": "",
            "rarity": "common",
            "value": []
        }
    },
    "flags": {},
    "img": "systems/pf2e/icons/conditions/immobilized.webp",
    "name": "Effect: Call to Halt (Success)",
    "type": "effect"
}
