{
    "_id": "3QUaxNvpHDmf9cTo",
    "data": {
        "description": {
            "value": "<p>The rock deals an additional 3d6 fire damage on all attacks.</p>"
        },
        "duration": {
            "expiry": "turn-start",
            "sustained": false,
            "unit": "minutes",
            "value": 1
        },
        "level": {
            "value": 1
        },
        "rules": [
            {
                "damageType": "fire",
                "diceNumber": 3,
                "dieSize": "d6",
                "key": "DamageDice",
                "label": "Rune of Flames",
                "selector": "rock-damage"
            }
        ],
        "source": {
            "value": "Pathfinder Bestiary"
        },
        "start": {
            "initiative": null,
            "value": 0
        },
        "target": null,
        "tokenIcon": {
            "show": true
        },
        "traits": {
            "custom": "",
            "rarity": "common",
            "value": []
        }
    },
    "flags": {},
    "img": "systems/pf2e/icons/equipment/runes/fundamental-armor-runes/armor-potency.webp",
    "name": "Effect: Rune of Flames (Rock)",
    "type": "effect"
}
