{
    "_id": "eZL4B1P4H8hr1CAn",
    "data": {
        "badge": null,
        "description": {
            "value": "<p>The creature takes a -4 penalty to Stealth checks.</p>"
        },
        "duration": {
            "expiry": "turn-start",
            "sustained": false,
            "unit": "hours",
            "value": 24
        },
        "level": {
            "value": 1
        },
        "rules": [
            {
                "key": "FlatModifier",
                "selector": "stealth",
                "value": -4
            }
        ],
        "source": {
            "value": "Pathfinder #145: Hellknight Hill"
        },
        "start": {
            "initiative": null,
            "value": 0
        },
        "target": null,
        "tokenIcon": {
            "show": true
        },
        "traits": {
            "custom": "",
            "rarity": "common",
            "value": []
        }
    },
    "flags": {},
    "img": "systems/pf2e/icons/spells/disperse-into-air.webp",
    "name": "Effect: Glowing Spores",
    "type": "effect"
}
