{
    "_id": "c6Nj3CaiHSXpfehS",
    "data": {
        "attributes": {
            "ac": {
                "value": 0
            },
            "hardness": 0,
            "hasHealth": true,
            "hp": {
                "details": "",
                "max": 10,
                "temp": 0,
                "value": 10
            },
            "stealth": {
                "details": "",
                "value": 2
            }
        },
        "creatureType": "",
        "details": {
            "description": "<p>Around the edges of the pit, more rotting boards are ready to give way.</p>",
            "disable": "<p>Craft DC 14 to reinforce the beams</p>",
            "isComplex": false,
            "level": {
                "value": 0
            },
            "reset": "<p>As the damage to the floor spreads, the areas adjacent to the new pit become new areas of this hazard.</p>",
            "routine": ""
        },
        "saves": {
            "fortitude": {
                "saveDetail": "",
                "value": 0
            },
            "reflex": {
                "saveDetail": "",
                "value": 0
            },
            "will": {
                "saveDetail": "",
                "value": 0
            }
        },
        "source": {
            "value": ""
        },
        "statusEffects": [],
        "traits": {
            "ci": [],
            "di": {
                "custom": "",
                "selected": {},
                "value": []
            },
            "dr": [],
            "dv": [],
            "rarity": "common",
            "size": {
                "value": "med"
            },
            "traits": {
                "custom": "",
                "value": [
                    "mechanical",
                    "trap"
                ]
            }
        }
    },
    "flags": {},
    "img": "systems/pf2e/icons/default-icons/hazard.svg",
    "items": [
        {
            "_id": "XDVnS5YE9ffhPSeE",
            "data": {
                "actionCategory": {
                    "value": "offensive"
                },
                "actionType": {
                    "value": "reaction"
                },
                "actions": {
                    "value": null
                },
                "description": {
                    "value": "<p><strong>Trigger</strong> A creature walks next to the pit.</p>\n<p><strong>Effect</strong> The triggering creature falls in and takes falling damage (typically [[/r {3}[bludgeoning]]]{3 bludgeoning damage}) plus [[/r {2d6}[piercing]]]{2d6 piercing damage} from landing on broken boards.</p>\n<p>That creature can attempt to @Compendium[pf2e.actionspf2e.Grab an Edge]{Grab an Edge} to avoid falling; the DC to @Compendium[pf2e.actionspf2e.Climb]{Climb} the walls or Grab an Edge is 14.</p>"
                },
                "requirements": {
                    "value": ""
                },
                "rules": [],
                "slug": null,
                "source": {
                    "value": ""
                },
                "traits": {
                    "custom": "",
                    "rarity": "common",
                    "value": []
                },
                "trigger": {
                    "value": ""
                },
                "weapon": {
                    "value": ""
                }
            },
            "flags": {},
            "img": "systems/pf2e/icons/actions/Reaction.webp",
            "name": "Pitfall",
            "sort": 100000,
            "type": "action"
        }
    ],
    "name": "Crumbling Floor",
    "token": {
        "disposition": 0,
        "height": 1,
        "img": "systems/pf2e/icons/default-icons/hazard.svg",
        "name": "Crumbling Floor",
        "width": 1
    },
    "type": "hazard"
}
